{"records": [{"General_Party": {"General_Party": "Republican", "token": "law-p", "id": "2"}, "Election_Year": {"token": "y", "id": "2014", "Election_Year": "2014"}, "Office": {"token": "law-oc", "id": "R00", "Office": "HOUSE"}, "Lawmaker": {"Lawmaker": "WILLIAMS, PHIL", "token": "law-eid", "id": "6688494"}, "Total_$": {"Total_$": "1295420.52"}, "request": "s=AL&f-core=1&y=2014&law-eid=6688494&law-oc=R00&law-p=2", "record_id": 401, "#_of_Records": {"#_of_Records": "585"}, "General_Office": {"token": "law-ot", "id": "H", "General_Office": "State House/Assembly"}}, {"General_Party": {"General_Party": "Republican", "token": "law-p", "id": "2"}, "Election_Year": {"token": "y", "id": "2014", "Election_Year": "2014"}, "Office": {"token": "law-oc", "id": "S00", "Office": "SENATE"}, "Lawmaker": {"Lawmaker": "WILLIAMS, PHIL", "token": "law-eid", "id": "6688494"}, "Total_$": {"Total_$": "419160.00"}, "request": "s=AL&f-core=1&y=2014&law-eid=6688494&law-oc=S00&law-p=2", "record_id": 402, "#_of_Records": {"#_of_Records": "399"}, "General_Office": {"token": "law-ot", "id": "S", "General_Office": "State Senate"}}, {"General_Party": {"General_Party": "Republican", "token": "law-p", "id": "2"}, "Election_Year": {"token": "y", "id": "2010", "Election_Year": "2010"}, "Office": {"token": "law-oc", "id": "R00", "Office": "HOUSE"}, "Lawmaker": {"Lawmaker": "WILLIAMS, PHILLIP", "token": "law-eid", "id": "12997302"}, "Total_$": {"Total_$": "67814.45"}, "request": "s=AL&f-core=1&y=2010&law-eid=12997302&law-oc=R00&law-p=2", "record_id": 403, "#_of_Records": {"#_of_Records": "57"}, "General_Office": {"token": "law-ot", "id": "H", "General_Office": "State House/Assembly"}}, {"General_Party": {"General_Party": "Republican", "token": "law-p", "id": "2"}, "Election_Year": {"token": "y", "id": "2014", "Election_Year": "2014"}, "Office": {"token": "law-oc", "id": "R00", "Office": "HOUSE"}, "Lawmaker": {"Lawmaker": "WILLIAMS, PHILLIP", "token": "law-eid", "id": "12997302"}, "Total_$": {"Total_$": "42325.00"}, "request": "s=AL&f-core=1&y=2014&law-eid=12997302&law-oc=R00&law-p=2", "record_id": 404, "#_of_Records": {"#_of_Records": "152"}, "General_Office": {"token": "law-ot", "id": "H", "General_Office": "State House/Assembly"}}, {"General_Party": {"General_Party": "Republican", "token": "law-p", "id": "2"}, "Election_Year": {"token": "y", "id": "2014", "Election_Year": "2014"}, "Office": {"token": "law-oc", "id": "R00", "Office": "HOUSE"}, "Lawmaker": {"Lawmaker": "WINGO, RICH", "token": "law-eid", "id": "21530414"}, "Total_$": {"Total_$": "211395.58"}, "request": "s=AL&f-core=1&y=2014&law-eid=21530414&law-oc=R00&law-p=2", "record_id": 405, "#_of_Records": {"#_of_Records": "196"}, "General_Office": {"token": "law-ot", "id": "H", "General_Office": "State House/Assembly"}}, {"General_Party": {"General_Party": "Republican", "token": "law-p", "id": "2"}, "Election_Year": {"token": "y", "id": "2002", "Election_Year": "2002"}, "Office": {"token": "law-oc", "id": "R00", "Office": "HOUSE"}, "Lawmaker": {"Lawmaker": "WOOD, RANDY", "token": "law-eid", "id": "6578072"}, "Total_$": {"Total_$": "142760.00"}, "request": "s=AL&f-core=1&y=2002&law-eid=6578072&law-oc=R00&law-p=2", "record_id": 406, "#_of_Records": {"#_of_Records": "182"}, "General_Office": {"token": "law-ot", "id": "H", "General_Office": "State House/Assembly"}}, {"General_Party": {"General_Party": "Republican", "token": "law-p", "id": "2"}, "Election_Year": {"token": "y", "id": "2006", "Election_Year": "2006"}, "Office": {"token": "law-oc", "id": "R00", "Office": "HOUSE"}, "Lawmaker": {"Lawmaker": "WOOD, RANDY", "token": "law-eid", "id": "6578072"}, "Total_$": {"Total_$": "245250.00"}, "request": "s=AL&f-core=1&y=2006&law-eid=6578072&law-oc=R00&law-p=2", "record_id": 407, "#_of_Records": {"#_of_Records": "450"}, "General_Office": {"token": "law-ot", "id": "H", "General_Office": "State House/Assembly"}}, {"General_Party": {"General_Party": "Republican", "token": "law-p", "id": "2"}, "Election_Year": {"token": "y", "id": "2010", "Election_Year": "2010"}, "Office": {"token": "law-oc", "id": "R00", "Office": "HOUSE"}, "Lawmaker": {"Lawmaker": "WOOD, RANDY", "token": "law-eid", "id": "6578072"}, "Total_$": {"Total_$": "317700.00"}, "request": "s=AL&f-core=1&y=2010&law-eid=6578072&law-oc=R00&law-p=2", "record_id": 408, "#_of_Records": {"#_of_Records": "460"}, "General_Office": {"token": "law-ot", "id": "H", "General_Office": "State House/Assembly"}}, {"General_Party": {"General_Party": "Republican", "token": "law-p", "id": "2"}, "Election_Year": {"token": "y", "id": "2014", "Election_Year": "2014"}, "Office": {"token": "law-oc", "id": "R00", "Office": "HOUSE"}, "Lawmaker": {"Lawmaker": "WOOD, RANDY", "token": "law-eid", "id": "6578072"}, "Total_$": {"Total_$": "126400.00"}, "request": "s=AL&f-core=1&y=2014&law-eid=6578072&law-oc=R00&law-p=2", "record_id": 409, "#_of_Records": {"#_of_Records": "248"}, "General_Office": {"token": "law-ot", "id": "H", "General_Office": "State House/Assembly"}}], "metaInfo": {"sorting": {"currentSorting": {"law-eid": "Lawmaker"}, "sortLink": "so=law-eid&sod=0", "availableSorting": {"law-oc": "Office", "u-tot": "Total_$", "law-ot": "General_Office", "y": "Election_Year", "law-p": "General_Party", "u-rec": "#_of_Records"}, "sortingDirection": "descending"}, "completeness": {"allReports": "23214", "completeReports": "21898", "availableReports": "22305", "lastUpdated": "2016-05-18 12:00:59", "incompleteAvailable": "407", "mostRecentReportDate": "2016-02-15"}, "format": "json", "recordFormat": {"General_Party": {"General_Party": "display value", "token": "law-p", "id": "token value"}, "Election_Year": {"token": "y", "id": "token value", "Election_Year": "display value"}, "Office": {"token": "law-oc", "id": "token value", "Office": "display value"}, "Lawmaker": {"Lawmaker": "display value", "token": "law-eid", "id": "token value"}, "Total_$": {"Total_$": "display value"}, "request": "s=AL&f-core=1", "#_of_Records": {"#_of_Records": "display value"}, "General_Office": {"token": "law-ot", "id": "token value", "General_Office": "display value"}}, "paging": {"totalRecords": "409", "minPage": 0, "recordsThisPage": 9, "pageLink": "p=4", "maxPage": 4, "recordsPerPage": 100, "totalPages": 5, "currentPage": 4}, "grouping": {"availableGrouping": {"d-et": "Type of Contributor (Contributors)", "d-empl": "Employer (Contributors)", "d-amt": "Amount (Advanced)", "d-id": "Record (Contributors)", "d-typ": "Type of Transaction (Advanced)", "f-eid": "Filer (General)", "d-cci": "General Industry (Contributors)", "d-ccg": "Broad Sector (Contributors)", "d-ccb": "Specific Business (Contributors)", "law-pt": "Specific Party (Lawmakers)", "d-ad-zip": "Zip (Contributors)", "d-nme": "Original Name (Advanced)", "law-did": "Office Held (Advanced)", "d-ins": "In-Jurisdiction (Contributors)", "d-ad-cty": "City (Contributors)", "d-occupation": "Occupation (Contributors)", "d-ludte": "Last Updated (Advanced)", "d-file": "DND (Advanced)", "d-ad-str": "Street (Advanced)", "d-dte": "Date (Advanced)", "d-ad-st": "State (Contributors)", "f-y": "Filing Year (Advanced)", "f-s": "Filing Jurisdiction (General)", "d-eid": "Contributor (Contributors)", "s": "Election Jurisdiction (General)", "d-llink": "Lobbying Entity? (Advanced)"}, "currentGrouping": {"y": "Election Year (General)", "law-p": "General Party (Lawmakers)", "law-oc": "Office (Lawmakers)", "law-eid": "Lawmaker (Lawmakers)"}, "groupLink": "gro=y,law-eid,law-oc,law-p"}}}