{"records": [{"General_Party": {"General_Party": "Democratic", "token": "c-t-p", "id": "1"}, "Office_Sought": {"Office_Sought": "HOUSE DISTRICT 054", "token": "c-r-osid", "id": "358"}, "Election_Year": {"token": "y", "id": "2016", "Election_Year": "2016"}, "Candidate": {"token": "c-t-id", "id": "194319", "Candidate": "WILLIAMS, HUNTER"}, "Candidate_Entity": {"token": "c-t-eid", "id": "37971356", "Candidate_Entity": "WILLIAMS, HUNTER"}, "Election_Status": {"Election_Status": "Pending-General", "token": "c-t-ftsts", "id": "Pending-General"}, "Total_$": {"Total_$": "5562.14"}, "Incumbency_Status": {"token": "c-t-ico", "Incumbency_Status": "Open", "id": "O"}, "request": "s=AR&y=2015,2016&f-core=1&c-exi=1&c-t-id=194319", "Specific_Party": {"token": "c-t-pt", "Specific_Party": "DEMOCRATIC", "id": "33"}, "record_id": 201, "Election_Jurisdiction": {"token": "s", "id": "AR", "Election_Jurisdiction": "AR"}, "Election_Type": {"token": "c-r-t", "id": "1", "Election_Type": "Standard"}, "#_of_Records": {"#_of_Records": "3"}}, {"General_Party": {"General_Party": "Republican", "token": "c-t-p", "id": "2"}, "Office_Sought": {"Office_Sought": "HOUSE DISTRICT 089", "token": "c-r-osid", "id": "393"}, "Election_Year": {"token": "y", "id": "2016", "Election_Year": "2016"}, "Candidate": {"token": "c-t-id", "id": "194383", "Candidate": "WILLIAMS, JEFF"}, "Candidate_Entity": {"token": "c-t-eid", "id": "37971420", "Candidate_Entity": "WILLIAMS, JEFF"}, "Election_Status": {"Election_Status": "Pending-General", "token": "c-t-ftsts", "id": "Pending-General"}, "Total_$": {"Total_$": "23781.98"}, "Incumbency_Status": {"token": "c-t-ico", "Incumbency_Status": "Open", "id": "O"}, "request": "s=AR&y=2015,2016&f-core=1&c-exi=1&c-t-id=194383", "Specific_Party": {"token": "c-t-pt", "Specific_Party": "REPUBLICAN", "id": "139"}, "record_id": 202, "Election_Jurisdiction": {"token": "s", "id": "AR", "Election_Jurisdiction": "AR"}, "Election_Type": {"token": "c-r-t", "id": "1", "Election_Type": "Standard"}, "#_of_Records": {"#_of_Records": "71"}}, {"General_Party": {"General_Party": "Third-Party", "token": "c-t-p", "id": "3"}, "Office_Sought": {"Office_Sought": "HOUSE DISTRICT 033", "token": "c-r-osid", "id": "337"}, "Election_Year": {"token": "y", "id": "2016", "Election_Year": "2016"}, "Candidate": {"token": "c-t-id", "id": "194289", "Candidate": "WILLIAMS, MICHAEL"}, "Candidate_Entity": {"token": "c-t-eid", "id": "37971326", "Candidate_Entity": "WILLIAMS, MICHAEL"}, "Election_Status": {"Election_Status": "Pending-General", "token": "c-t-ftsts", "id": "Pending-General"}, "Total_$": {"Total_$": "0.00"}, "Incumbency_Status": {"token": "c-t-ico", "Incumbency_Status": "Challenger", "id": "C"}, "request": "s=AR&y=2015,2016&f-core=1&c-exi=1&c-t-id=194289", "Specific_Party": {"token": "c-t-pt", "Specific_Party": "LIBERTARIAN", "id": "73"}, "record_id": 203, "Election_Jurisdiction": {"token": "s", "id": "AR", "Election_Jurisdiction": "AR"}, "Election_Type": {"token": "c-r-t", "id": "1", "Election_Type": "Standard"}, "#_of_Records": {"#_of_Records": "0"}}, {"General_Party": {"General_Party": "Republican", "token": "c-t-p", "id": "2"}, "Office_Sought": {"Office_Sought": "HOUSE DISTRICT 038", "token": "c-r-osid", "id": "342"}, "Election_Year": {"token": "y", "id": "2016", "Election_Year": "2016"}, "Candidate": {"token": "c-t-id", "id": "194296", "Candidate": "WING, CARLTON"}, "Candidate_Entity": {"token": "c-t-eid", "id": "37971333", "Candidate_Entity": "WING, CARLTON"}, "Election_Status": {"Election_Status": "Pending-General", "token": "c-t-ftsts", "id": "Pending-General"}, "Total_$": {"Total_$": "38700.50"}, "Incumbency_Status": {"token": "c-t-ico", "Incumbency_Status": "Open", "id": "O"}, "request": "s=AR&y=2015,2016&f-core=1&c-exi=1&c-t-id=194296", "Specific_Party": {"token": "c-t-pt", "Specific_Party": "REPUBLICAN", "id": "139"}, "record_id": 204, "Election_Jurisdiction": {"token": "s", "id": "AR", "Election_Jurisdiction": "AR"}, "Election_Type": {"token": "c-r-t", "id": "1", "Election_Type": "Standard"}, "#_of_Records": {"#_of_Records": "62"}}, {"General_Party": {"General_Party": "Republican", "token": "c-t-p", "id": "2"}, "Office_Sought": {"Office_Sought": "HOUSE DISTRICT 018", "token": "c-r-osid", "id": "322"}, "Election_Year": {"token": "y", "id": "2016", "Election_Year": "2016"}, "Candidate": {"token": "c-t-id", "id": "194261", "Candidate": "WOMACK, RICHARD"}, "Candidate_Entity": {"token": "c-t-eid", "id": "10885342", "Candidate_Entity": "WOMACK, RICHARD"}, "Election_Status": {"Election_Status": "Pending-General", "token": "c-t-ftsts", "id": "Pending-General"}, "Total_$": {"Total_$": "50424.75"}, "Incumbency_Status": {"token": "c-t-ico", "Incumbency_Status": "Incumbent", "id": "I"}, "request": "s=AR&y=2015,2016&f-core=1&c-exi=1&c-t-id=194261", "Specific_Party": {"token": "c-t-pt", "Specific_Party": "REPUBLICAN", "id": "139"}, "record_id": 205, "Election_Jurisdiction": {"token": "s", "id": "AR", "Election_Jurisdiction": "AR"}, "Election_Type": {"token": "c-r-t", "id": "1", "Election_Type": "Standard"}, "#_of_Records": {"#_of_Records": "38"}}, {"General_Party": {"General_Party": "Nonpartisan", "token": "c-t-p", "id": "4"}, "Office_Sought": {"Office_Sought": "SUPREME COURT-POSITION 005", "token": "c-r-osid", "id": "9607"}, "Election_Year": {"token": "y", "id": "2016", "Election_Year": "2016"}, "Candidate": {"token": "c-t-id", "id": "194431", "Candidate": "WOMACK, SHAWN A"}, "Candidate_Entity": {"token": "c-t-eid", "id": "37971468", "Candidate_Entity": "WOMACK, SHAWN A"}, "Election_Status": {"Election_Status": "Won-General", "token": "c-t-ftsts", "id": "Won-General"}, "Total_$": {"Total_$": "138600.28"}, "Incumbency_Status": {"token": "c-t-ico", "Incumbency_Status": "Open", "id": "O"}, "request": "s=AR&y=2015,2016&f-core=1&c-exi=1&c-t-id=194431", "Specific_Party": {"token": "c-t-pt", "Specific_Party": "NONPARTISAN", "id": "101"}, "record_id": 206, "Election_Jurisdiction": {"token": "s", "id": "AR", "Election_Jurisdiction": "AR"}, "Election_Type": {"token": "c-r-t", "id": "1", "Election_Type": "Standard"}, "#_of_Records": {"#_of_Records": "283"}}, {"General_Party": {"General_Party": "Republican", "token": "c-t-p", "id": "2"}, "Office_Sought": {"Office_Sought": "US HOUSE DISTRICT AR 003", "token": "c-r-osid", "id": "14985"}, "Election_Year": {"token": "y", "id": "2016", "Election_Year": "2016"}, "Candidate": {"token": "c-t-id", "id": "194442", "Candidate": "WOMACK, STEVE"}, "Candidate_Entity": {"token": "c-t-eid", "id": "9604218", "Candidate_Entity": "WOMACK, STEVE"}, "Election_Status": {"Election_Status": "Pending-General", "token": "c-t-ftsts", "id": "Pending-General"}, "Total_$": {"Total_$": "564790.00"}, "Incumbency_Status": {"token": "c-t-ico", "Incumbency_Status": "Incumbent", "id": "I"}, "request": "s=AR&y=2015,2016&f-core=1&c-exi=1&c-t-id=194442", "Specific_Party": {"token": "c-t-pt", "Specific_Party": "REPUBLICAN", "id": "139"}, "record_id": 207, "Election_Jurisdiction": {"token": "s", "id": "AR", "Election_Jurisdiction": "AR"}, "Election_Type": {"token": "c-r-t", "id": "1", "Election_Type": "Standard"}, "#_of_Records": {"#_of_Records": "424"}}, {"General_Party": {"General_Party": "Democratic", "token": "c-t-p", "id": "1"}, "Office_Sought": {"Office_Sought": "SENATE DISTRICT 034", "token": "c-r-osid", "id": "438"}, "Election_Year": {"token": "y", "id": "2016", "Election_Year": "2016"}, "Candidate": {"token": "c-t-id", "id": "194426", "Candidate": "WOODSON, JOE"}, "Candidate_Entity": {"token": "c-t-eid", "id": "37971463", "Candidate_Entity": "WOODSON, JOE"}, "Election_Status": {"Election_Status": "Pending-General", "token": "c-t-ftsts", "id": "Pending-General"}, "Total_$": {"Total_$": "26064.20"}, "Incumbency_Status": {"token": "c-t-ico", "Incumbency_Status": "Challenger", "id": "C"}, "request": "s=AR&y=2015,2016&f-core=1&c-exi=1&c-t-id=194426", "Specific_Party": {"token": "c-t-pt", "Specific_Party": "DEMOCRATIC", "id": "33"}, "record_id": 208, "Election_Jurisdiction": {"token": "s", "id": "AR", "Election_Jurisdiction": "AR"}, "Election_Type": {"token": "c-r-t", "id": "1", "Election_Type": "Standard"}, "#_of_Records": {"#_of_Records": "59"}}, {"General_Party": {"General_Party": "Democratic", "token": "c-t-p", "id": "1"}, "Office_Sought": {"Office_Sought": "HOUSE DISTRICT 049", "token": "c-r-osid", "id": "353"}, "Election_Year": {"token": "y", "id": "2016", "Election_Year": "2016"}, "Candidate": {"token": "c-t-id", "id": "194313", "Candidate": "WRIGHT, MARSHALL"}, "Candidate_Entity": {"token": "c-t-eid", "id": "12997660", "Candidate_Entity": "WRIGHT, MARSHALL"}, "Election_Status": {"Election_Status": "Pending-General", "token": "c-t-ftsts", "id": "Pending-General"}, "Total_$": {"Total_$": "19200.00"}, "Incumbency_Status": {"token": "c-t-ico", "Incumbency_Status": "Incumbent", "id": "I"}, "request": "s=AR&y=2015,2016&f-core=1&c-exi=1&c-t-id=194313", "Specific_Party": {"token": "c-t-pt", "Specific_Party": "DEMOCRATIC", "id": "33"}, "record_id": 209, "Election_Jurisdiction": {"token": "s", "id": "AR", "Election_Jurisdiction": "AR"}, "Election_Type": {"token": "c-r-t", "id": "1", "Election_Type": "Standard"}, "#_of_Records": {"#_of_Records": "49"}}], "metaInfo": {"sorting": {"currentSorting": {"c-t-id": "Candidate"}, "sortLink": "so=c-t-id&sod=0", "availableSorting": {"c-r-osid": "Office_Sought", "u-tot": "Total_$", "c-t-pt": "Specific_Party", "c-t-ftsts": "Election_Status", "s": "Election_Jurisdiction", "c-r-t": "Election_Type", "y": "Election_Year", "c-t-p": "General_Party", "c-t-ico": "Incumbency_Status", "u-rec": "#_of_Records"}, "sortingDirection": "descending"}, "completeness": {"allReports": "6617", "completeReports": "3944", "availableReports": "4538", "lastUpdated": "2016-08-02 14:45:07", "incompleteAvailable": "594", "mostRecentReportDate": "2016-07-15"}, "format": "json", "recordFormat": {"General_Party": {"General_Party": "display value", "token": "c-t-p", "id": "token value"}, "Office_Sought": {"Office_Sought": "display value", "token": "c-r-osid", "id": "token value"}, "Election_Year": {"token": "y", "id": "token value", "Election_Year": "display value"}, "Candidate": {"token": "c-t-id", "id": "token value", "Candidate": "display value"}, "Candidate_Entity": {"token": "c-t-eid", "id": "token value", "Candidate_Entity": "display value"}, "Total_$": {"Total_$": "display value"}, "Incumbency_Status": {"token": "c-t-ico", "Incumbency_Status": "display value", "id": "token value"}, "request": "s=AR&y=2015,2016&f-core=1&c-exi=1", "Specific_Party": {"token": "c-t-pt", "Specific_Party": "display value", "id": "token value"}, "Election_Status": {"Election_Status": "display value", "token": "c-t-ftsts", "id": "token value"}, "Election_Jurisdiction": {"token": "s", "id": "token value", "Election_Jurisdiction": "display value"}, "Election_Type": {"token": "c-r-t", "id": "token value", "Election_Type": "display value"}, "#_of_Records": {"#_of_Records": "display value"}}, "paging": {"totalRecords": "209", "minPage": 0, "recordsThisPage": 9, "pageLink": "p=2", "maxPage": 2, "recordsPerPage": 100, "totalPages": 3, "currentPage": 2}, "grouping": {"availableGrouping": {"d-et": "Type of Contributor (Contributors)", "d-empl": "Employer (Contributors)", "d-amt": "Amount (Advanced)", "d-id": "Record (Contributors)", "d-typ": "Type of Transaction (Advanced)", "f-eid": "Filer (General)", "c-t-i": "Incumbency Data (Advanced)", "d-cci": "General Industry (Contributors)", "d-ccg": "Broad Sector (Contributors)", "d-ccb": "Specific Business (Contributors)", "d-ad-zip": "Zip (Contributors)", "c-t-sts": "Status of Candidate (Candidates)", "d-nme": "Original Name (Advanced)", "c-t-icod": "Incumbency Advantage (Advanced)", "d-ins": "In-Jurisdiction (Contributors)", "d-ad-cty": "City (Contributors)", "d-occupation": "Occupation (Contributors)", "d-search": "DND (Advanced)", "d-ludte": "Last Updated (Advanced)", "d-file": "DND (Advanced)", "d-ad-str": "Street (Advanced)", "d-dte": "Date (Advanced)", "d-ad-st": "State (Contributors)", "f-y": "Filing Year (Advanced)", "f-s": "Filing Jurisdiction (General)", "d-eid": "Contributor (Contributors)", "d-llink": "Lobbying Entity? (Advanced)"}, "currentGrouping": {"c-t-id": "Candidate (General)"}, "groupLink": "gro=c-t-id"}}}