{"records": [{"General_Party": {"General_Party": "Republican", "token": "c-t-p", "id": "2"}, "Office_Sought": {"Office_Sought": "HOUSE DISTRICT 023", "token": "c-r-osid", "id": "473"}, "Election_Year": {"token": "y", "id": "2016", "Election_Year": "2016"}, "Candidate": {"token": "c-t-id", "id": "211835", "Candidate": "UGENTI-RITA, MICHELLE"}, "Candidate_Entity": {"token": "c-t-eid", "id": "40621919", "Candidate_Entity": "UGENTI-RITA, MICHELLE"}, "Election_Status": {"Election_Status": "Pending-Primary", "token": "c-t-ftsts", "id": "Pending-Primary"}, "Total_$": {"Total_$": "37311.31"}, "Incumbency_Status": {"token": "c-t-ico", "Incumbency_Status": "Incumbent", "id": "I"}, "request": "s=AZ&y=2015,2016&f-core=1&c-exi=1&c-t-id=211835", "Specific_Party": {"token": "c-t-pt", "Specific_Party": "REPUBLICAN", "id": "139"}, "record_id": 201, "Election_Jurisdiction": {"token": "s", "id": "AZ", "Election_Jurisdiction": "AZ"}, "Election_Type": {"token": "c-r-t", "id": "1", "Election_Type": "Standard"}, "#_of_Records": {"#_of_Records": "119"}}, {"General_Party": {"General_Party": "Republican", "token": "c-t-p", "id": "2"}, "Office_Sought": {"Office_Sought": "US SENATE DISTRICT AZ SW-CLASS III", "token": "c-r-osid", "id": "14928"}, "Election_Year": {"token": "y", "id": "2016", "Election_Year": "2016"}, "Candidate": {"token": "c-t-id", "id": "211657", "Candidate": "VAN STEENWYK, CLAIR"}, "Candidate_Entity": {"token": "c-t-eid", "id": "40621839", "Candidate_Entity": "VAN STEENWYK, CLAIR"}, "Election_Status": {"Election_Status": "Pending-Primary", "token": "c-t-ftsts", "id": "Pending-Primary"}, "Total_$": {"Total_$": "0.00"}, "Incumbency_Status": {"token": "c-t-ico", "Incumbency_Status": "Challenger", "id": "C"}, "request": "s=AZ&y=2015,2016&f-core=1&c-exi=1&c-t-id=211657", "Specific_Party": {"token": "c-t-pt", "Specific_Party": "REPUBLICAN", "id": "139"}, "record_id": 202, "Election_Jurisdiction": {"token": "s", "id": "AZ", "Election_Jurisdiction": "AZ"}, "Election_Type": {"token": "c-r-t", "id": "1", "Election_Type": "Standard"}, "#_of_Records": {"#_of_Records": "0"}}, {"General_Party": {"General_Party": "Republican", "token": "c-t-p", "id": "2"}, "Office_Sought": {"Office_Sought": "US HOUSE DISTRICT AZ 008", "token": "c-r-osid", "id": "14994"}, "Election_Year": {"token": "y", "id": "2016", "Election_Year": "2016"}, "Candidate": {"token": "c-t-id", "id": "211664", "Candidate": "VAN STEENWYK, CLAIR"}, "Candidate_Entity": {"token": "c-t-eid", "id": "40621843", "Candidate_Entity": "VAN STEENWYK, CLAIR"}, "Election_Status": {"Election_Status": "Pending-Primary", "token": "c-t-ftsts", "id": "Pending-Primary"}, "Total_$": {"Total_$": "0.00"}, "Incumbency_Status": {"token": "c-t-ico", "Incumbency_Status": "Challenger", "id": "C"}, "request": "s=AZ&y=2015,2016&f-core=1&c-exi=1&c-t-id=211664", "Specific_Party": {"token": "c-t-pt", "Specific_Party": "REPUBLICAN", "id": "139"}, "record_id": 203, "Election_Jurisdiction": {"token": "s", "id": "AZ", "Election_Jurisdiction": "AZ"}, "Election_Type": {"token": "c-r-t", "id": "1", "Election_Type": "Standard"}, "#_of_Records": {"#_of_Records": "0"}}, {"General_Party": {"General_Party": "Democratic", "token": "c-t-p", "id": "1"}, "Office_Sought": {"Office_Sought": "HOUSE DISTRICT 029", "token": "c-r-osid", "id": "479"}, "Election_Year": {"token": "y", "id": "2016", "Election_Year": "2016"}, "Candidate": {"token": "c-t-id", "id": "211861", "Candidate": "VELASQUEZ, CECI"}, "Candidate_Entity": {"token": "c-t-eid", "id": "24748415", "Candidate_Entity": "VELASQUEZ, CECI"}, "Election_Status": {"Election_Status": "Pending-Primary", "token": "c-t-ftsts", "id": "Pending-Primary"}, "Total_$": {"Total_$": "3715.00"}, "Incumbency_Status": {"token": "c-t-ico", "Incumbency_Status": "Incumbent", "id": "I"}, "request": "s=AZ&y=2015,2016&f-core=1&c-exi=1&c-t-id=211861", "Specific_Party": {"token": "c-t-pt", "Specific_Party": "DEMOCRATIC", "id": "33"}, "record_id": 204, "Election_Jurisdiction": {"token": "s", "id": "AZ", "Election_Jurisdiction": "AZ"}, "Election_Type": {"token": "c-r-t", "id": "1", "Election_Type": "Standard"}, "#_of_Records": {"#_of_Records": "61"}}, {"General_Party": {"General_Party": "Republican", "token": "c-t-p", "id": "2"}, "Office_Sought": {"Office_Sought": "US SENATE DISTRICT AZ SW-CLASS III", "token": "c-r-osid", "id": "14928"}, "Election_Year": {"token": "y", "id": "2016", "Election_Year": "2016"}, "Candidate": {"token": "c-t-id", "id": "211658", "Candidate": "WARD, KELLI"}, "Candidate_Entity": {"token": "c-t-eid", "id": "40621840", "Candidate_Entity": "WARD, KELLI"}, "Election_Status": {"Election_Status": "Pending-Primary", "token": "c-t-ftsts", "id": "Pending-Primary"}, "Total_$": {"Total_$": "0.00"}, "Incumbency_Status": {"token": "c-t-ico", "Incumbency_Status": "Challenger", "id": "C"}, "request": "s=AZ&y=2015,2016&f-core=1&c-exi=1&c-t-id=211658", "Specific_Party": {"token": "c-t-pt", "Specific_Party": "REPUBLICAN", "id": "139"}, "record_id": 205, "Election_Jurisdiction": {"token": "s", "id": "AZ", "Election_Jurisdiction": "AZ"}, "Election_Type": {"token": "c-r-t", "id": "1", "Election_Type": "Standard"}, "#_of_Records": {"#_of_Records": "0"}}, {"General_Party": {"General_Party": "Democratic", "token": "c-t-p", "id": "1"}, "Office_Sought": {"Office_Sought": "SENATE DISTRICT 017", "token": "c-r-osid", "id": "498"}, "Election_Year": {"token": "y", "id": "2016", "Election_Year": "2016"}, "Candidate": {"token": "c-t-id", "id": "211729", "Candidate": "WEICHERT, STEVE"}, "Candidate_Entity": {"token": "c-t-eid", "id": "16203696", "Candidate_Entity": "WEICHERT, STEVE"}, "Election_Status": {"Election_Status": "Pending-Primary", "token": "c-t-ftsts", "id": "Pending-Primary"}, "Total_$": {"Total_$": "4596.84"}, "Incumbency_Status": {"token": "c-t-ico", "Incumbency_Status": "Open", "id": "O"}, "request": "s=AZ&y=2015,2016&f-core=1&c-exi=1&c-t-id=211729", "Specific_Party": {"token": "c-t-pt", "Specific_Party": "DEMOCRATIC", "id": "33"}, "record_id": 206, "Election_Jurisdiction": {"token": "s", "id": "AZ", "Election_Jurisdiction": "AZ"}, "Election_Type": {"token": "c-r-t", "id": "1", "Election_Type": "Standard"}, "#_of_Records": {"#_of_Records": "53"}}, {"General_Party": {"General_Party": "Democratic", "token": "c-t-p", "id": "1"}, "Office_Sought": {"Office_Sought": "HOUSE DISTRICT 005", "token": "c-r-osid", "id": "455"}, "Election_Year": {"token": "y", "id": "2016", "Election_Year": "2016"}, "Candidate": {"token": "c-t-id", "id": "211768", "Candidate": "WEISSER, BETH"}, "Candidate_Entity": {"token": "c-t-eid", "id": "6507503", "Candidate_Entity": "WEISSER, BETH"}, "Election_Status": {"Election_Status": "Pending-Primary", "token": "c-t-ftsts", "id": "Pending-Primary"}, "Total_$": {"Total_$": "1237.70"}, "Incumbency_Status": {"token": "c-t-ico", "Incumbency_Status": "Open", "id": "O"}, "request": "s=AZ&y=2015,2016&f-core=1&c-exi=1&c-t-id=211768", "Specific_Party": {"token": "c-t-pt", "Specific_Party": "DEMOCRATIC", "id": "33"}, "record_id": 207, "Election_Jurisdiction": {"token": "s", "id": "AZ", "Election_Jurisdiction": "AZ"}, "Election_Type": {"token": "c-r-t", "id": "1", "Election_Type": "Standard"}, "#_of_Records": {"#_of_Records": "28"}}, {"General_Party": {"General_Party": "Democratic", "token": "c-t-p", "id": "1"}, "Office_Sought": {"Office_Sought": "US HOUSE DISTRICT AZ 004", "token": "c-r-osid", "id": "14990"}, "Election_Year": {"token": "y", "id": "2016", "Election_Year": "2016"}, "Candidate": {"token": "c-t-id", "id": "211683", "Candidate": "WEISSER, MIKEL"}, "Candidate_Entity": {"token": "c-t-eid", "id": "8437729", "Candidate_Entity": "WEISSER, MIKEL"}, "Election_Status": {"Election_Status": "Pending-Primary", "token": "c-t-ftsts", "id": "Pending-Primary"}, "Total_$": {"Total_$": "6529.00"}, "Incumbency_Status": {"token": "c-t-ico", "Incumbency_Status": "Open", "id": "O"}, "request": "s=AZ&y=2015,2016&f-core=1&c-exi=1&c-t-id=211683", "Specific_Party": {"token": "c-t-pt", "Specific_Party": "DEMOCRATIC", "id": "33"}, "record_id": 208, "Election_Jurisdiction": {"token": "s", "id": "AZ", "Election_Jurisdiction": "AZ"}, "Election_Type": {"token": "c-r-t", "id": "1", "Election_Type": "Standard"}, "#_of_Records": {"#_of_Records": "7"}}, {"General_Party": {"General_Party": "Republican", "token": "c-t-p", "id": "2"}, "Office_Sought": {"Office_Sought": "HOUSE DISTRICT 017", "token": "c-r-osid", "id": "467"}, "Election_Year": {"token": "y", "id": "2016", "Election_Year": "2016"}, "Candidate": {"token": "c-t-id", "id": "211816", "Candidate": "WENINGER, JEFF"}, "Candidate_Entity": {"token": "c-t-eid", "id": "23317844", "Candidate_Entity": "WENINGER, JEFF"}, "Election_Status": {"Election_Status": "Pending-Primary", "token": "c-t-ftsts", "id": "Pending-Primary"}, "Total_$": {"Total_$": "38318.91"}, "Incumbency_Status": {"token": "c-t-ico", "Incumbency_Status": "Incumbent", "id": "I"}, "request": "s=AZ&y=2015,2016&f-core=1&c-exi=1&c-t-id=211816", "Specific_Party": {"token": "c-t-pt", "Specific_Party": "REPUBLICAN", "id": "139"}, "record_id": 209, "Election_Jurisdiction": {"token": "s", "id": "AZ", "Election_Jurisdiction": "AZ"}, "Election_Type": {"token": "c-r-t", "id": "1", "Election_Type": "Standard"}, "#_of_Records": {"#_of_Records": "171"}}, {"General_Party": {"General_Party": "Democratic", "token": "c-t-p", "id": "1"}, "Office_Sought": {"Office_Sought": "US HOUSE DISTRICT AZ 006", "token": "c-r-osid", "id": "14992"}, "Election_Year": {"token": "y", "id": "2016", "Election_Year": "2016"}, "Candidate": {"token": "c-t-id", "id": "211672", "Candidate": "WILLIAMSON, W JOHN"}, "Candidate_Entity": {"token": "c-t-eid", "id": "40621847", "Candidate_Entity": "WILLIAMSON, W JOHN"}, "Election_Status": {"Election_Status": "Pending-Primary", "token": "c-t-ftsts", "id": "Pending-Primary"}, "Total_$": {"Total_$": "2754.69"}, "Incumbency_Status": {"token": "c-t-ico", "Incumbency_Status": "Open", "id": "O"}, "request": "s=AZ&y=2015,2016&f-core=1&c-exi=1&c-t-id=211672", "Specific_Party": {"token": "c-t-pt", "Specific_Party": "DEMOCRATIC", "id": "33"}, "record_id": 210, "Election_Jurisdiction": {"token": "s", "id": "AZ", "Election_Jurisdiction": "AZ"}, "Election_Type": {"token": "c-r-t", "id": "1", "Election_Type": "Standard"}, "#_of_Records": {"#_of_Records": "8"}}, {"General_Party": {"General_Party": "Republican", "token": "c-t-p", "id": "2"}, "Office_Sought": {"Office_Sought": "HOUSE DISTRICT 029", "token": "c-r-osid", "id": "479"}, "Election_Year": {"token": "y", "id": "2016", "Election_Year": "2016"}, "Candidate": {"token": "c-t-id", "id": "211863", "Candidate": "WILSON, JOHN"}, "Candidate_Entity": {"token": "c-t-eid", "id": "23319001", "Candidate_Entity": "WILSON, JOHN"}, "Election_Status": {"Election_Status": "Pending-Primary", "token": "c-t-ftsts", "id": "Pending-Primary"}, "Total_$": {"Total_$": "100.00"}, "Incumbency_Status": {"token": "c-t-ico", "Incumbency_Status": "Open", "id": "O"}, "request": "s=AZ&y=2015,2016&f-core=1&c-exi=1&c-t-id=211863", "Specific_Party": {"token": "c-t-pt", "Specific_Party": "REPUBLICAN", "id": "139"}, "record_id": 211, "Election_Jurisdiction": {"token": "s", "id": "AZ", "Election_Jurisdiction": "AZ"}, "Election_Type": {"token": "c-r-t", "id": "1", "Election_Type": "Standard"}, "#_of_Records": {"#_of_Records": "1"}}, {"General_Party": {"General_Party": "Republican", "token": "c-t-p", "id": "2"}, "Office_Sought": {"Office_Sought": "US HOUSE DISTRICT AZ 006", "token": "c-r-osid", "id": "14992"}, "Election_Year": {"token": "y", "id": "2016", "Election_Year": "2016"}, "Candidate": {"token": "c-t-id", "id": "211674", "Candidate": "WITTENBERG, RUSS"}, "Candidate_Entity": {"token": "c-t-eid", "id": "8670263", "Candidate_Entity": "WITTENBERG, RUSS"}, "Election_Status": {"Election_Status": "Pending-Primary", "token": "c-t-ftsts", "id": "Pending-Primary"}, "Total_$": {"Total_$": "0.00"}, "Incumbency_Status": {"token": "c-t-ico", "Incumbency_Status": "Challenger", "id": "C"}, "request": "s=AZ&y=2015,2016&f-core=1&c-exi=1&c-t-id=211674", "Specific_Party": {"token": "c-t-pt", "Specific_Party": "REPUBLICAN", "id": "139"}, "record_id": 212, "Election_Jurisdiction": {"token": "s", "id": "AZ", "Election_Jurisdiction": "AZ"}, "Election_Type": {"token": "c-r-t", "id": "1", "Election_Type": "Standard"}, "#_of_Records": {"#_of_Records": "0"}}, {"General_Party": {"General_Party": "Republican", "token": "c-t-p", "id": "2"}, "Office_Sought": {"Office_Sought": "SENATE DISTRICT 025", "token": "c-r-osid", "id": "506"}, "Election_Year": {"token": "y", "id": "2016", "Election_Year": "2016"}, "Candidate": {"token": "c-t-id", "id": "211742", "Candidate": "WORSLEY, ROBERT M (BOB)"}, "Candidate_Entity": {"token": "c-t-eid", "id": "12252950", "Candidate_Entity": "WORSLEY, ROBERT M (BOB)"}, "Election_Status": {"Election_Status": "Pending-Primary", "token": "c-t-ftsts", "id": "Pending-Primary"}, "Total_$": {"Total_$": "11992.50"}, "Incumbency_Status": {"token": "c-t-ico", "Incumbency_Status": "Incumbent", "id": "I"}, "request": "s=AZ&y=2015,2016&f-core=1&c-exi=1&c-t-id=211742", "Specific_Party": {"token": "c-t-pt", "Specific_Party": "REPUBLICAN", "id": "139"}, "record_id": 213, "Election_Jurisdiction": {"token": "s", "id": "AZ", "Election_Jurisdiction": "AZ"}, "Election_Type": {"token": "c-r-t", "id": "1", "Election_Type": "Standard"}, "#_of_Records": {"#_of_Records": "134"}}, {"General_Party": {"General_Party": "Republican", "token": "c-t-p", "id": "2"}, "Office_Sought": {"Office_Sought": "SENATE DISTRICT 017", "token": "c-r-osid", "id": "498"}, "Election_Year": {"token": "y", "id": "2016", "Election_Year": "2016"}, "Candidate": {"token": "c-t-id", "id": "211730", "Candidate": "YARBROUGH, STEVE"}, "Candidate_Entity": {"token": "c-t-eid", "id": "6604438", "Candidate_Entity": "YARBROUGH, STEVE"}, "Election_Status": {"Election_Status": "Pending-Primary", "token": "c-t-ftsts", "id": "Pending-Primary"}, "Total_$": {"Total_$": "78990.51"}, "Incumbency_Status": {"token": "c-t-ico", "Incumbency_Status": "Incumbent", "id": "I"}, "request": "s=AZ&y=2015,2016&f-core=1&c-exi=1&c-t-id=211730", "Specific_Party": {"token": "c-t-pt", "Specific_Party": "REPUBLICAN", "id": "139"}, "record_id": 214, "Election_Jurisdiction": {"token": "s", "id": "AZ", "Election_Jurisdiction": "AZ"}, "Election_Type": {"token": "c-r-t", "id": "1", "Election_Type": "Standard"}, "#_of_Records": {"#_of_Records": "180"}}, {"General_Party": {"General_Party": "Republican", "token": "c-t-p", "id": "2"}, "Office_Sought": {"Office_Sought": "SENATE DISTRICT 020", "token": "c-r-osid", "id": "501"}, "Election_Year": {"token": "y", "id": "2016", "Election_Year": "2016"}, "Candidate": {"token": "c-t-id", "id": "211736", "Candidate": "YEE, KIMBERLY"}, "Candidate_Entity": {"token": "c-t-eid", "id": "6690560", "Candidate_Entity": "YEE, KIMBERLY"}, "Election_Status": {"Election_Status": "Pending-Primary", "token": "c-t-ftsts", "id": "Pending-Primary"}, "Total_$": {"Total_$": "49907.56"}, "Incumbency_Status": {"token": "c-t-ico", "Incumbency_Status": "Incumbent", "id": "I"}, "request": "s=AZ&y=2015,2016&f-core=1&c-exi=1&c-t-id=211736", "Specific_Party": {"token": "c-t-pt", "Specific_Party": "REPUBLICAN", "id": "139"}, "record_id": 215, "Election_Jurisdiction": {"token": "s", "id": "AZ", "Election_Jurisdiction": "AZ"}, "Election_Type": {"token": "c-r-t", "id": "1", "Election_Type": "Standard"}, "#_of_Records": {"#_of_Records": "139"}}], "metaInfo": {"sorting": {"currentSorting": {"c-t-id": "Candidate"}, "sortLink": "so=c-t-id&sod=0", "availableSorting": {"c-r-osid": "Office_Sought", "u-tot": "Total_$", "c-t-pt": "Specific_Party", "c-t-ftsts": "Election_Status", "s": "Election_Jurisdiction", "c-r-t": "Election_Type", "y": "Election_Year", "c-t-p": "General_Party", "c-t-ico": "Incumbency_Status", "u-rec": "#_of_Records"}, "sortingDirection": "descending"}, "completeness": {"allReports": "1482", "completeReports": "448", "availableReports": "452", "lastUpdated": "2016-07-21 12:12:41", "incompleteAvailable": "4", "mostRecentReportDate": "2016-06-30"}, "format": "json", "recordFormat": {"General_Party": {"General_Party": "display value", "token": "c-t-p", "id": "token value"}, "Office_Sought": {"Office_Sought": "display value", "token": "c-r-osid", "id": "token value"}, "Election_Year": {"token": "y", "id": "token value", "Election_Year": "display value"}, "Candidate": {"token": "c-t-id", "id": "token value", "Candidate": "display value"}, "Candidate_Entity": {"token": "c-t-eid", "id": "token value", "Candidate_Entity": "display value"}, "Total_$": {"Total_$": "display value"}, "Incumbency_Status": {"token": "c-t-ico", "Incumbency_Status": "display value", "id": "token value"}, "request": "s=AZ&y=2015,2016&f-core=1&c-exi=1", "Specific_Party": {"token": "c-t-pt", "Specific_Party": "display value", "id": "token value"}, "Election_Status": {"Election_Status": "display value", "token": "c-t-ftsts", "id": "token value"}, "Election_Jurisdiction": {"token": "s", "id": "token value", "Election_Jurisdiction": "display value"}, "Election_Type": {"token": "c-r-t", "id": "token value", "Election_Type": "display value"}, "#_of_Records": {"#_of_Records": "display value"}}, "paging": {"totalRecords": "215", "minPage": 0, "recordsThisPage": 15, "pageLink": "p=2", "maxPage": 2, "recordsPerPage": 100, "totalPages": 3, "currentPage": 2}, "grouping": {"availableGrouping": {"d-et": "Type of Contributor (Contributors)", "d-empl": "Employer (Contributors)", "d-amt": "Amount (Advanced)", "d-id": "Record (Contributors)", "d-typ": "Type of Transaction (Advanced)", "f-eid": "Filer (General)", "c-t-i": "Incumbency Data (Advanced)", "d-cci": "General Industry (Contributors)", "d-ccg": "Broad Sector (Contributors)", "d-ccb": "Specific Business (Contributors)", "d-ad-zip": "Zip (Contributors)", "c-t-sts": "Status of Candidate (Candidates)", "d-nme": "Original Name (Advanced)", "c-t-icod": "Incumbency Advantage (Advanced)", "d-ins": "In-Jurisdiction (Contributors)", "d-ad-cty": "City (Contributors)", "d-occupation": "Occupation (Contributors)", "d-search": "DND (Advanced)", "d-ludte": "Last Updated (Advanced)", "d-file": "DND (Advanced)", "d-ad-str": "Street (Advanced)", "d-dte": "Date (Advanced)", "d-ad-st": "State (Contributors)", "f-y": "Filing Year (Advanced)", "f-s": "Filing Jurisdiction (General)", "d-eid": "Contributor (Contributors)", "d-llink": "Lobbying Entity? (Advanced)"}, "currentGrouping": {"c-t-id": "Candidate (General)"}, "groupLink": "gro=c-t-id"}}}