{"records": [{"General_Party": {"General_Party": "Democratic", "token": "c-t-p", "id": "1"}, "Office_Sought": {"Office_Sought": "HOUSE DISTRICT 026", "token": "c-r-osid", "id": "1086"}, "Election_Year": {"token": "y", "id": "2016", "Election_Year": "2016"}, "Candidate": {"token": "c-t-id", "id": "213106", "Candidate": "VIOLA, JOHN J"}, "Candidate_Entity": {"token": "c-t-eid", "id": "6381618", "Candidate_Entity": "VIOLA, JOHN J"}, "Election_Status": {"Election_Status": "Pending-General", "token": "c-t-ftsts", "id": "Pending-General"}, "Total_$": {"Total_$": "6475.00"}, "Incumbency_Status": {"token": "c-t-ico", "Incumbency_Status": "Incumbent", "id": "I"}, "request": "s=DE&y=2015,2016&f-core=1&c-exi=1&c-t-id=213106", "Specific_Party": {"token": "c-t-pt", "Specific_Party": "DEMOCRATIC", "id": "33"}, "record_id": 101, "Election_Jurisdiction": {"token": "s", "id": "DE", "Election_Jurisdiction": "DE"}, "Election_Type": {"token": "c-r-t", "id": "1", "Election_Type": "Standard"}, "#_of_Records": {"#_of_Records": "29"}}, {"General_Party": {"General_Party": "Democratic", "token": "c-t-p", "id": "1"}, "Office_Sought": {"Office_Sought": "US HOUSE DISTRICT DE 001", "token": "c-r-osid", "id": "15061"}, "Election_Year": {"token": "y", "id": "2016", "Election_Year": "2016"}, "Candidate": {"token": "c-t-id", "id": "213169", "Candidate": "WALKER, SCOTT"}, "Candidate_Entity": {"token": "c-t-eid", "id": "40814577", "Candidate_Entity": "WALKER, SCOTT"}, "Election_Status": {"Election_Status": "Pending-Primary", "token": "c-t-ftsts", "id": "Pending-Primary"}, "Total_$": {"Total_$": "0.00"}, "Incumbency_Status": {"token": "c-t-ico", "Incumbency_Status": "Open", "id": "O"}, "request": "s=DE&y=2015,2016&f-core=1&c-exi=1&c-t-id=213169", "Specific_Party": {"token": "c-t-pt", "Specific_Party": "DEMOCRATIC", "id": "33"}, "record_id": 102, "Election_Jurisdiction": {"token": "s", "id": "DE", "Election_Jurisdiction": "DE"}, "Election_Type": {"token": "c-r-t", "id": "1", "Election_Type": "Standard"}, "#_of_Records": {"#_of_Records": "0"}}, {"General_Party": {"General_Party": "Democratic", "token": "c-t-p", "id": "1"}, "Office_Sought": {"Office_Sought": "LIEUTENANT GOVERNOR", "token": "c-r-osid", "id": "9356"}, "Election_Year": {"token": "y", "id": "2016", "Election_Year": "2016"}, "Candidate": {"token": "c-t-id", "id": "213137", "Candidate": "WALKER, SHERRY DORSEY"}, "Candidate_Entity": {"token": "c-t-eid", "id": "40814565", "Candidate_Entity": "WALKER, SHERRY DORSEY"}, "Election_Status": {"Election_Status": "Pending-Primary", "token": "c-t-ftsts", "id": "Pending-Primary"}, "Total_$": {"Total_$": "11814.87"}, "Incumbency_Status": {"token": "c-t-ico", "Incumbency_Status": "Open", "id": "O"}, "request": "s=DE&y=2015,2016&f-core=1&c-exi=1&c-t-id=213137", "Specific_Party": {"token": "c-t-pt", "Specific_Party": "DEMOCRATIC", "id": "33"}, "record_id": 103, "Election_Jurisdiction": {"token": "s", "id": "DE", "Election_Jurisdiction": "DE"}, "Election_Type": {"token": "c-r-t", "id": "1", "Election_Type": "Standard"}, "#_of_Records": {"#_of_Records": "31"}}, {"General_Party": {"General_Party": "Democratic", "token": "c-t-p", "id": "1"}, "Office_Sought": {"Office_Sought": "SENATE DISTRICT 009", "token": "c-r-osid", "id": "1110"}, "Election_Year": {"token": "y", "id": "2016", "Election_Year": "2016"}, "Candidate": {"token": "c-t-id", "id": "213154", "Candidate": "WALSH, JOHN"}, "Candidate_Entity": {"token": "c-t-eid", "id": "40814574", "Candidate_Entity": "WALSH, JOHN"}, "Election_Status": {"Election_Status": "Pending-Primary", "token": "c-t-ftsts", "id": "Pending-Primary"}, "Total_$": {"Total_$": "0.00"}, "Incumbency_Status": {"token": "c-t-ico", "Incumbency_Status": "Open", "id": "O"}, "request": "s=DE&y=2015,2016&f-core=1&c-exi=1&c-t-id=213154", "Specific_Party": {"token": "c-t-pt", "Specific_Party": "DEMOCRATIC", "id": "33"}, "record_id": 104, "Election_Jurisdiction": {"token": "s", "id": "DE", "Election_Jurisdiction": "DE"}, "Election_Type": {"token": "c-r-t", "id": "1", "Election_Type": "Standard"}, "#_of_Records": {"#_of_Records": "0"}}, {"General_Party": {"General_Party": "Democratic", "token": "c-t-p", "id": "1"}, "Office_Sought": {"Office_Sought": "US HOUSE DISTRICT DE 001", "token": "c-r-osid", "id": "15061"}, "Election_Year": {"token": "y", "id": "2016", "Election_Year": "2016"}, "Candidate": {"token": "c-t-id", "id": "213170", "Candidate": "WEIR, ELIAS J"}, "Candidate_Entity": {"token": "c-t-eid", "id": "40814578", "Candidate_Entity": "WEIR, ELIAS J"}, "Election_Status": {"Election_Status": "Pending-Primary", "token": "c-t-ftsts", "id": "Pending-Primary"}, "Total_$": {"Total_$": "0.00"}, "Incumbency_Status": {"token": "c-t-ico", "Incumbency_Status": "Open", "id": "O"}, "request": "s=DE&y=2015,2016&f-core=1&c-exi=1&c-t-id=213170", "Specific_Party": {"token": "c-t-pt", "Specific_Party": "DEMOCRATIC", "id": "33"}, "record_id": 105, "Election_Jurisdiction": {"token": "s", "id": "DE", "Election_Jurisdiction": "DE"}, "Election_Type": {"token": "c-r-t", "id": "1", "Election_Type": "Standard"}, "#_of_Records": {"#_of_Records": "0"}}, {"General_Party": {"General_Party": "Democratic", "token": "c-t-p", "id": "1"}, "Office_Sought": {"Office_Sought": "HOUSE DISTRICT 010", "token": "c-r-osid", "id": "1070"}, "Election_Year": {"token": "y", "id": "2016", "Election_Year": "2016"}, "Candidate": {"token": "c-t-id", "id": "213082", "Candidate": "WILLIAMS, DENNIS E"}, "Candidate_Entity": {"token": "c-t-eid", "id": "12998435", "Candidate_Entity": "WILLIAMS, DENNIS E"}, "Election_Status": {"Election_Status": "Pending-Primary", "token": "c-t-ftsts", "id": "Pending-Primary"}, "Total_$": {"Total_$": "-29750.00"}, "Incumbency_Status": {"token": "c-t-ico", "Incumbency_Status": "Challenger", "id": "C"}, "request": "s=DE&y=2015,2016&f-core=1&c-exi=1&c-t-id=213082", "Specific_Party": {"token": "c-t-pt", "Specific_Party": "DEMOCRATIC", "id": "33"}, "record_id": 106, "Election_Jurisdiction": {"token": "s", "id": "DE", "Election_Jurisdiction": "DE"}, "Election_Type": {"token": "c-r-t", "id": "1", "Election_Type": "Standard"}, "#_of_Records": {"#_of_Records": "3"}}, {"General_Party": {"General_Party": "Democratic", "token": "c-t-p", "id": "1"}, "Office_Sought": {"Office_Sought": "HOUSE DISTRICT 033", "token": "c-r-osid", "id": "1093"}, "Election_Year": {"token": "y", "id": "2016", "Election_Year": "2016"}, "Candidate": {"token": "c-t-id", "id": "213119", "Candidate": "WILLIAMS, KAREN D"}, "Candidate_Entity": {"token": "c-t-eid", "id": "40814557", "Candidate_Entity": "WILLIAMS, KAREN D"}, "Election_Status": {"Election_Status": "Pending-General", "token": "c-t-ftsts", "id": "Pending-General"}, "Total_$": {"Total_$": "0.00"}, "Incumbency_Status": {"token": "c-t-ico", "Incumbency_Status": "Open", "id": "O"}, "request": "s=DE&y=2015,2016&f-core=1&c-exi=1&c-t-id=213119", "Specific_Party": {"token": "c-t-pt", "Specific_Party": "DEMOCRATIC", "id": "33"}, "record_id": 107, "Election_Jurisdiction": {"token": "s", "id": "DE", "Election_Jurisdiction": "DE"}, "Election_Type": {"token": "c-r-t", "id": "1", "Election_Type": "Standard"}, "#_of_Records": {"#_of_Records": "0"}}, {"General_Party": {"General_Party": "Democratic", "token": "c-t-p", "id": "1"}, "Office_Sought": {"Office_Sought": "HOUSE DISTRICT 019", "token": "c-r-osid", "id": "1079"}, "Election_Year": {"token": "y", "id": "2016", "Election_Year": "2016"}, "Candidate": {"token": "c-t-id", "id": "213096", "Candidate": "WILLIAMS, KIMBERLY"}, "Candidate_Entity": {"token": "c-t-eid", "id": "13789769", "Candidate_Entity": "WILLIAMS, KIMBERLY"}, "Election_Status": {"Election_Status": "Pending-General", "token": "c-t-ftsts", "id": "Pending-General"}, "Total_$": {"Total_$": "4225.00"}, "Incumbency_Status": {"token": "c-t-ico", "Incumbency_Status": "Incumbent", "id": "I"}, "request": "s=DE&y=2015,2016&f-core=1&c-exi=1&c-t-id=213096", "Specific_Party": {"token": "c-t-pt", "Specific_Party": "DEMOCRATIC", "id": "33"}, "record_id": 108, "Election_Jurisdiction": {"token": "s", "id": "DE", "Election_Jurisdiction": "DE"}, "Election_Type": {"token": "c-r-t", "id": "1", "Election_Type": "Standard"}, "#_of_Records": {"#_of_Records": "22"}}, {"General_Party": {"General_Party": "Third-Party", "token": "c-t-p", "id": "3"}, "Office_Sought": {"Office_Sought": "HOUSE DISTRICT 007", "token": "c-r-osid", "id": "1067"}, "Election_Year": {"token": "y", "id": "2016", "Election_Year": "2016"}, "Candidate": {"token": "c-t-id", "id": "213075", "Candidate": "WILSON, C ROBERT"}, "Candidate_Entity": {"token": "c-t-eid", "id": "26785631", "Candidate_Entity": "WILSON, C ROBERT"}, "Election_Status": {"Election_Status": "Pending-General", "token": "c-t-ftsts", "id": "Pending-General"}, "Total_$": {"Total_$": "0.00"}, "Incumbency_Status": {"token": "c-t-ico", "Incumbency_Status": "Open", "id": "O"}, "request": "s=DE&y=2015,2016&f-core=1&c-exi=1&c-t-id=213075", "Specific_Party": {"token": "c-t-pt", "Specific_Party": "LIBERTARIAN", "id": "73"}, "record_id": 109, "Election_Jurisdiction": {"token": "s", "id": "DE", "Election_Jurisdiction": "DE"}, "Election_Type": {"token": "c-r-t", "id": "1", "Election_Type": "Standard"}, "#_of_Records": {"#_of_Records": "0"}}, {"General_Party": {"General_Party": "Republican", "token": "c-t-p", "id": "2"}, "Office_Sought": {"Office_Sought": "HOUSE DISTRICT 035", "token": "c-r-osid", "id": "1095"}, "Election_Year": {"token": "y", "id": "2016", "Election_Year": "2016"}, "Candidate": {"token": "c-t-id", "id": "213123", "Candidate": "WILSON, DAVID L"}, "Candidate_Entity": {"token": "c-t-eid", "id": "12998462", "Candidate_Entity": "WILSON, DAVID L"}, "Election_Status": {"Election_Status": "Pending-Primary", "token": "c-t-ftsts", "id": "Pending-Primary"}, "Total_$": {"Total_$": "5150.00"}, "Incumbency_Status": {"token": "c-t-ico", "Incumbency_Status": "Incumbent", "id": "I"}, "request": "s=DE&y=2015,2016&f-core=1&c-exi=1&c-t-id=213123", "Specific_Party": {"token": "c-t-pt", "Specific_Party": "REPUBLICAN", "id": "139"}, "record_id": 110, "Election_Jurisdiction": {"token": "s", "id": "DE", "Election_Jurisdiction": "DE"}, "Election_Type": {"token": "c-r-t", "id": "1", "Election_Type": "Standard"}, "#_of_Records": {"#_of_Records": "28"}}, {"General_Party": {"General_Party": "Republican", "token": "c-t-p", "id": "2"}, "Office_Sought": {"Office_Sought": "HOUSE DISTRICT 034", "token": "c-r-osid", "id": "1094"}, "Election_Year": {"token": "y", "id": "2016", "Election_Year": "2016"}, "Candidate": {"token": "c-t-id", "id": "213121", "Candidate": "YEARICK, LYNDON DEAN"}, "Candidate_Entity": {"token": "c-t-eid", "id": "8437323", "Candidate_Entity": "YEARICK, LYNDON DEAN"}, "Election_Status": {"Election_Status": "Pending-General", "token": "c-t-ftsts", "id": "Pending-General"}, "Total_$": {"Total_$": "5725.00"}, "Incumbency_Status": {"token": "c-t-ico", "Incumbency_Status": "Incumbent", "id": "I"}, "request": "s=DE&y=2015,2016&f-core=1&c-exi=1&c-t-id=213121", "Specific_Party": {"token": "c-t-pt", "Specific_Party": "REPUBLICAN", "id": "139"}, "record_id": 111, "Election_Jurisdiction": {"token": "s", "id": "DE", "Election_Jurisdiction": "DE"}, "Election_Type": {"token": "c-r-t", "id": "1", "Election_Type": "Standard"}, "#_of_Records": {"#_of_Records": "12"}}], "metaInfo": {"sorting": {"currentSorting": {"c-t-id": "Candidate"}, "sortLink": "so=c-t-id&sod=0", "availableSorting": {"c-r-osid": "Office_Sought", "u-tot": "Total_$", "c-t-pt": "Specific_Party", "c-t-ftsts": "Election_Status", "s": "Election_Jurisdiction", "c-r-t": "Election_Type", "y": "Election_Year", "c-t-p": "General_Party", "c-t-ico": "Incumbency_Status", "u-rec": "#_of_Records"}, "sortingDirection": "descending"}, "completeness": {"allReports": "827", "completeReports": "322", "availableReports": "322", "lastUpdated": "2016-07-18 11:10:12", "incompleteAvailable": "0", "mostRecentReportDate": "2016-01-20"}, "format": "json", "recordFormat": {"General_Party": {"General_Party": "display value", "token": "c-t-p", "id": "token value"}, "Office_Sought": {"Office_Sought": "display value", "token": "c-r-osid", "id": "token value"}, "Election_Year": {"token": "y", "id": "token value", "Election_Year": "display value"}, "Candidate": {"token": "c-t-id", "id": "token value", "Candidate": "display value"}, "Candidate_Entity": {"token": "c-t-eid", "id": "token value", "Candidate_Entity": "display value"}, "Total_$": {"Total_$": "display value"}, "Incumbency_Status": {"token": "c-t-ico", "Incumbency_Status": "display value", "id": "token value"}, "request": "s=DE&y=2015,2016&f-core=1&c-exi=1", "Specific_Party": {"token": "c-t-pt", "Specific_Party": "display value", "id": "token value"}, "Election_Status": {"Election_Status": "display value", "token": "c-t-ftsts", "id": "token value"}, "Election_Jurisdiction": {"token": "s", "id": "token value", "Election_Jurisdiction": "display value"}, "Election_Type": {"token": "c-r-t", "id": "token value", "Election_Type": "display value"}, "#_of_Records": {"#_of_Records": "display value"}}, "paging": {"totalRecords": "111", "minPage": 0, "recordsThisPage": 11, "pageLink": "p=1", "maxPage": 1, "recordsPerPage": 100, "totalPages": 2, "currentPage": 1}, "grouping": {"availableGrouping": {"d-et": "Type of Contributor (Contributors)", "d-empl": "Employer (Contributors)", "d-amt": "Amount (Advanced)", "d-id": "Record (Contributors)", "d-typ": "Type of Transaction (Advanced)", "f-eid": "Filer (General)", "c-t-i": "Incumbency Data (Advanced)", "d-cci": "General Industry (Contributors)", "d-ccg": "Broad Sector (Contributors)", "d-ccb": "Specific Business (Contributors)", "d-ad-zip": "Zip (Contributors)", "c-t-sts": "Status of Candidate (Candidates)", "d-nme": "Original Name (Advanced)", "c-t-icod": "Incumbency Advantage (Advanced)", "d-ins": "In-Jurisdiction (Contributors)", "d-ad-cty": "City (Contributors)", "d-occupation": "Occupation (Contributors)", "d-search": "DND (Advanced)", "d-ludte": "Last Updated (Advanced)", "d-file": "DND (Advanced)", "d-ad-str": "Street (Advanced)", "d-dte": "Date (Advanced)", "d-ad-st": "State (Contributors)", "f-y": "Filing Year (Advanced)", "f-s": "Filing Jurisdiction (General)", "d-eid": "Contributor (Contributors)", "d-llink": "Lobbying Entity? (Advanced)"}, "currentGrouping": {"c-t-id": "Candidate (General)"}, "groupLink": "gro=c-t-id"}}}