{"records": [{"General_Party": {"General_Party": "Democratic", "token": "c-t-p", "id": "1"}, "Office_Sought": {"Office_Sought": "HOUSE DISTRICT 006", "token": "c-r-osid", "id": "2192"}, "Election_Year": {"token": "y", "id": "2016", "Election_Year": "2016"}, "Candidate": {"token": "c-t-id", "id": "195277", "Candidate": "VAUGHN, KENYATTA (NICOLE)"}, "Candidate_Entity": {"token": "c-t-eid", "id": "38445039", "Candidate_Entity": "VAUGHN, KENYATTA (NICOLE)"}, "Election_Status": {"Election_Status": "Lost-Primary", "token": "c-t-ftsts", "id": "Lost-Primary"}, "Total_$": {"Total_$": "3675.00"}, "Incumbency_Status": {"token": "c-t-ico", "Incumbency_Status": "Challenger", "id": "C"}, "request": "s=IL&y=2015,2016&f-core=1&c-exi=1&c-t-id=195277", "Specific_Party": {"token": "c-t-pt", "Specific_Party": "DEMOCRATIC", "id": "33"}, "record_id": 301, "Election_Jurisdiction": {"token": "s", "id": "IL", "Election_Jurisdiction": "IL"}, "Election_Type": {"token": "c-r-t", "id": "1", "Election_Type": "Standard"}, "#_of_Records": {"#_of_Records": "10"}}, {"General_Party": {"General_Party": "Democratic", "token": "c-t-p", "id": "1"}, "Office_Sought": {"Office_Sought": "HOUSE DISTRICT 067", "token": "c-r-osid", "id": "2253"}, "Election_Year": {"token": "y", "id": "2016", "Election_Year": "2016"}, "Candidate": {"token": "c-t-id", "id": "195370", "Candidate": "WALLACE, LITESA E"}, "Candidate_Entity": {"token": "c-t-eid", "id": "26781709", "Candidate_Entity": "WALLACE, LITESA E"}, "Election_Status": {"Election_Status": "Won-Primary", "token": "c-t-ftsts", "id": "Won-Primary"}, "Total_$": {"Total_$": "79342.26"}, "Incumbency_Status": {"token": "c-t-ico", "Incumbency_Status": "Incumbent", "id": "I"}, "request": "s=IL&y=2015,2016&f-core=1&c-exi=1&c-t-id=195370", "Specific_Party": {"token": "c-t-pt", "Specific_Party": "DEMOCRATIC", "id": "33"}, "record_id": 302, "Election_Jurisdiction": {"token": "s", "id": "IL", "Election_Jurisdiction": "IL"}, "Election_Type": {"token": "c-r-t", "id": "1", "Election_Type": "Standard"}, "#_of_Records": {"#_of_Records": "107"}}, {"General_Party": {"General_Party": "Democratic", "token": "c-t-p", "id": "1"}, "Office_Sought": {"Office_Sought": "HOUSE DISTRICT 086", "token": "c-r-osid", "id": "2272"}, "Election_Year": {"token": "y", "id": "2016", "Election_Year": "2016"}, "Candidate": {"token": "c-t-id", "id": "195407", "Candidate": "WALSH, LAWRENCE M"}, "Candidate_Entity": {"token": "c-t-eid", "id": "3528756", "Candidate_Entity": "WALSH, LAWRENCE M"}, "Election_Status": {"Election_Status": "Won-Primary", "token": "c-t-ftsts", "id": "Won-Primary"}, "Total_$": {"Total_$": "136447.12"}, "Incumbency_Status": {"token": "c-t-ico", "Incumbency_Status": "Incumbent", "id": "I"}, "request": "s=IL&y=2015,2016&f-core=1&c-exi=1&c-t-id=195407", "Specific_Party": {"token": "c-t-pt", "Specific_Party": "DEMOCRATIC", "id": "33"}, "record_id": 303, "Election_Jurisdiction": {"token": "s", "id": "IL", "Election_Jurisdiction": "IL"}, "Election_Type": {"token": "c-r-t", "id": "1", "Election_Type": "Standard"}, "#_of_Records": {"#_of_Records": "186"}}, {"General_Party": {"General_Party": "Democratic", "token": "c-t-p", "id": "1"}, "Office_Sought": {"Office_Sought": "US HOUSE DISTRICT IL 014", "token": "c-r-osid", "id": "15124"}, "Election_Year": {"token": "y", "id": "2016", "Election_Year": "2016"}, "Candidate": {"token": "c-t-id", "id": "195195", "Candidate": "WALZ, JIM"}, "Candidate_Entity": {"token": "c-t-eid", "id": "33578597", "Candidate_Entity": "WALZ, JIM"}, "Election_Status": {"Election_Status": "Won-Primary", "token": "c-t-ftsts", "id": "Won-Primary"}, "Total_$": {"Total_$": "0.00"}, "Incumbency_Status": {"token": "c-t-ico", "Incumbency_Status": "Open", "id": "O"}, "request": "s=IL&y=2015,2016&f-core=1&c-exi=1&c-t-id=195195", "Specific_Party": {"token": "c-t-pt", "Specific_Party": "DEMOCRATIC", "id": "33"}, "record_id": 304, "Election_Jurisdiction": {"token": "s", "id": "IL", "Election_Jurisdiction": "IL"}, "Election_Type": {"token": "c-r-t", "id": "1", "Election_Type": "Standard"}, "#_of_Records": {"#_of_Records": "0"}}, {"General_Party": {"General_Party": "Republican", "token": "c-t-p", "id": "2"}, "Office_Sought": {"Office_Sought": "SENATE DISTRICT 037", "token": "c-r-osid", "id": "2341"}, "Election_Year": {"token": "y", "id": "2016", "Election_Year": "2016"}, "Candidate": {"token": "c-t-id", "id": "195238", "Candidate": "WEAVER, CHUCK"}, "Candidate_Entity": {"token": "c-t-eid", "id": "38445019", "Candidate_Entity": "WEAVER, CHUCK"}, "Election_Status": {"Election_Status": "Won-Primary", "token": "c-t-ftsts", "id": "Won-Primary"}, "Total_$": {"Total_$": "365635.33"}, "Incumbency_Status": {"token": "c-t-ico", "Incumbency_Status": "Incumbent", "id": "I"}, "request": "s=IL&y=2015,2016&f-core=1&c-exi=1&c-t-id=195238", "Specific_Party": {"token": "c-t-pt", "Specific_Party": "REPUBLICAN", "id": "139"}, "record_id": 305, "Election_Jurisdiction": {"token": "s", "id": "IL", "Election_Jurisdiction": "IL"}, "Election_Type": {"token": "c-r-t", "id": "1", "Election_Type": "Standard"}, "#_of_Records": {"#_of_Records": "458"}}, {"General_Party": {"General_Party": "Democratic", "token": "c-t-p", "id": "1"}, "Office_Sought": {"Office_Sought": "APPELLATE COURT DISTRICT 005-OPEN SEAT 2", "token": "c-r-osid", "id": "19292"}, "Election_Year": {"token": "y", "id": "2016", "Election_Year": "2016"}, "Candidate": {"token": "c-t-id", "id": "195467", "Candidate": "WEBER, JO (BETH)"}, "Candidate_Entity": {"token": "c-t-eid", "id": "38445135", "Candidate_Entity": "WEBER, JO (BETH)"}, "Election_Status": {"Election_Status": "Won-Primary", "token": "c-t-ftsts", "id": "Won-Primary"}, "Total_$": {"Total_$": "72201.45"}, "Incumbency_Status": {"token": "c-t-ico", "Incumbency_Status": "Open", "id": "O"}, "request": "s=IL&y=2015,2016&f-core=1&c-exi=1&c-t-id=195467", "Specific_Party": {"token": "c-t-pt", "Specific_Party": "DEMOCRATIC", "id": "33"}, "record_id": 306, "Election_Jurisdiction": {"token": "s", "id": "IL", "Election_Jurisdiction": "IL"}, "Election_Type": {"token": "c-r-t", "id": "1", "Election_Type": "Standard"}, "#_of_Records": {"#_of_Records": "140"}}, {"General_Party": {"General_Party": "Republican", "token": "c-t-p", "id": "2"}, "Office_Sought": {"Office_Sought": "HOUSE DISTRICT 041", "token": "c-r-osid", "id": "2227"}, "Election_Year": {"token": "y", "id": "2016", "Election_Year": "2016"}, "Candidate": {"token": "c-t-id", "id": "195329", "Candidate": "WEHRLI, GRANT"}, "Candidate_Entity": {"token": "c-t-eid", "id": "19003264", "Candidate_Entity": "WEHRLI, GRANT"}, "Election_Status": {"Election_Status": "Won-Primary", "token": "c-t-ftsts", "id": "Won-Primary"}, "Total_$": {"Total_$": "42075.00"}, "Incumbency_Status": {"token": "c-t-ico", "Incumbency_Status": "Incumbent", "id": "I"}, "request": "s=IL&y=2015,2016&f-core=1&c-exi=1&c-t-id=195329", "Specific_Party": {"token": "c-t-pt", "Specific_Party": "REPUBLICAN", "id": "139"}, "record_id": 307, "Election_Jurisdiction": {"token": "s", "id": "IL", "Election_Jurisdiction": "IL"}, "Election_Type": {"token": "c-r-t", "id": "1", "Election_Type": "Standard"}, "#_of_Records": {"#_of_Records": "77"}}, {"General_Party": {"General_Party": "Democratic", "token": "c-t-p", "id": "1"}, "Office_Sought": {"Office_Sought": "HOUSE DISTRICT 007", "token": "c-r-osid", "id": "2193"}, "Election_Year": {"token": "y", "id": "2016", "Election_Year": "2016"}, "Candidate": {"token": "c-t-id", "id": "195279", "Candidate": "WELCH, EMANUEL (CHRIS)"}, "Candidate_Entity": {"token": "c-t-eid", "id": "12999936", "Candidate_Entity": "WELCH, EMANUEL (CHRIS)"}, "Election_Status": {"Election_Status": "Won-Primary", "token": "c-t-ftsts", "id": "Won-Primary"}, "Total_$": {"Total_$": "555949.80"}, "Incumbency_Status": {"token": "c-t-ico", "Incumbency_Status": "Incumbent", "id": "I"}, "request": "s=IL&y=2015,2016&f-core=1&c-exi=1&c-t-id=195279", "Specific_Party": {"token": "c-t-pt", "Specific_Party": "DEMOCRATIC", "id": "33"}, "record_id": 308, "Election_Jurisdiction": {"token": "s", "id": "IL", "Election_Jurisdiction": "IL"}, "Election_Type": {"token": "c-r-t", "id": "1", "Election_Type": "Standard"}, "#_of_Records": {"#_of_Records": "462"}}, {"General_Party": {"General_Party": "Republican", "token": "c-t-p", "id": "2"}, "Office_Sought": {"Office_Sought": "HOUSE DISTRICT 064", "token": "c-r-osid", "id": "2250"}, "Election_Year": {"token": "y", "id": "2016", "Election_Year": "2016"}, "Candidate": {"token": "c-t-id", "id": "195363", "Candidate": "WHEELER, BARBARA"}, "Candidate_Entity": {"token": "c-t-eid", "id": "6700720", "Candidate_Entity": "WHEELER, BARBARA"}, "Election_Status": {"Election_Status": "Won-Primary", "token": "c-t-ftsts", "id": "Won-Primary"}, "Total_$": {"Total_$": "58048.37"}, "Incumbency_Status": {"token": "c-t-ico", "Incumbency_Status": "Incumbent", "id": "I"}, "request": "s=IL&y=2015,2016&f-core=1&c-exi=1&c-t-id=195363", "Specific_Party": {"token": "c-t-pt", "Specific_Party": "REPUBLICAN", "id": "139"}, "record_id": 309, "Election_Jurisdiction": {"token": "s", "id": "IL", "Election_Jurisdiction": "IL"}, "Election_Type": {"token": "c-r-t", "id": "1", "Election_Type": "Standard"}, "#_of_Records": {"#_of_Records": "94"}}, {"General_Party": {"General_Party": "Republican", "token": "c-t-p", "id": "2"}, "Office_Sought": {"Office_Sought": "HOUSE DISTRICT 050", "token": "c-r-osid", "id": "2236"}, "Election_Year": {"token": "y", "id": "2016", "Election_Year": "2016"}, "Candidate": {"token": "c-t-id", "id": "195341", "Candidate": "WHEELER, KEITH R"}, "Candidate_Entity": {"token": "c-t-eid", "id": "13000060", "Candidate_Entity": "WHEELER, KEITH R"}, "Election_Status": {"Election_Status": "Won-Primary", "token": "c-t-ftsts", "id": "Won-Primary"}, "Total_$": {"Total_$": "45177.15"}, "Incumbency_Status": {"token": "c-t-ico", "Incumbency_Status": "Incumbent", "id": "I"}, "request": "s=IL&y=2015,2016&f-core=1&c-exi=1&c-t-id=195341", "Specific_Party": {"token": "c-t-pt", "Specific_Party": "REPUBLICAN", "id": "139"}, "record_id": 310, "Election_Jurisdiction": {"token": "s", "id": "IL", "Election_Jurisdiction": "IL"}, "Election_Type": {"token": "c-r-t", "id": "1", "Election_Type": "Standard"}, "#_of_Records": {"#_of_Records": "32"}}, {"General_Party": {"General_Party": "Republican", "token": "c-t-p", "id": "2"}, "Office_Sought": {"Office_Sought": "US HOUSE DISTRICT IL 011", "token": "c-r-osid", "id": "15121"}, "Election_Year": {"token": "y", "id": "2016", "Election_Year": "2016"}, "Candidate": {"token": "c-t-id", "id": "195184", "Candidate": "WHITE, HERMAN B"}, "Candidate_Entity": {"token": "c-t-eid", "id": "38444994", "Candidate_Entity": "WHITE, HERMAN B"}, "Election_Status": {"Election_Status": "Lost-Primary", "token": "c-t-ftsts", "id": "Lost-Primary"}, "Total_$": {"Total_$": "76295.00"}, "Incumbency_Status": {"token": "c-t-ico", "Incumbency_Status": "Open", "id": "O"}, "request": "s=IL&y=2015,2016&f-core=1&c-exi=1&c-t-id=195184", "Specific_Party": {"token": "c-t-pt", "Specific_Party": "REPUBLICAN", "id": "139"}, "record_id": 311, "Election_Jurisdiction": {"token": "s", "id": "IL", "Election_Jurisdiction": "IL"}, "Election_Type": {"token": "c-r-t", "id": "1", "Election_Type": "Standard"}, "#_of_Records": {"#_of_Records": "52"}}, {"General_Party": {"General_Party": "Democratic", "token": "c-t-p", "id": "1"}, "Office_Sought": {"Office_Sought": "US HOUSE DISTRICT IL 013", "token": "c-r-osid", "id": "15123"}, "Election_Year": {"token": "y", "id": "2016", "Election_Year": "2016"}, "Candidate": {"token": "c-t-id", "id": "195191", "Candidate": "WICKLUND, MARK D"}, "Candidate_Entity": {"token": "c-t-eid", "id": "38444999", "Candidate_Entity": "WICKLUND, MARK D"}, "Election_Status": {"Election_Status": "Won-Primary", "token": "c-t-ftsts", "id": "Won-Primary"}, "Total_$": {"Total_$": "12482.63"}, "Incumbency_Status": {"token": "c-t-ico", "Incumbency_Status": "Open", "id": "O"}, "request": "s=IL&y=2015,2016&f-core=1&c-exi=1&c-t-id=195191", "Specific_Party": {"token": "c-t-pt", "Specific_Party": "DEMOCRATIC", "id": "33"}, "record_id": 312, "Election_Jurisdiction": {"token": "s", "id": "IL", "Election_Jurisdiction": "IL"}, "Election_Type": {"token": "c-r-t", "id": "1", "Election_Type": "Standard"}, "#_of_Records": {"#_of_Records": "8"}}, {"General_Party": {"General_Party": "Republican", "token": "c-t-p", "id": "2"}, "Office_Sought": {"Office_Sought": "HOUSE DISTRICT 066", "token": "c-r-osid", "id": "2252"}, "Election_Year": {"token": "y", "id": "2016", "Election_Year": "2016"}, "Candidate": {"token": "c-t-id", "id": "195368", "Candidate": "WILBRANDT, DAN"}, "Candidate_Entity": {"token": "c-t-eid", "id": "38445079", "Candidate_Entity": "WILBRANDT, DAN"}, "Election_Status": {"Election_Status": "Lost-Primary", "token": "c-t-ftsts", "id": "Lost-Primary"}, "Total_$": {"Total_$": "61910.68"}, "Incumbency_Status": {"token": "c-t-ico", "Incumbency_Status": "Open", "id": "O"}, "request": "s=IL&y=2015,2016&f-core=1&c-exi=1&c-t-id=195368", "Specific_Party": {"token": "c-t-pt", "Specific_Party": "REPUBLICAN", "id": "139"}, "record_id": 313, "Election_Jurisdiction": {"token": "s", "id": "IL", "Election_Jurisdiction": "IL"}, "Election_Type": {"token": "c-r-t", "id": "1", "Election_Type": "Standard"}, "#_of_Records": {"#_of_Records": "41"}}, {"General_Party": {"General_Party": "Democratic", "token": "c-t-p", "id": "1"}, "Office_Sought": {"Office_Sought": "HOUSE DISTRICT 011", "token": "c-r-osid", "id": "2197"}, "Election_Year": {"token": "y", "id": "2016", "Election_Year": "2016"}, "Candidate": {"token": "c-t-id", "id": "195285", "Candidate": "WILLIAMS, ANN M"}, "Candidate_Entity": {"token": "c-t-eid", "id": "6498894", "Candidate_Entity": "WILLIAMS, ANN M"}, "Election_Status": {"Election_Status": "Won-Primary", "token": "c-t-ftsts", "id": "Won-Primary"}, "Total_$": {"Total_$": "106145.61"}, "Incumbency_Status": {"token": "c-t-ico", "Incumbency_Status": "Incumbent", "id": "I"}, "request": "s=IL&y=2015,2016&f-core=1&c-exi=1&c-t-id=195285", "Specific_Party": {"token": "c-t-pt", "Specific_Party": "DEMOCRATIC", "id": "33"}, "record_id": 314, "Election_Jurisdiction": {"token": "s", "id": "IL", "Election_Jurisdiction": "IL"}, "Election_Type": {"token": "c-r-t", "id": "1", "Election_Type": "Standard"}, "#_of_Records": {"#_of_Records": "143"}}, {"General_Party": {"General_Party": "Democratic", "token": "c-t-p", "id": "1"}, "Office_Sought": {"Office_Sought": "HOUSE DISTRICT 029", "token": "c-r-osid", "id": "2215"}, "Election_Year": {"token": "y", "id": "2016", "Election_Year": "2016"}, "Candidate": {"token": "c-t-id", "id": "195315", "Candidate": "WILLIAMS, KENNETH (KENNY)"}, "Candidate_Entity": {"token": "c-t-eid", "id": "6527317", "Candidate_Entity": "WILLIAMS, KENNETH (KENNY)"}, "Election_Status": {"Election_Status": "Lost-Primary", "token": "c-t-ftsts", "id": "Lost-Primary"}, "Total_$": {"Total_$": "0.00"}, "Incumbency_Status": {"token": "c-t-ico", "Incumbency_Status": "Challenger", "id": "C"}, "request": "s=IL&y=2015,2016&f-core=1&c-exi=1&c-t-id=195315", "Specific_Party": {"token": "c-t-pt", "Specific_Party": "DEMOCRATIC", "id": "33"}, "record_id": 315, "Election_Jurisdiction": {"token": "s", "id": "IL", "Election_Jurisdiction": "IL"}, "Election_Type": {"token": "c-r-t", "id": "1", "Election_Type": "Standard"}, "#_of_Records": {"#_of_Records": "0"}}, {"General_Party": {"General_Party": "Democratic", "token": "c-t-p", "id": "1"}, "Office_Sought": {"Office_Sought": "HOUSE DISTRICT 077", "token": "c-r-osid", "id": "2263"}, "Election_Year": {"token": "y", "id": "2016", "Election_Year": "2016"}, "Candidate": {"token": "c-t-id", "id": "195395", "Candidate": "WILLIS, KATHLEEN"}, "Candidate_Entity": {"token": "c-t-eid", "id": "6515044", "Candidate_Entity": "WILLIS, KATHLEEN"}, "Election_Status": {"Election_Status": "Won-Primary", "token": "c-t-ftsts", "id": "Won-Primary"}, "Total_$": {"Total_$": "544516.08"}, "Incumbency_Status": {"token": "c-t-ico", "Incumbency_Status": "Incumbent", "id": "I"}, "request": "s=IL&y=2015,2016&f-core=1&c-exi=1&c-t-id=195395", "Specific_Party": {"token": "c-t-pt", "Specific_Party": "DEMOCRATIC", "id": "33"}, "record_id": 316, "Election_Jurisdiction": {"token": "s", "id": "IL", "Election_Jurisdiction": "IL"}, "Election_Type": {"token": "c-r-t", "id": "1", "Election_Type": "Standard"}, "#_of_Records": {"#_of_Records": "119"}}, {"General_Party": {"General_Party": "Republican", "token": "c-t-p", "id": "2"}, "Office_Sought": {"Office_Sought": "HOUSE DISTRICT 045", "token": "c-r-osid", "id": "2231"}, "Election_Year": {"token": "y", "id": "2016", "Election_Year": "2016"}, "Candidate": {"token": "c-t-id", "id": "195335", "Candidate": "WINGER, CHRISTINE JENNIFER"}, "Candidate_Entity": {"token": "c-t-eid", "id": "19010322", "Candidate_Entity": "WINGER, CHRISTINE JENNIFER"}, "Election_Status": {"Election_Status": "Won-Primary", "token": "c-t-ftsts", "id": "Won-Primary"}, "Total_$": {"Total_$": "135378.08"}, "Incumbency_Status": {"token": "c-t-ico", "Incumbency_Status": "Incumbent", "id": "I"}, "request": "s=IL&y=2015,2016&f-core=1&c-exi=1&c-t-id=195335", "Specific_Party": {"token": "c-t-pt", "Specific_Party": "REPUBLICAN", "id": "139"}, "record_id": 317, "Election_Jurisdiction": {"token": "s", "id": "IL", "Election_Jurisdiction": "IL"}, "Election_Type": {"token": "c-r-t", "id": "1", "Election_Type": "Standard"}, "#_of_Records": {"#_of_Records": "120"}}, {"General_Party": {"General_Party": "Republican", "token": "c-t-p", "id": "2"}, "Office_Sought": {"Office_Sought": "HOUSE DISTRICT 012", "token": "c-r-osid", "id": "2198"}, "Election_Year": {"token": "y", "id": "2016", "Election_Year": "2016"}, "Candidate": {"token": "c-t-id", "id": "195287", "Candidate": "WITT, GENE"}, "Candidate_Entity": {"token": "c-t-eid", "id": "38445044", "Candidate_Entity": "WITT, GENE"}, "Election_Status": {"Election_Status": "Won-Primary", "token": "c-t-ftsts", "id": "Won-Primary"}, "Total_$": {"Total_$": "5106.42"}, "Incumbency_Status": {"token": "c-t-ico", "Incumbency_Status": "Open", "id": "O"}, "request": "s=IL&y=2015,2016&f-core=1&c-exi=1&c-t-id=195287", "Specific_Party": {"token": "c-t-pt", "Specific_Party": "REPUBLICAN", "id": "139"}, "record_id": 318, "Election_Jurisdiction": {"token": "s", "id": "IL", "Election_Jurisdiction": "IL"}, "Election_Type": {"token": "c-r-t", "id": "1", "Election_Type": "Standard"}, "#_of_Records": {"#_of_Records": "20"}}, {"General_Party": {"General_Party": "Republican", "token": "c-t-p", "id": "2"}, "Office_Sought": {"Office_Sought": "HOUSE DISTRICT 096", "token": "c-r-osid", "id": "2282"}, "Election_Year": {"token": "y", "id": "2016", "Election_Year": "2016"}, "Candidate": {"token": "c-t-id", "id": "195424", "Candidate": "WOLFER, CYNTHIA DEADRICK (CINDY)"}, "Candidate_Entity": {"token": "c-t-eid", "id": "38445111", "Candidate_Entity": "WOLFER, CYNTHIA DEADRICK (CINDY)"}, "Election_Status": {"Election_Status": "Won-Primary", "token": "c-t-ftsts", "id": "Won-Primary"}, "Total_$": {"Total_$": "45103.85"}, "Incumbency_Status": {"token": "c-t-ico", "Incumbency_Status": "Open", "id": "O"}, "request": "s=IL&y=2015,2016&f-core=1&c-exi=1&c-t-id=195424", "Specific_Party": {"token": "c-t-pt", "Specific_Party": "REPUBLICAN", "id": "139"}, "record_id": 319, "Election_Jurisdiction": {"token": "s", "id": "IL", "Election_Jurisdiction": "IL"}, "Election_Type": {"token": "c-r-t", "id": "1", "Election_Type": "Standard"}, "#_of_Records": {"#_of_Records": "78"}}, {"General_Party": {"General_Party": "Democratic", "token": "c-t-p", "id": "1"}, "Office_Sought": {"Office_Sought": "HOUSE DISTRICT 062", "token": "c-r-osid", "id": "2248"}, "Election_Year": {"token": "y", "id": "2016", "Election_Year": "2016"}, "Candidate": {"token": "c-t-id", "id": "195359", "Candidate": "YINGLING, SAM"}, "Candidate_Entity": {"token": "c-t-eid", "id": "13000105", "Candidate_Entity": "YINGLING, SAM"}, "Election_Status": {"Election_Status": "Won-Primary", "token": "c-t-ftsts", "id": "Won-Primary"}, "Total_$": {"Total_$": "79437.66"}, "Incumbency_Status": {"token": "c-t-ico", "Incumbency_Status": "Incumbent", "id": "I"}, "request": "s=IL&y=2015,2016&f-core=1&c-exi=1&c-t-id=195359", "Specific_Party": {"token": "c-t-pt", "Specific_Party": "DEMOCRATIC", "id": "33"}, "record_id": 320, "Election_Jurisdiction": {"token": "s", "id": "IL", "Election_Jurisdiction": "IL"}, "Election_Type": {"token": "c-r-t", "id": "1", "Election_Type": "Standard"}, "#_of_Records": {"#_of_Records": "63"}}, {"General_Party": {"General_Party": "Democratic", "token": "c-t-p", "id": "1"}, "Office_Sought": {"Office_Sought": "HOUSE DISTRICT 023", "token": "c-r-osid", "id": "2209"}, "Election_Year": {"token": "y", "id": "2016", "Election_Year": "2016"}, "Candidate": {"token": "c-t-id", "id": "195305", "Candidate": "ZALEWSKI, MICHAEL J"}, "Candidate_Entity": {"token": "c-t-eid", "id": "12999974", "Candidate_Entity": "ZALEWSKI, MICHAEL J"}, "Election_Status": {"Election_Status": "Won-Primary", "token": "c-t-ftsts", "id": "Won-Primary"}, "Total_$": {"Total_$": "168280.90"}, "Incumbency_Status": {"token": "c-t-ico", "Incumbency_Status": "Incumbent", "id": "I"}, "request": "s=IL&y=2015,2016&f-core=1&c-exi=1&c-t-id=195305", "Specific_Party": {"token": "c-t-pt", "Specific_Party": "DEMOCRATIC", "id": "33"}, "record_id": 321, "Election_Jurisdiction": {"token": "s", "id": "IL", "Election_Jurisdiction": "IL"}, "Election_Type": {"token": "c-r-t", "id": "1", "Election_Type": "Standard"}, "#_of_Records": {"#_of_Records": "198"}}, {"General_Party": {"General_Party": "Democratic", "token": "c-t-p", "id": "1"}, "Office_Sought": {"Office_Sought": "HOUSE DISTRICT 066", "token": "c-r-osid", "id": "2252"}, "Election_Year": {"token": "y", "id": "2016", "Election_Year": "2016"}, "Candidate": {"token": "c-t-id", "id": "195369", "Candidate": "ZETTLER, NANCY A"}, "Candidate_Entity": {"token": "c-t-eid", "id": "38445080", "Candidate_Entity": "ZETTLER, NANCY A"}, "Election_Status": {"Election_Status": "Won-Primary", "token": "c-t-ftsts", "id": "Won-Primary"}, "Total_$": {"Total_$": "17962.00"}, "Incumbency_Status": {"token": "c-t-ico", "Incumbency_Status": "Open", "id": "O"}, "request": "s=IL&y=2015,2016&f-core=1&c-exi=1&c-t-id=195369", "Specific_Party": {"token": "c-t-pt", "Specific_Party": "DEMOCRATIC", "id": "33"}, "record_id": 322, "Election_Jurisdiction": {"token": "s", "id": "IL", "Election_Jurisdiction": "IL"}, "Election_Type": {"token": "c-r-t", "id": "1", "Election_Type": "Standard"}, "#_of_Records": {"#_of_Records": "19"}}, {"General_Party": {"General_Party": "Democratic", "token": "c-t-p", "id": "1"}, "Office_Sought": {"Office_Sought": "US SENATE DISTRICT IL SW-CLASS III", "token": "c-r-osid", "id": "14938"}, "Election_Year": {"token": "y", "id": "2016", "Election_Year": "2016"}, "Candidate": {"token": "c-t-id", "id": "195147", "Candidate": "ZOPP, ANDREA"}, "Candidate_Entity": {"token": "c-t-eid", "id": "973103", "Candidate_Entity": "ZOPP, ANDREA"}, "Election_Status": {"Election_Status": "Lost-Primary", "token": "c-t-ftsts", "id": "Lost-Primary"}, "Total_$": {"Total_$": "868890.09"}, "Incumbency_Status": {"token": "c-t-ico", "Incumbency_Status": "Open", "id": "O"}, "request": "s=IL&y=2015,2016&f-core=1&c-exi=1&c-t-id=195147", "Specific_Party": {"token": "c-t-pt", "Specific_Party": "DEMOCRATIC", "id": "33"}, "record_id": 323, "Election_Jurisdiction": {"token": "s", "id": "IL", "Election_Jurisdiction": "IL"}, "Election_Type": {"token": "c-r-t", "id": "1", "Election_Type": "Standard"}, "#_of_Records": {"#_of_Records": "874"}}, {"General_Party": {"General_Party": "Democratic", "token": "c-t-p", "id": "1"}, "Office_Sought": {"Office_Sought": "HOUSE DISTRICT 004", "token": "c-r-osid", "id": "2190"}, "Election_Year": {"token": "y", "id": "2016", "Election_Year": "2016"}, "Candidate": {"token": "c-t-id", "id": "195269", "Candidate": "ZWOLINSKI, ROBERT (BOB Z)"}, "Candidate_Entity": {"token": "c-t-eid", "id": "38445034", "Candidate_Entity": "ZWOLINSKI, ROBERT (BOB Z)"}, "Election_Status": {"Election_Status": "Lost-Primary", "token": "c-t-ftsts", "id": "Lost-Primary"}, "Total_$": {"Total_$": "2550.00"}, "Incumbency_Status": {"token": "c-t-ico", "Incumbency_Status": "Challenger", "id": "C"}, "request": "s=IL&y=2015,2016&f-core=1&c-exi=1&c-t-id=195269", "Specific_Party": {"token": "c-t-pt", "Specific_Party": "DEMOCRATIC", "id": "33"}, "record_id": 324, "Election_Jurisdiction": {"token": "s", "id": "IL", "Election_Jurisdiction": "IL"}, "Election_Type": {"token": "c-r-t", "id": "1", "Election_Type": "Standard"}, "#_of_Records": {"#_of_Records": "4"}}], "metaInfo": {"sorting": {"currentSorting": {"c-t-id": "Candidate"}, "sortLink": "so=c-t-id&sod=0", "availableSorting": {"c-r-osid": "Office_Sought", "u-tot": "Total_$", "c-t-pt": "Specific_Party", "c-t-ftsts": "Election_Status", "s": "Election_Jurisdiction", "c-r-t": "Election_Type", "y": "Election_Year", "c-t-p": "General_Party", "c-t-ico": "Incumbency_Status", "u-rec": "#_of_Records"}, "sortingDirection": "descending"}, "completeness": {"allReports": "2549", "completeReports": "2021", "availableReports": "2023", "lastUpdated": "2016-07-26 11:30:15", "incompleteAvailable": "2", "mostRecentReportDate": "2016-07-15"}, "format": "json", "recordFormat": {"General_Party": {"General_Party": "display value", "token": "c-t-p", "id": "token value"}, "Office_Sought": {"Office_Sought": "display value", "token": "c-r-osid", "id": "token value"}, "Election_Year": {"token": "y", "id": "token value", "Election_Year": "display value"}, "Candidate": {"token": "c-t-id", "id": "token value", "Candidate": "display value"}, "Candidate_Entity": {"token": "c-t-eid", "id": "token value", "Candidate_Entity": "display value"}, "Total_$": {"Total_$": "display value"}, "Incumbency_Status": {"token": "c-t-ico", "Incumbency_Status": "display value", "id": "token value"}, "request": "s=IL&y=2015,2016&f-core=1&c-exi=1", "Specific_Party": {"token": "c-t-pt", "Specific_Party": "display value", "id": "token value"}, "Election_Status": {"Election_Status": "display value", "token": "c-t-ftsts", "id": "token value"}, "Election_Jurisdiction": {"token": "s", "id": "token value", "Election_Jurisdiction": "display value"}, "Election_Type": {"token": "c-r-t", "id": "token value", "Election_Type": "display value"}, "#_of_Records": {"#_of_Records": "display value"}}, "paging": {"totalRecords": "324", "minPage": 0, "recordsThisPage": 24, "pageLink": "p=3", "maxPage": 3, "recordsPerPage": 100, "totalPages": 4, "currentPage": 3}, "grouping": {"availableGrouping": {"d-et": "Type of Contributor (Contributors)", "d-empl": "Employer (Contributors)", "d-amt": "Amount (Advanced)", "d-id": "Record (Contributors)", "d-typ": "Type of Transaction (Advanced)", "f-eid": "Filer (General)", "c-t-i": "Incumbency Data (Advanced)", "d-cci": "General Industry (Contributors)", "d-ccg": "Broad Sector (Contributors)", "d-ccb": "Specific Business (Contributors)", "d-ad-zip": "Zip (Contributors)", "c-t-sts": "Status of Candidate (Candidates)", "d-nme": "Original Name (Advanced)", "c-t-icod": "Incumbency Advantage (Advanced)", "d-ins": "In-Jurisdiction (Contributors)", "d-ad-cty": "City (Contributors)", "d-occupation": "Occupation (Contributors)", "d-search": "DND (Advanced)", "d-ludte": "Last Updated (Advanced)", "d-file": "DND (Advanced)", "d-ad-str": "Street (Advanced)", "d-dte": "Date (Advanced)", "d-ad-st": "State (Contributors)", "f-y": "Filing Year (Advanced)", "f-s": "Filing Jurisdiction (General)", "d-eid": "Contributor (Contributors)", "d-llink": "Lobbying Entity? (Advanced)"}, "currentGrouping": {"c-t-id": "Candidate (General)"}, "groupLink": "gro=c-t-id"}}}