{"records": [{"General_Party": {"General_Party": "Republican", "token": "c-t-p", "id": "2"}, "Office_Sought": {"Office_Sought": "SENATE DISTRICT 027", "token": "c-r-osid", "id": "2877"}, "Election_Year": {"token": "y", "id": "2016", "Election_Year": "2016"}, "Candidate": {"token": "c-t-id", "id": "199258", "Candidate": "WEST, STEPHEN (STEVE)"}, "Candidate_Entity": {"token": "c-t-eid", "id": "6681931", "Candidate_Entity": "WEST, STEPHEN (STEVE)"}, "Election_Status": {"Election_Status": "Pending-Primary", "token": "c-t-ftsts", "id": "Pending-Primary"}, "Total_$": {"Total_$": "0.00"}, "Incumbency_Status": {"token": "c-t-ico", "Incumbency_Status": "Incumbent", "id": "I"}, "request": "s=KY&y=2015,2016&f-core=1&c-exi=1&c-t-id=199258", "Specific_Party": {"token": "c-t-pt", "Specific_Party": "REPUBLICAN", "id": "139"}, "record_id": 301, "Election_Jurisdiction": {"token": "s", "id": "KY", "Election_Jurisdiction": "KY"}, "Election_Type": {"token": "c-r-t", "id": "1", "Election_Type": "Standard"}, "#_of_Records": {"#_of_Records": "0"}}, {"General_Party": {"General_Party": "Republican", "token": "c-t-p", "id": "2"}, "Office_Sought": {"Office_Sought": "ATTORNEY GENERAL", "token": "c-r-osid", "id": "9101"}, "Election_Year": {"token": "y", "id": "2015", "Election_Year": "2015"}, "Candidate": {"token": "c-t-id", "id": "183618", "Candidate": "WESTERFIELD, WHITNEY H"}, "Candidate_Entity": {"token": "c-t-eid", "id": "12591699", "Candidate_Entity": "WESTERFIELD, WHITNEY H"}, "Election_Status": {"Election_Status": "Lost-General", "token": "c-t-ftsts", "id": "Lost-General"}, "Total_$": {"Total_$": "360440.35"}, "Incumbency_Status": {"token": "c-t-ico", "Incumbency_Status": "Open", "id": "O"}, "request": "s=KY&y=2015,2016&f-core=1&c-exi=1&c-t-id=183618", "Specific_Party": {"token": "c-t-pt", "Specific_Party": "REPUBLICAN", "id": "139"}, "record_id": 302, "Election_Jurisdiction": {"token": "s", "id": "KY", "Election_Jurisdiction": "KY"}, "Election_Type": {"token": "c-r-t", "id": "1", "Election_Type": "Standard"}, "#_of_Records": {"#_of_Records": "582"}}, {"General_Party": {"General_Party": "Republican", "token": "c-t-p", "id": "2"}, "Office_Sought": {"Office_Sought": "SENATE DISTRICT 003", "token": "c-r-osid", "id": "2853"}, "Election_Year": {"token": "y", "id": "2016", "Election_Year": "2016"}, "Candidate": {"token": "c-t-id", "id": "199259", "Candidate": "WESTERFIELD, WHITNEY H"}, "Candidate_Entity": {"token": "c-t-eid", "id": "12591699", "Candidate_Entity": "WESTERFIELD, WHITNEY H"}, "Election_Status": {"Election_Status": "Pending-Primary", "token": "c-t-ftsts", "id": "Pending-Primary"}, "Total_$": {"Total_$": "0.00"}, "Incumbency_Status": {"token": "c-t-ico", "Incumbency_Status": "Incumbent", "id": "I"}, "request": "s=KY&y=2015,2016&f-core=1&c-exi=1&c-t-id=199259", "Specific_Party": {"token": "c-t-pt", "Specific_Party": "REPUBLICAN", "id": "139"}, "record_id": 303, "Election_Jurisdiction": {"token": "s", "id": "KY", "Election_Jurisdiction": "KY"}, "Election_Type": {"token": "c-r-t", "id": "1", "Election_Type": "Standard"}, "#_of_Records": {"#_of_Records": "0"}}, {"General_Party": {"General_Party": "Democratic", "token": "c-t-p", "id": "1"}, "Office_Sought": {"Office_Sought": "HOUSE DISTRICT 079", "token": "c-r-osid", "id": "2829"}, "Election_Year": {"token": "y", "id": "2016", "Election_Year": "2016"}, "Candidate": {"token": "c-t-id", "id": "199260", "Candidate": "WESTROM, SUSAN"}, "Candidate_Entity": {"token": "c-t-eid", "id": "6377569", "Candidate_Entity": "WESTROM, SUSAN"}, "Election_Status": {"Election_Status": "Pending-Primary", "token": "c-t-ftsts", "id": "Pending-Primary"}, "Total_$": {"Total_$": "0.00"}, "Incumbency_Status": {"token": "c-t-ico", "Incumbency_Status": "Incumbent", "id": "I"}, "request": "s=KY&y=2015,2016&f-core=1&c-exi=1&c-t-id=199260", "Specific_Party": {"token": "c-t-pt", "Specific_Party": "DEMOCRATIC", "id": "33"}, "record_id": 304, "Election_Jurisdiction": {"token": "s", "id": "KY", "Election_Jurisdiction": "KY"}, "Election_Type": {"token": "c-r-t", "id": "1", "Election_Type": "Standard"}, "#_of_Records": {"#_of_Records": "0"}}, {"General_Party": {"General_Party": "Republican", "token": "c-t-p", "id": "2"}, "Office_Sought": {"Office_Sought": "HOUSE DISTRICT 094", "token": "c-r-osid", "id": "2844"}, "Election_Year": {"token": "y", "id": "2016", "Election_Year": "2016"}, "Candidate": {"token": "c-t-id", "id": "199261", "Candidate": "WHEELER, CHARLES PHILLIP"}, "Candidate_Entity": {"token": "c-t-eid", "id": "39494798", "Candidate_Entity": "WHEELER, CHARLES PHILLIP"}, "Election_Status": {"Election_Status": "Pending-Primary", "token": "c-t-ftsts", "id": "Pending-Primary"}, "Total_$": {"Total_$": "0.00"}, "Incumbency_Status": {"token": "c-t-ico", "Incumbency_Status": "Open", "id": "O"}, "request": "s=KY&y=2015,2016&f-core=1&c-exi=1&c-t-id=199261", "Specific_Party": {"token": "c-t-pt", "Specific_Party": "REPUBLICAN", "id": "139"}, "record_id": 305, "Election_Jurisdiction": {"token": "s", "id": "KY", "Election_Jurisdiction": "KY"}, "Election_Type": {"token": "c-r-t", "id": "1", "Election_Type": "Standard"}, "#_of_Records": {"#_of_Records": "0"}}, {"General_Party": {"General_Party": "Democratic", "token": "c-t-p", "id": "1"}, "Office_Sought": {"Office_Sought": "US SENATE DISTRICT KY SW-CLASS III", "token": "c-r-osid", "id": "14941"}, "Election_Year": {"token": "y", "id": "2016", "Election_Year": "2016"}, "Candidate": {"token": "c-t-id", "id": "199262", "Candidate": "WILDER, SELLUS"}, "Candidate_Entity": {"token": "c-t-eid", "id": "39494799", "Candidate_Entity": "WILDER, SELLUS"}, "Election_Status": {"Election_Status": "Pending-Primary", "token": "c-t-ftsts", "id": "Pending-Primary"}, "Total_$": {"Total_$": "0.00"}, "Incumbency_Status": {"token": "c-t-ico", "Incumbency_Status": "Open", "id": "O"}, "request": "s=KY&y=2015,2016&f-core=1&c-exi=1&c-t-id=199262", "Specific_Party": {"token": "c-t-pt", "Specific_Party": "DEMOCRATIC", "id": "33"}, "record_id": 306, "Election_Jurisdiction": {"token": "s", "id": "KY", "Election_Jurisdiction": "KY"}, "Election_Type": {"token": "c-r-t", "id": "1", "Election_Type": "Standard"}, "#_of_Records": {"#_of_Records": "0"}}, {"General_Party": {"General_Party": "Republican", "token": "c-t-p", "id": "2"}, "Office_Sought": {"Office_Sought": "HOUSE DISTRICT 023", "token": "c-r-osid", "id": "2773"}, "Election_Year": {"token": "y", "id": "2016", "Election_Year": "2016"}, "Candidate": {"token": "c-t-id", "id": "199263", "Candidate": "WILKERSON, FREDDIE JOE"}, "Candidate_Entity": {"token": "c-t-eid", "id": "39494800", "Candidate_Entity": "WILKERSON, FREDDIE JOE"}, "Election_Status": {"Election_Status": "Pending-Primary", "token": "c-t-ftsts", "id": "Pending-Primary"}, "Total_$": {"Total_$": "0.00"}, "Incumbency_Status": {"token": "c-t-ico", "Incumbency_Status": "Open", "id": "O"}, "request": "s=KY&y=2015,2016&f-core=1&c-exi=1&c-t-id=199263", "Specific_Party": {"token": "c-t-pt", "Specific_Party": "REPUBLICAN", "id": "139"}, "record_id": 307, "Election_Jurisdiction": {"token": "s", "id": "KY", "Election_Jurisdiction": "KY"}, "Election_Type": {"token": "c-r-t", "id": "1", "Election_Type": "Standard"}, "#_of_Records": {"#_of_Records": "0"}}, {"General_Party": {"General_Party": "Republican", "token": "c-t-p", "id": "2"}, "Office_Sought": {"Office_Sought": "HOUSE DISTRICT 037", "token": "c-r-osid", "id": "2787"}, "Election_Year": {"token": "y", "id": "2016", "Election_Year": "2016"}, "Candidate": {"token": "c-t-id", "id": "199264", "Candidate": "WILSON, MARK"}, "Candidate_Entity": {"token": "c-t-eid", "id": "21078250", "Candidate_Entity": "WILSON, MARK"}, "Election_Status": {"Election_Status": "Pending-Primary", "token": "c-t-ftsts", "id": "Pending-Primary"}, "Total_$": {"Total_$": "0.00"}, "Incumbency_Status": {"token": "c-t-ico", "Incumbency_Status": "Open", "id": "O"}, "request": "s=KY&y=2015,2016&f-core=1&c-exi=1&c-t-id=199264", "Specific_Party": {"token": "c-t-pt", "Specific_Party": "REPUBLICAN", "id": "139"}, "record_id": 308, "Election_Jurisdiction": {"token": "s", "id": "KY", "Election_Jurisdiction": "KY"}, "Election_Type": {"token": "c-r-t", "id": "1", "Election_Type": "Standard"}, "#_of_Records": {"#_of_Records": "0"}}, {"General_Party": {"General_Party": "Democratic", "token": "c-t-p", "id": "1"}, "Office_Sought": {"Office_Sought": "HOUSE DISTRICT 002", "token": "c-r-osid", "id": "2752"}, "Election_Year": {"token": "y", "id": "2016", "Election_Year": "2016"}, "Candidate": {"token": "c-t-id", "id": "199265", "Candidate": "WRIGHT, JESSE"}, "Candidate_Entity": {"token": "c-t-eid", "id": "20877357", "Candidate_Entity": "WRIGHT, JESSE"}, "Election_Status": {"Election_Status": "Pending-Primary", "token": "c-t-ftsts", "id": "Pending-Primary"}, "Total_$": {"Total_$": "0.00"}, "Incumbency_Status": {"token": "c-t-ico", "Incumbency_Status": "Open", "id": "O"}, "request": "s=KY&y=2015,2016&f-core=1&c-exi=1&c-t-id=199265", "Specific_Party": {"token": "c-t-pt", "Specific_Party": "DEMOCRATIC", "id": "33"}, "record_id": 309, "Election_Jurisdiction": {"token": "s", "id": "KY", "Election_Jurisdiction": "KY"}, "Election_Type": {"token": "c-r-t", "id": "1", "Election_Type": "Standard"}, "#_of_Records": {"#_of_Records": "0"}}, {"General_Party": {"General_Party": "Nonpartisan", "token": "c-t-p", "id": "4"}, "Office_Sought": {"Office_Sought": "SUPREME COURT DISTRICT 007", "token": "c-r-osid", "id": "9846"}, "Election_Year": {"token": "y", "id": "2015", "Election_Year": "2015"}, "Candidate": {"token": "c-t-id", "id": "192858", "Candidate": "WRIGHT, SAM"}, "Candidate_Entity": {"token": "c-t-eid", "id": "33086093", "Candidate_Entity": "WRIGHT, SAM"}, "Election_Status": {"Election_Status": "Won-General", "token": "c-t-ftsts", "id": "Won-General"}, "Total_$": {"Total_$": "205398.19"}, "Incumbency_Status": {"token": "c-t-ico", "Incumbency_Status": "Open", "id": "O"}, "request": "s=KY&y=2015,2016&f-core=1&c-exi=1&c-t-id=192858", "Specific_Party": {"token": "c-t-pt", "Specific_Party": "NONPARTISAN", "id": "101"}, "record_id": 310, "Election_Jurisdiction": {"token": "s", "id": "KY", "Election_Jurisdiction": "KY"}, "Election_Type": {"token": "c-r-t", "id": "1", "Election_Type": "Standard"}, "#_of_Records": {"#_of_Records": "282"}}, {"General_Party": {"General_Party": "Republican", "token": "c-t-p", "id": "2"}, "Office_Sought": {"Office_Sought": "HOUSE DISTRICT 066", "token": "c-r-osid", "id": "2816"}, "Election_Year": {"token": "y", "id": "2016", "Election_Year": "2016"}, "Candidate": {"token": "c-t-id", "id": "199266", "Candidate": "WUCHNER, ADDIA KATHRYN"}, "Candidate_Entity": {"token": "c-t-eid", "id": "13000780", "Candidate_Entity": "WUCHNER, ADDIA KATHRYN"}, "Election_Status": {"Election_Status": "Pending-Primary", "token": "c-t-ftsts", "id": "Pending-Primary"}, "Total_$": {"Total_$": "0.00"}, "Incumbency_Status": {"token": "c-t-ico", "Incumbency_Status": "Incumbent", "id": "I"}, "request": "s=KY&y=2015,2016&f-core=1&c-exi=1&c-t-id=199266", "Specific_Party": {"token": "c-t-pt", "Specific_Party": "REPUBLICAN", "id": "139"}, "record_id": 311, "Election_Jurisdiction": {"token": "s", "id": "KY", "Election_Jurisdiction": "KY"}, "Election_Type": {"token": "c-r-t", "id": "1", "Election_Type": "Standard"}, "#_of_Records": {"#_of_Records": "0"}}, {"General_Party": {"General_Party": "Democratic", "token": "c-t-p", "id": "1"}, "Office_Sought": {"Office_Sought": "US HOUSE DISTRICT KY 003", "token": "c-r-osid", "id": "15144"}, "Election_Year": {"token": "y", "id": "2016", "Election_Year": "2016"}, "Candidate": {"token": "c-t-id", "id": "199267", "Candidate": "YARMUTH, JOHN A"}, "Candidate_Entity": {"token": "c-t-eid", "id": "7155937", "Candidate_Entity": "YARMUTH, JOHN A"}, "Election_Status": {"Election_Status": "Pending-Primary", "token": "c-t-ftsts", "id": "Pending-Primary"}, "Total_$": {"Total_$": "339142.01"}, "Incumbency_Status": {"token": "c-t-ico", "Incumbency_Status": "Incumbent", "id": "I"}, "request": "s=KY&y=2015,2016&f-core=1&c-exi=1&c-t-id=199267", "Specific_Party": {"token": "c-t-pt", "Specific_Party": "DEMOCRATIC", "id": "33"}, "record_id": 312, "Election_Jurisdiction": {"token": "s", "id": "KY", "Election_Jurisdiction": "KY"}, "Election_Type": {"token": "c-r-t", "id": "1", "Election_Type": "Standard"}, "#_of_Records": {"#_of_Records": "198"}}, {"General_Party": {"General_Party": "Republican", "token": "c-t-p", "id": "2"}, "Office_Sought": {"Office_Sought": "HOUSE DISTRICT 073", "token": "c-r-osid", "id": "2823"}, "Election_Year": {"token": "y", "id": "2016", "Election_Year": "2016"}, "Candidate": {"token": "c-t-id", "id": "199268", "Candidate": "YATES, LES"}, "Candidate_Entity": {"token": "c-t-eid", "id": "39494802", "Candidate_Entity": "YATES, LES"}, "Election_Status": {"Election_Status": "Pending-Primary", "token": "c-t-ftsts", "id": "Pending-Primary"}, "Total_$": {"Total_$": "0.00"}, "Incumbency_Status": {"token": "c-t-ico", "Incumbency_Status": "Challenger", "id": "C"}, "request": "s=KY&y=2015,2016&f-core=1&c-exi=1&c-t-id=199268", "Specific_Party": {"token": "c-t-pt", "Specific_Party": "REPUBLICAN", "id": "139"}, "record_id": 313, "Election_Jurisdiction": {"token": "s", "id": "KY", "Election_Jurisdiction": "KY"}, "Election_Type": {"token": "c-r-t", "id": "1", "Election_Type": "Standard"}, "#_of_Records": {"#_of_Records": "0"}}, {"General_Party": {"General_Party": "Democratic", "token": "c-t-p", "id": "1"}, "Office_Sought": {"Office_Sought": "HOUSE DISTRICT 015", "token": "c-r-osid", "id": "2765"}, "Election_Year": {"token": "y", "id": "2016", "Election_Year": "2016"}, "Candidate": {"token": "c-t-id", "id": "199269", "Candidate": "YONTS, BRENT"}, "Candidate_Entity": {"token": "c-t-eid", "id": "13000604", "Candidate_Entity": "YONTS, BRENT"}, "Election_Status": {"Election_Status": "Pending-Primary", "token": "c-t-ftsts", "id": "Pending-Primary"}, "Total_$": {"Total_$": "0.00"}, "Incumbency_Status": {"token": "c-t-ico", "Incumbency_Status": "Incumbent", "id": "I"}, "request": "s=KY&y=2015,2016&f-core=1&c-exi=1&c-t-id=199269", "Specific_Party": {"token": "c-t-pt", "Specific_Party": "DEMOCRATIC", "id": "33"}, "record_id": 314, "Election_Jurisdiction": {"token": "s", "id": "KY", "Election_Jurisdiction": "KY"}, "Election_Type": {"token": "c-r-t", "id": "1", "Election_Type": "Standard"}, "#_of_Records": {"#_of_Records": "0"}}, {"General_Party": {"General_Party": "Republican", "token": "c-t-p", "id": "2"}, "Office_Sought": {"Office_Sought": "HOUSE DISTRICT 096", "token": "c-r-osid", "id": "2846"}, "Election_Year": {"token": "y", "id": "2016", "Election_Year": "2016"}, "Candidate": {"token": "c-t-id", "id": "199270", "Candidate": "YORK, JILL"}, "Candidate_Entity": {"token": "c-t-eid", "id": "6681989", "Candidate_Entity": "YORK, JILL"}, "Election_Status": {"Election_Status": "Pending-Primary", "token": "c-t-ftsts", "id": "Pending-Primary"}, "Total_$": {"Total_$": "0.00"}, "Incumbency_Status": {"token": "c-t-ico", "Incumbency_Status": "Incumbent", "id": "I"}, "request": "s=KY&y=2015,2016&f-core=1&c-exi=1&c-t-id=199270", "Specific_Party": {"token": "c-t-pt", "Specific_Party": "REPUBLICAN", "id": "139"}, "record_id": 315, "Election_Jurisdiction": {"token": "s", "id": "KY", "Election_Jurisdiction": "KY"}, "Election_Type": {"token": "c-r-t", "id": "1", "Election_Type": "Standard"}, "#_of_Records": {"#_of_Records": "0"}}, {"General_Party": {"General_Party": "Democratic", "token": "c-t-p", "id": "1"}, "Office_Sought": {"Office_Sought": "US HOUSE DISTRICT KY 006", "token": "c-r-osid", "id": "15147"}, "Election_Year": {"token": "y", "id": "2016", "Election_Year": "2016"}, "Candidate": {"token": "c-t-id", "id": "199271", "Candidate": "YOUNG, GEOFFREY M (GEOFF)"}, "Candidate_Entity": {"token": "c-t-eid", "id": "15666100", "Candidate_Entity": "YOUNG, GEOFFREY M (GEOFF)"}, "Election_Status": {"Election_Status": "Pending-Primary", "token": "c-t-ftsts", "id": "Pending-Primary"}, "Total_$": {"Total_$": "0.00"}, "Incumbency_Status": {"token": "c-t-ico", "Incumbency_Status": "Open", "id": "O"}, "request": "s=KY&y=2015,2016&f-core=1&c-exi=1&c-t-id=199271", "Specific_Party": {"token": "c-t-pt", "Specific_Party": "DEMOCRATIC", "id": "33"}, "record_id": 316, "Election_Jurisdiction": {"token": "s", "id": "KY", "Election_Jurisdiction": "KY"}, "Election_Type": {"token": "c-r-t", "id": "1", "Election_Type": "Standard"}, "#_of_Records": {"#_of_Records": "0"}}, {"General_Party": {"General_Party": "Democratic", "token": "c-t-p", "id": "1"}, "Office_Sought": {"Office_Sought": "GOVERNOR / LIEUTENANT GOVERNOR", "token": "c-r-osid", "id": "9100"}, "Election_Year": {"token": "y", "id": "2015", "Election_Year": "2015"}, "Candidate": {"token": "c-t-id", "id": "183609", "Candidate": "YOUNG, GEOFFREY M (GEOFF) & MASTERS, JOHNATHAN D"}, "Candidate_Entity": {"token": "c-t-eid", "id": "15666100,29300639", "Candidate_Entity": "YOUNG, GEOFFREY M (GEOFF) & MASTERS, JOHNATHAN D"}, "Election_Status": {"Election_Status": "Lost-Primary", "token": "c-t-ftsts", "id": "Lost-Primary"}, "Total_$": {"Total_$": "22085.97"}, "Incumbency_Status": {"token": "c-t-ico", "Incumbency_Status": "Open", "id": "O"}, "request": "s=KY&y=2015,2016&f-core=1&c-exi=1&c-t-id=183609", "Specific_Party": {"token": "c-t-pt", "Specific_Party": "DEMOCRATIC", "id": "33"}, "record_id": 317, "Election_Jurisdiction": {"token": "s", "id": "KY", "Election_Jurisdiction": "KY"}, "Election_Type": {"token": "c-r-t", "id": "1", "Election_Type": "Standard"}, "#_of_Records": {"#_of_Records": "9"}}, {"General_Party": {"General_Party": "Republican", "token": "c-t-p", "id": "2"}, "Office_Sought": {"Office_Sought": "SENATE DISTRICT 033", "token": "c-r-osid", "id": "2883"}, "Election_Year": {"token": "y", "id": "2016", "Election_Year": "2016"}, "Candidate": {"token": "c-t-id", "id": "199272", "Candidate": "YUEN, JOHN"}, "Candidate_Entity": {"token": "c-t-eid", "id": "39494803", "Candidate_Entity": "YUEN, JOHN"}, "Election_Status": {"Election_Status": "Pending-Primary", "token": "c-t-ftsts", "id": "Pending-Primary"}, "Total_$": {"Total_$": "0.00"}, "Incumbency_Status": {"token": "c-t-ico", "Incumbency_Status": "Open", "id": "O"}, "request": "s=KY&y=2015,2016&f-core=1&c-exi=1&c-t-id=199272", "Specific_Party": {"token": "c-t-pt", "Specific_Party": "REPUBLICAN", "id": "139"}, "record_id": 318, "Election_Jurisdiction": {"token": "s", "id": "KY", "Election_Jurisdiction": "KY"}, "Election_Type": {"token": "c-r-t", "id": "1", "Election_Type": "Standard"}, "#_of_Records": {"#_of_Records": "0"}}], "metaInfo": {"sorting": {"currentSorting": {"c-t-id": "Candidate"}, "sortLink": "so=c-t-id&sod=0", "availableSorting": {"c-r-osid": "Office_Sought", "u-tot": "Total_$", "c-t-pt": "Specific_Party", "c-t-ftsts": "Election_Status", "s": "Election_Jurisdiction", "c-r-t": "Election_Type", "y": "Election_Year", "c-t-p": "General_Party", "c-t-ico": "Incumbency_Status", "u-rec": "#_of_Records"}, "sortingDirection": "descending"}, "completeness": {"allReports": "6354", "completeReports": "3378", "availableReports": "5967", "lastUpdated": "2016-08-01 09:27:28", "incompleteAvailable": "2589", "mostRecentReportDate": "2016-01-07"}, "format": "json", "recordFormat": {"General_Party": {"General_Party": "display value", "token": "c-t-p", "id": "token value"}, "Office_Sought": {"Office_Sought": "display value", "token": "c-r-osid", "id": "token value"}, "Election_Year": {"token": "y", "id": "token value", "Election_Year": "display value"}, "Candidate": {"token": "c-t-id", "id": "token value", "Candidate": "display value"}, "Candidate_Entity": {"token": "c-t-eid", "id": "token value", "Candidate_Entity": "display value"}, "Total_$": {"Total_$": "display value"}, "Incumbency_Status": {"token": "c-t-ico", "Incumbency_Status": "display value", "id": "token value"}, "request": "s=KY&y=2015,2016&f-core=1&c-exi=1", "Specific_Party": {"token": "c-t-pt", "Specific_Party": "display value", "id": "token value"}, "Election_Status": {"Election_Status": "display value", "token": "c-t-ftsts", "id": "token value"}, "Election_Jurisdiction": {"token": "s", "id": "token value", "Election_Jurisdiction": "display value"}, "Election_Type": {"token": "c-r-t", "id": "token value", "Election_Type": "display value"}, "#_of_Records": {"#_of_Records": "display value"}}, "paging": {"totalRecords": "318", "minPage": 0, "recordsThisPage": 18, "pageLink": "p=3", "maxPage": 3, "recordsPerPage": 100, "totalPages": 4, "currentPage": 3}, "grouping": {"availableGrouping": {"d-et": "Type of Contributor (Contributors)", "d-empl": "Employer (Contributors)", "d-amt": "Amount (Advanced)", "d-id": "Record (Contributors)", "d-typ": "Type of Transaction (Advanced)", "f-eid": "Filer (General)", "c-t-i": "Incumbency Data (Advanced)", "d-cci": "General Industry (Contributors)", "d-ccg": "Broad Sector (Contributors)", "d-ccb": "Specific Business (Contributors)", "d-ad-zip": "Zip (Contributors)", "c-t-sts": "Status of Candidate (Candidates)", "d-nme": "Original Name (Advanced)", "c-t-icod": "Incumbency Advantage (Advanced)", "d-ins": "In-Jurisdiction (Contributors)", "d-ad-cty": "City (Contributors)", "d-occupation": "Occupation (Contributors)", "d-search": "DND (Advanced)", "d-ludte": "Last Updated (Advanced)", "d-file": "DND (Advanced)", "d-ad-str": "Street (Advanced)", "d-dte": "Date (Advanced)", "d-ad-st": "State (Contributors)", "f-y": "Filing Year (Advanced)", "f-s": "Filing Jurisdiction (General)", "d-eid": "Contributor (Contributors)", "d-llink": "Lobbying Entity? (Advanced)"}, "currentGrouping": {"c-t-id": "Candidate (General)"}, "groupLink": "gro=c-t-id"}}}