{"records": [{"General_Party": {"General_Party": "Nonpartisan", "token": "c-t-p", "id": "4"}, "Office_Sought": {"Office_Sought": "HOUSE DISTRICT 029", "token": "c-r-osid", "id": "2987"}, "Election_Year": {"token": "y", "id": "2016", "Election_Year": "2016"}, "Candidate": {"token": "c-t-id", "id": "212172", "Candidate": "WHITE, ALBERT"}, "Candidate_Entity": {"token": "c-t-eid", "id": "40622367", "Candidate_Entity": "WHITE, ALBERT"}, "Election_Status": {"Election_Status": "Lost-General", "token": "c-t-ftsts", "id": "Lost-General"}, "Total_$": {"Total_$": "0.00"}, "Incumbency_Status": {"token": "c-t-ico", "Incumbency_Status": "Open", "id": "O"}, "request": "s=LA&y=2015,2016&f-core=1&c-exi=1&c-t-id=212172", "Specific_Party": {"token": "c-t-pt", "Specific_Party": "NONPARTISAN", "id": "101"}, "record_id": 401, "Election_Jurisdiction": {"token": "s", "id": "LA", "Election_Jurisdiction": "LA"}, "Election_Type": {"token": "c-r-t", "id": "3", "Election_Type": "Special"}, "#_of_Records": {"#_of_Records": "0"}}, {"General_Party": {"General_Party": "Democratic", "token": "c-t-p", "id": "1"}, "Office_Sought": {"Office_Sought": "APPELLATE COURT DISTRICT 1ST CIRCUIT 004-DIVISION D", "token": "c-r-osid", "id": "19335"}, "Election_Year": {"token": "y", "id": "2016", "Election_Year": "2016"}, "Candidate": {"token": "c-t-id", "id": "213266", "Candidate": "WHITE, LAURIE"}, "Candidate_Entity": {"token": "c-t-eid", "id": "41316463", "Candidate_Entity": "WHITE, LAURIE"}, "Election_Status": {"Election_Status": "Pending-Primary", "token": "c-t-ftsts", "id": "Pending-Primary"}, "Total_$": {"Total_$": "0.00"}, "Incumbency_Status": {"token": "c-t-ico", "Incumbency_Status": "Open", "id": "O"}, "request": "s=LA&y=2015,2016&f-core=1&c-exi=1&c-t-id=213266", "Specific_Party": {"token": "c-t-pt", "Specific_Party": "DEMOCRATIC", "id": "33"}, "record_id": 402, "Election_Jurisdiction": {"token": "s", "id": "LA", "Election_Jurisdiction": "LA"}, "Election_Type": {"token": "c-r-t", "id": "1", "Election_Type": "Standard"}, "#_of_Records": {"#_of_Records": "0"}}, {"General_Party": {"General_Party": "Republican", "token": "c-t-p", "id": "2"}, "Office_Sought": {"Office_Sought": "SENATE DISTRICT 006", "token": "c-r-osid", "id": "3069"}, "Election_Year": {"token": "y", "id": "2015", "Election_Year": "2015"}, "Candidate": {"token": "c-t-id", "id": "192474", "Candidate": "WHITE, MACK (BODI)"}, "Candidate_Entity": {"token": "c-t-eid", "id": "6627789", "Candidate_Entity": "WHITE, MACK (BODI)"}, "Election_Status": {"Election_Status": "Default Winner-General", "token": "c-t-ftsts", "id": "Default Winner-General"}, "Total_$": {"Total_$": "152875.85"}, "Incumbency_Status": {"token": "c-t-ico", "Incumbency_Status": "Incumbent", "id": "I"}, "request": "s=LA&y=2015,2016&f-core=1&c-exi=1&c-t-id=192474", "Specific_Party": {"token": "c-t-pt", "Specific_Party": "REPUBLICAN", "id": "139"}, "record_id": 403, "Election_Jurisdiction": {"token": "s", "id": "LA", "Election_Jurisdiction": "LA"}, "Election_Type": {"token": "c-r-t", "id": "1", "Election_Type": "Standard"}, "#_of_Records": {"#_of_Records": "281"}}, {"General_Party": {"General_Party": "Democratic", "token": "c-t-p", "id": "1"}, "Office_Sought": {"Office_Sought": "HOUSE DISTRICT 075", "token": "c-r-osid", "id": "3033"}, "Election_Year": {"token": "y", "id": "2015", "Election_Year": "2015"}, "Candidate": {"token": "c-t-id", "id": "192305", "Candidate": "WHITE, MALINDA BRUMFIELD"}, "Candidate_Entity": {"token": "c-t-eid", "id": "32374021", "Candidate_Entity": "WHITE, MALINDA BRUMFIELD"}, "Election_Status": {"Election_Status": "Default Winner-General", "token": "c-t-ftsts", "id": "Default Winner-General"}, "Total_$": {"Total_$": "31226.26"}, "Incumbency_Status": {"token": "c-t-ico", "Incumbency_Status": "Open", "id": "O"}, "request": "s=LA&y=2015,2016&f-core=1&c-exi=1&c-t-id=192305", "Specific_Party": {"token": "c-t-pt", "Specific_Party": "DEMOCRATIC", "id": "33"}, "record_id": 404, "Election_Jurisdiction": {"token": "s", "id": "LA", "Election_Jurisdiction": "LA"}, "Election_Type": {"token": "c-r-t", "id": "1", "Election_Type": "Standard"}, "#_of_Records": {"#_of_Records": "66"}}, {"General_Party": {"General_Party": "Republican", "token": "c-t-p", "id": "2"}, "Office_Sought": {"Office_Sought": "HOUSE DISTRICT 053", "token": "c-r-osid", "id": "3011"}, "Election_Year": {"token": "y", "id": "2015", "Election_Year": "2015"}, "Candidate": {"token": "c-t-id", "id": "192376", "Candidate": "WHITNEY, LENAR L"}, "Candidate_Entity": {"token": "c-t-eid", "id": "6699521", "Candidate_Entity": "WHITNEY, LENAR L"}, "Election_Status": {"Election_Status": "Lost-General", "token": "c-t-ftsts", "id": "Lost-General"}, "Total_$": {"Total_$": "301911.66"}, "Incumbency_Status": {"token": "c-t-ico", "Incumbency_Status": "Incumbent", "id": "I"}, "request": "s=LA&y=2015,2016&f-core=1&c-exi=1&c-t-id=192376", "Specific_Party": {"token": "c-t-pt", "Specific_Party": "REPUBLICAN", "id": "139"}, "record_id": 405, "Election_Jurisdiction": {"token": "s", "id": "LA", "Election_Jurisdiction": "LA"}, "Election_Type": {"token": "c-r-t", "id": "1", "Election_Type": "Standard"}, "#_of_Records": {"#_of_Records": "412"}}, {"General_Party": {"General_Party": "Democratic", "token": "c-t-p", "id": "1"}, "Office_Sought": {"Office_Sought": "HOUSE DISTRICT 026", "token": "c-r-osid", "id": "2984"}, "Election_Year": {"token": "y", "id": "2015", "Election_Year": "2015"}, "Candidate": {"token": "c-t-id", "id": "183532", "Candidate": "WILLIAMS, DANIEL"}, "Candidate_Entity": {"token": "c-t-eid", "id": "29116633", "Candidate_Entity": "WILLIAMS, DANIEL"}, "Election_Status": {"Election_Status": "Lost-Primary", "token": "c-t-ftsts", "id": "Lost-Primary"}, "Total_$": {"Total_$": "0.00"}, "Incumbency_Status": {"token": "c-t-ico", "Incumbency_Status": "Open", "id": "O"}, "request": "s=LA&y=2015,2016&f-core=1&c-exi=1&c-t-id=183532", "Specific_Party": {"token": "c-t-pt", "Specific_Party": "DEMOCRATIC", "id": "33"}, "record_id": 406, "Election_Jurisdiction": {"token": "s", "id": "LA", "Election_Jurisdiction": "LA"}, "Election_Type": {"token": "c-r-t", "id": "3", "Election_Type": "Special"}, "#_of_Records": {"#_of_Records": "0"}}, {"General_Party": {"General_Party": "Democratic", "token": "c-t-p", "id": "1"}, "Office_Sought": {"Office_Sought": "US SENATE DISTRICT LA SW-CLASS III", "token": "c-r-osid", "id": "14942"}, "Election_Year": {"token": "y", "id": "2016", "Election_Year": "2016"}, "Candidate": {"token": "c-t-id", "id": "213335", "Candidate": "WILLIAMS, PETER"}, "Candidate_Entity": {"token": "c-t-eid", "id": "20536461", "Candidate_Entity": "WILLIAMS, PETER"}, "Election_Status": {"Election_Status": "Pending-Primary", "token": "c-t-ftsts", "id": "Pending-Primary"}, "Total_$": {"Total_$": "0.00"}, "Incumbency_Status": {"token": "c-t-ico", "Incumbency_Status": "Open", "id": "O"}, "request": "s=LA&y=2015,2016&f-core=1&c-exi=1&c-t-id=213335", "Specific_Party": {"token": "c-t-pt", "Specific_Party": "DEMOCRATIC", "id": "33"}, "record_id": 407, "Election_Jurisdiction": {"token": "s", "id": "LA", "Election_Jurisdiction": "LA"}, "Election_Type": {"token": "c-r-t", "id": "1", "Election_Type": "Standard"}, "#_of_Records": {"#_of_Records": "0"}}, {"General_Party": {"General_Party": "Republican", "token": "c-t-p", "id": "2"}, "Office_Sought": {"Office_Sought": "HOUSE DISTRICT 092", "token": "c-r-osid", "id": "3050"}, "Election_Year": {"token": "y", "id": "2015", "Election_Year": "2015"}, "Candidate": {"token": "c-t-id", "id": "192407", "Candidate": "WILLMOTT, TOM"}, "Candidate_Entity": {"token": "c-t-eid", "id": "13001129", "Candidate_Entity": "WILLMOTT, TOM"}, "Election_Status": {"Election_Status": "Default Winner-General", "token": "c-t-ftsts", "id": "Default Winner-General"}, "Total_$": {"Total_$": "208676.43"}, "Incumbency_Status": {"token": "c-t-ico", "Incumbency_Status": "Incumbent", "id": "I"}, "request": "s=LA&y=2015,2016&f-core=1&c-exi=1&c-t-id=192407", "Specific_Party": {"token": "c-t-pt", "Specific_Party": "REPUBLICAN", "id": "139"}, "record_id": 408, "Election_Jurisdiction": {"token": "s", "id": "LA", "Election_Jurisdiction": "LA"}, "Election_Type": {"token": "c-r-t", "id": "1", "Election_Type": "Standard"}, "#_of_Records": {"#_of_Records": "248"}}, {"General_Party": {"General_Party": "Republican", "token": "c-t-p", "id": "2"}, "Office_Sought": {"Office_Sought": "HOUSE DISTRICT 020", "token": "c-r-osid", "id": "2978"}, "Election_Year": {"token": "y", "id": "2015", "Election_Year": "2015"}, "Candidate": {"token": "c-t-id", "id": "192227", "Candidate": "WOMACK, CLEVE"}, "Candidate_Entity": {"token": "c-t-eid", "id": "6485034", "Candidate_Entity": "WOMACK, CLEVE"}, "Election_Status": {"Election_Status": "Lost-Top Two Primary", "token": "c-t-ftsts", "id": "Lost-Top Two Primary"}, "Total_$": {"Total_$": "9215.40"}, "Incumbency_Status": {"token": "c-t-ico", "Incumbency_Status": "Challenger", "id": "C"}, "request": "s=LA&y=2015,2016&f-core=1&c-exi=1&c-t-id=192227", "Specific_Party": {"token": "c-t-pt", "Specific_Party": "REPUBLICAN", "id": "139"}, "record_id": 409, "Election_Jurisdiction": {"token": "s", "id": "LA", "Election_Jurisdiction": "LA"}, "Election_Type": {"token": "c-r-t", "id": "1", "Election_Type": "Standard"}, "#_of_Records": {"#_of_Records": "26"}}, {"General_Party": {"General_Party": "Democratic", "token": "c-t-p", "id": "1"}, "Office_Sought": {"Office_Sought": "HOUSE DISTRICT 087", "token": "c-r-osid", "id": "3045"}, "Election_Year": {"token": "y", "id": "2015", "Election_Year": "2015"}, "Candidate": {"token": "c-t-id", "id": "192403", "Candidate": "WOODRUFF, EBONY"}, "Candidate_Entity": {"token": "c-t-eid", "id": "28305805", "Candidate_Entity": "WOODRUFF, EBONY"}, "Election_Status": {"Election_Status": "Lost-Top Two Primary", "token": "c-t-ftsts", "id": "Lost-Top Two Primary"}, "Total_$": {"Total_$": "79328.99"}, "Incumbency_Status": {"token": "c-t-ico", "Incumbency_Status": "Incumbent", "id": "I"}, "request": "s=LA&y=2015,2016&f-core=1&c-exi=1&c-t-id=192403", "Specific_Party": {"token": "c-t-pt", "Specific_Party": "DEMOCRATIC", "id": "33"}, "record_id": 410, "Election_Jurisdiction": {"token": "s", "id": "LA", "Election_Jurisdiction": "LA"}, "Election_Type": {"token": "c-r-t", "id": "1", "Election_Type": "Standard"}, "#_of_Records": {"#_of_Records": "167"}}, {"General_Party": {"General_Party": "Nonpartisan", "token": "c-t-p", "id": "4"}, "Office_Sought": {"Office_Sought": "HOUSE DISTRICT 029", "token": "c-r-osid", "id": "2987"}, "Election_Year": {"token": "y", "id": "2016", "Election_Year": "2016"}, "Candidate": {"token": "c-t-id", "id": "212170", "Candidate": "WOODS JR, VICTOR"}, "Candidate_Entity": {"token": "c-t-eid", "id": "40622365", "Candidate_Entity": "WOODS JR, VICTOR"}, "Election_Status": {"Election_Status": "Lost-General", "token": "c-t-ftsts", "id": "Lost-General"}, "Total_$": {"Total_$": "0.00"}, "Incumbency_Status": {"token": "c-t-ico", "Incumbency_Status": "Open", "id": "O"}, "request": "s=LA&y=2015,2016&f-core=1&c-exi=1&c-t-id=212170", "Specific_Party": {"token": "c-t-pt", "Specific_Party": "NONPARTISAN", "id": "101"}, "record_id": 411, "Election_Jurisdiction": {"token": "s", "id": "LA", "Election_Jurisdiction": "LA"}, "Election_Type": {"token": "c-r-t", "id": "3", "Election_Type": "Special"}, "#_of_Records": {"#_of_Records": "0"}}, {"General_Party": {"General_Party": "Democratic", "token": "c-t-p", "id": "1"}, "Office_Sought": {"Office_Sought": "HOUSE DISTRICT 031", "token": "c-r-osid", "id": "2989"}, "Election_Year": {"token": "y", "id": "2015", "Election_Year": "2015"}, "Candidate": {"token": "c-t-id", "id": "192237", "Candidate": "WRIGHT, EVAN H"}, "Candidate_Entity": {"token": "c-t-eid", "id": "32373962", "Candidate_Entity": "WRIGHT, EVAN H"}, "Election_Status": {"Election_Status": "Lost-Top Two Primary", "token": "c-t-ftsts", "id": "Lost-Top Two Primary"}, "Total_$": {"Total_$": "1400.00"}, "Incumbency_Status": {"token": "c-t-ico", "Incumbency_Status": "Challenger", "id": "C"}, "request": "s=LA&y=2015,2016&f-core=1&c-exi=1&c-t-id=192237", "Specific_Party": {"token": "c-t-pt", "Specific_Party": "DEMOCRATIC", "id": "33"}, "record_id": 412, "Election_Jurisdiction": {"token": "s", "id": "LA", "Election_Jurisdiction": "LA"}, "Election_Type": {"token": "c-r-t", "id": "1", "Election_Type": "Standard"}, "#_of_Records": {"#_of_Records": "1"}}, {"General_Party": {"General_Party": "Third-Party", "token": "c-t-p", "id": "3"}, "Office_Sought": {"Office_Sought": "US HOUSE DISTRICT LA 001", "token": "c-r-osid", "id": "15148"}, "Election_Year": {"token": "y", "id": "2016", "Election_Year": "2016"}, "Candidate": {"token": "c-t-id", "id": "213279", "Candidate": "YANG, CHUEMAI"}, "Candidate_Entity": {"token": "c-t-eid", "id": "41316472", "Candidate_Entity": "YANG, CHUEMAI"}, "Election_Status": {"Election_Status": "Pending-Primary", "token": "c-t-ftsts", "id": "Pending-Primary"}, "Total_$": {"Total_$": "0.00"}, "Incumbency_Status": {"token": "c-t-ico", "Incumbency_Status": "Open", "id": "O"}, "request": "s=LA&y=2015,2016&f-core=1&c-exi=1&c-t-id=213279", "Specific_Party": {"token": "c-t-pt", "Specific_Party": "NO PARTY AFFILIATION", "id": "179"}, "record_id": 413, "Election_Jurisdiction": {"token": "s", "id": "LA", "Election_Jurisdiction": "LA"}, "Election_Type": {"token": "c-r-t", "id": "1", "Election_Type": "Standard"}, "#_of_Records": {"#_of_Records": "0"}}, {"General_Party": {"General_Party": "Republican", "token": "c-t-p", "id": "2"}, "Office_Sought": {"Office_Sought": "LIEUTENANT GOVERNOR", "token": "c-r-osid", "id": "9021"}, "Election_Year": {"token": "y", "id": "2015", "Election_Year": "2015"}, "Candidate": {"token": "c-t-id", "id": "192425", "Candidate": "YOUNG, JOHN"}, "Candidate_Entity": {"token": "c-t-eid", "id": "32374100", "Candidate_Entity": "YOUNG, JOHN"}, "Election_Status": {"Election_Status": "Lost-Top Two Primary", "token": "c-t-ftsts", "id": "Lost-Top Two Primary"}, "Total_$": {"Total_$": "1818057.40"}, "Incumbency_Status": {"token": "c-t-ico", "Incumbency_Status": "Open", "id": "O"}, "request": "s=LA&y=2015,2016&f-core=1&c-exi=1&c-t-id=192425", "Specific_Party": {"token": "c-t-pt", "Specific_Party": "REPUBLICAN", "id": "139"}, "record_id": 414, "Election_Jurisdiction": {"token": "s", "id": "LA", "Election_Jurisdiction": "LA"}, "Election_Type": {"token": "c-r-t", "id": "1", "Election_Type": "Standard"}, "#_of_Records": {"#_of_Records": "1688"}}, {"General_Party": {"General_Party": "Republican", "token": "c-t-p", "id": "2"}, "Office_Sought": {"Office_Sought": "HOUSE DISTRICT 052", "token": "c-r-osid", "id": "3010"}, "Election_Year": {"token": "y", "id": "2015", "Election_Year": "2015"}, "Candidate": {"token": "c-t-id", "id": "192267", "Candidate": "ZERINGUE, JEROME (ZEE)"}, "Candidate_Entity": {"token": "c-t-eid", "id": "32373985", "Candidate_Entity": "ZERINGUE, JEROME (ZEE)"}, "Election_Status": {"Election_Status": "Default Winner-General", "token": "c-t-ftsts", "id": "Default Winner-General"}, "Total_$": {"Total_$": "147829.15"}, "Incumbency_Status": {"token": "c-t-ico", "Incumbency_Status": "Open", "id": "O"}, "request": "s=LA&y=2015,2016&f-core=1&c-exi=1&c-t-id=192267", "Specific_Party": {"token": "c-t-pt", "Specific_Party": "REPUBLICAN", "id": "139"}, "record_id": 415, "Election_Jurisdiction": {"token": "s", "id": "LA", "Election_Jurisdiction": "LA"}, "Election_Type": {"token": "c-r-t", "id": "1", "Election_Type": "Standard"}, "#_of_Records": {"#_of_Records": "226"}}], "metaInfo": {"sorting": {"currentSorting": {"c-t-id": "Candidate"}, "sortLink": "so=c-t-id&sod=0", "availableSorting": {"c-r-osid": "Office_Sought", "u-tot": "Total_$", "c-t-pt": "Specific_Party", "c-t-ftsts": "Election_Status", "s": "Election_Jurisdiction", "c-r-t": "Election_Type", "y": "Election_Year", "c-t-p": "General_Party", "c-t-ico": "Incumbency_Status", "u-rec": "#_of_Records"}, "sortingDirection": "descending"}, "completeness": {"allReports": "7192", "completeReports": "6814", "availableReports": "7083", "lastUpdated": "2016-07-29 10:47:54", "incompleteAvailable": "269", "mostRecentReportDate": "2016-02-16"}, "format": "json", "recordFormat": {"General_Party": {"General_Party": "display value", "token": "c-t-p", "id": "token value"}, "Office_Sought": {"Office_Sought": "display value", "token": "c-r-osid", "id": "token value"}, "Election_Year": {"token": "y", "id": "token value", "Election_Year": "display value"}, "Candidate": {"token": "c-t-id", "id": "token value", "Candidate": "display value"}, "Candidate_Entity": {"token": "c-t-eid", "id": "token value", "Candidate_Entity": "display value"}, "Total_$": {"Total_$": "display value"}, "Incumbency_Status": {"token": "c-t-ico", "Incumbency_Status": "display value", "id": "token value"}, "request": "s=LA&y=2015,2016&f-core=1&c-exi=1", "Specific_Party": {"token": "c-t-pt", "Specific_Party": "display value", "id": "token value"}, "Election_Status": {"Election_Status": "display value", "token": "c-t-ftsts", "id": "token value"}, "Election_Jurisdiction": {"token": "s", "id": "token value", "Election_Jurisdiction": "display value"}, "Election_Type": {"token": "c-r-t", "id": "token value", "Election_Type": "display value"}, "#_of_Records": {"#_of_Records": "display value"}}, "paging": {"totalRecords": "415", "minPage": 0, "recordsThisPage": 15, "pageLink": "p=4", "maxPage": 4, "recordsPerPage": 100, "totalPages": 5, "currentPage": 4}, "grouping": {"availableGrouping": {"d-et": "Type of Contributor (Contributors)", "d-empl": "Employer (Contributors)", "d-amt": "Amount (Advanced)", "d-id": "Record (Contributors)", "d-typ": "Type of Transaction (Advanced)", "f-eid": "Filer (General)", "c-t-i": "Incumbency Data (Advanced)", "d-cci": "General Industry (Contributors)", "d-ccg": "Broad Sector (Contributors)", "d-ccb": "Specific Business (Contributors)", "d-ad-zip": "Zip (Contributors)", "c-t-sts": "Status of Candidate (Candidates)", "d-nme": "Original Name (Advanced)", "c-t-icod": "Incumbency Advantage (Advanced)", "d-ins": "In-Jurisdiction (Contributors)", "d-ad-cty": "City (Contributors)", "d-occupation": "Occupation (Contributors)", "d-search": "DND (Advanced)", "d-ludte": "Last Updated (Advanced)", "d-file": "DND (Advanced)", "d-ad-str": "Street (Advanced)", "d-dte": "Date (Advanced)", "d-ad-st": "State (Contributors)", "f-y": "Filing Year (Advanced)", "f-s": "Filing Jurisdiction (General)", "d-eid": "Contributor (Contributors)", "d-llink": "Lobbying Entity? (Advanced)"}, "currentGrouping": {"c-t-id": "Candidate (General)"}, "groupLink": "gro=c-t-id"}}}