{"records": [{"General_Party": {"General_Party": "Democratic", "token": "c-t-p", "id": "1"}, "Office_Sought": {"Office_Sought": "US HOUSE DISTRICT MD 005", "token": "c-r-osid", "id": "15167"}, "Election_Year": {"token": "y", "id": "2016", "Election_Year": "2016"}, "Candidate": {"token": "c-t-id", "id": "196851", "Candidate": "WILSON, DEBBIE F"}, "Candidate_Entity": {"token": "c-t-eid", "id": "38601895", "Candidate_Entity": "WILSON, DEBBIE F"}, "Election_Status": {"Election_Status": "Lost-Primary", "token": "c-t-ftsts", "id": "Lost-Primary"}, "Total_$": {"Total_$": "0.00"}, "Incumbency_Status": {"token": "c-t-ico", "Incumbency_Status": "Challenger", "id": "C"}, "request": "s=MD&y=2015,2016&f-core=1&c-exi=1&c-t-id=196851", "Specific_Party": {"token": "c-t-pt", "Specific_Party": "DEMOCRATIC", "id": "33"}, "record_id": 101, "Election_Jurisdiction": {"token": "s", "id": "MD", "Election_Jurisdiction": "MD"}, "Election_Type": {"token": "c-r-t", "id": "1", "Election_Type": "Standard"}, "#_of_Records": {"#_of_Records": "0"}}, {"General_Party": {"General_Party": "Nonpartisan", "token": "c-t-p", "id": "4"}, "Office_Sought": {"Office_Sought": "APPELLATE COURT DISTRICT AT LARGE-WOODWARD SEAT", "token": "c-r-osid", "id": "19302"}, "Election_Year": {"token": "y", "id": "2016", "Election_Year": "2016"}, "Candidate": {"token": "c-t-id", "id": "203172", "Candidate": "WOODWARD, PATRICK L"}, "Candidate_Entity": {"token": "c-t-eid", "id": "39714040", "Candidate_Entity": "WOODWARD, PATRICK L"}, "Election_Status": {"Election_Status": "Pending-Retention", "token": "c-t-ftsts", "id": "Pending-Retention"}, "Total_$": {"Total_$": "0.00"}, "Incumbency_Status": {"token": "c-t-ico", "Incumbency_Status": "Incumbent", "id": "I"}, "request": "s=MD&y=2015,2016&f-core=1&c-exi=1&c-t-id=203172", "Specific_Party": {"token": "c-t-pt", "Specific_Party": "NONPARTISAN", "id": "101"}, "record_id": 102, "Election_Jurisdiction": {"token": "s", "id": "MD", "Election_Jurisdiction": "MD"}, "Election_Type": {"token": "c-r-t", "id": "1", "Election_Type": "Standard"}, "#_of_Records": {"#_of_Records": "0"}}, {"General_Party": {"General_Party": "Third-Party", "token": "c-t-p", "id": "3"}, "Office_Sought": {"Office_Sought": "US HOUSE DISTRICT MD 008", "token": "c-r-osid", "id": "15170"}, "Election_Year": {"token": "y", "id": "2016", "Election_Year": "2016"}, "Candidate": {"token": "c-t-id", "id": "196891", "Candidate": "WUNDER, JASEN"}, "Candidate_Entity": {"token": "c-t-eid", "id": "38601916", "Candidate_Entity": "WUNDER, JASEN"}, "Election_Status": {"Election_Status": "Pending-General", "token": "c-t-ftsts", "id": "Pending-General"}, "Total_$": {"Total_$": "0.00"}, "Incumbency_Status": {"token": "c-t-ico", "Incumbency_Status": "Open", "id": "O"}, "request": "s=MD&y=2015,2016&f-core=1&c-exi=1&c-t-id=196891", "Specific_Party": {"token": "c-t-pt", "Specific_Party": "LIBERTARIAN", "id": "73"}, "record_id": 103, "Election_Jurisdiction": {"token": "s", "id": "MD", "Election_Jurisdiction": "MD"}, "Election_Type": {"token": "c-r-t", "id": "1", "Election_Type": "Standard"}, "#_of_Records": {"#_of_Records": "0"}}, {"General_Party": {"General_Party": "Republican", "token": "c-t-p", "id": "2"}, "Office_Sought": {"Office_Sought": "US SENATE DISTRICT MD SW-CLASS III", "token": "c-r-osid", "id": "14944"}, "Election_Year": {"token": "y", "id": "2016", "Election_Year": "2016"}, "Candidate": {"token": "c-t-id", "id": "196909", "Candidate": "YARRINGTON, GARRY THOMAS"}, "Candidate_Entity": {"token": "c-t-eid", "id": "38601929", "Candidate_Entity": "YARRINGTON, GARRY THOMAS"}, "Election_Status": {"Election_Status": "Lost-Primary", "token": "c-t-ftsts", "id": "Lost-Primary"}, "Total_$": {"Total_$": "0.00"}, "Incumbency_Status": {"token": "c-t-ico", "Incumbency_Status": "Open", "id": "O"}, "request": "s=MD&y=2015,2016&f-core=1&c-exi=1&c-t-id=196909", "Specific_Party": {"token": "c-t-pt", "Specific_Party": "REPUBLICAN", "id": "139"}, "record_id": 104, "Election_Jurisdiction": {"token": "s", "id": "MD", "Election_Jurisdiction": "MD"}, "Election_Type": {"token": "c-r-t", "id": "1", "Election_Type": "Standard"}, "#_of_Records": {"#_of_Records": "0"}}, {"General_Party": {"General_Party": "Third-Party", "token": "c-t-p", "id": "3"}, "Office_Sought": {"Office_Sought": "US SENATE DISTRICT MD SW-CLASS III", "token": "c-r-osid", "id": "14944"}, "Election_Year": {"token": "y", "id": "2016", "Election_Year": "2016"}, "Candidate": {"token": "c-t-id", "id": "196898", "Candidate": "YOUNG, KAY"}, "Candidate_Entity": {"token": "c-t-eid", "id": "38601921", "Candidate_Entity": "YOUNG, KAY"}, "Election_Status": {"Election_Status": "Pending-General", "token": "c-t-ftsts", "id": "Pending-General"}, "Total_$": {"Total_$": "0.00"}, "Incumbency_Status": {"token": "c-t-ico", "Incumbency_Status": "Open", "id": "O"}, "request": "s=MD&y=2015,2016&f-core=1&c-exi=1&c-t-id=196898", "Specific_Party": {"token": "c-t-pt", "Specific_Party": "UNAFFILIATED", "id": "156"}, "record_id": 105, "Election_Jurisdiction": {"token": "s", "id": "MD", "Election_Jurisdiction": "MD"}, "Election_Type": {"token": "c-r-t", "id": "1", "Election_Type": "Standard"}, "#_of_Records": {"#_of_Records": "0"}}, {"General_Party": {"General_Party": "Democratic", "token": "c-t-p", "id": "1"}, "Office_Sought": {"Office_Sought": "US SENATE DISTRICT MD SW-CLASS III", "token": "c-r-osid", "id": "14944"}, "Election_Year": {"token": "y", "id": "2016", "Election_Year": "2016"}, "Candidate": {"token": "c-t-id", "id": "196901", "Candidate": "YOUNG, LIH"}, "Candidate_Entity": {"token": "c-t-eid", "id": "5607010", "Candidate_Entity": "YOUNG, LIH"}, "Election_Status": {"Election_Status": "Lost-Primary", "token": "c-t-ftsts", "id": "Lost-Primary"}, "Total_$": {"Total_$": "0.00"}, "Incumbency_Status": {"token": "c-t-ico", "Incumbency_Status": "Open", "id": "O"}, "request": "s=MD&y=2015,2016&f-core=1&c-exi=1&c-t-id=196901", "Specific_Party": {"token": "c-t-pt", "Specific_Party": "DEMOCRATIC", "id": "33"}, "record_id": 106, "Election_Jurisdiction": {"token": "s", "id": "MD", "Election_Jurisdiction": "MD"}, "Election_Type": {"token": "c-r-t", "id": "1", "Election_Type": "Standard"}, "#_of_Records": {"#_of_Records": "0"}}], "metaInfo": {"sorting": {"currentSorting": {"c-t-id": "Candidate"}, "sortLink": "so=c-t-id&sod=0", "availableSorting": {"c-r-osid": "Office_Sought", "u-tot": "Total_$", "c-t-pt": "Specific_Party", "c-t-ftsts": "Election_Status", "s": "Election_Jurisdiction", "c-r-t": "Election_Type", "y": "Election_Year", "c-t-p": "General_Party", "c-t-ico": "Incumbency_Status", "u-rec": "#_of_Records"}, "sortingDirection": "descending"}, "completeness": {"allReports": "1354", "completeReports": "686", "availableReports": "1064", "lastUpdated": "2016-08-02 18:01:36", "incompleteAvailable": "378", "mostRecentReportDate": "2016-04-15"}, "format": "json", "recordFormat": {"General_Party": {"General_Party": "display value", "token": "c-t-p", "id": "token value"}, "Office_Sought": {"Office_Sought": "display value", "token": "c-r-osid", "id": "token value"}, "Election_Year": {"token": "y", "id": "token value", "Election_Year": "display value"}, "Candidate": {"token": "c-t-id", "id": "token value", "Candidate": "display value"}, "Candidate_Entity": {"token": "c-t-eid", "id": "token value", "Candidate_Entity": "display value"}, "Total_$": {"Total_$": "display value"}, "Incumbency_Status": {"token": "c-t-ico", "Incumbency_Status": "display value", "id": "token value"}, "request": "s=MD&y=2015,2016&f-core=1&c-exi=1", "Specific_Party": {"token": "c-t-pt", "Specific_Party": "display value", "id": "token value"}, "Election_Status": {"Election_Status": "display value", "token": "c-t-ftsts", "id": "token value"}, "Election_Jurisdiction": {"token": "s", "id": "token value", "Election_Jurisdiction": "display value"}, "Election_Type": {"token": "c-r-t", "id": "token value", "Election_Type": "display value"}, "#_of_Records": {"#_of_Records": "display value"}}, "paging": {"totalRecords": "106", "minPage": 0, "recordsThisPage": 6, "pageLink": "p=1", "maxPage": 1, "recordsPerPage": 100, "totalPages": 2, "currentPage": 1}, "grouping": {"availableGrouping": {"d-et": "Type of Contributor (Contributors)", "d-empl": "Employer (Contributors)", "d-amt": "Amount (Advanced)", "d-id": "Record (Contributors)", "d-typ": "Type of Transaction (Advanced)", "f-eid": "Filer (General)", "c-t-i": "Incumbency Data (Advanced)", "d-cci": "General Industry (Contributors)", "d-ccg": "Broad Sector (Contributors)", "d-ccb": "Specific Business (Contributors)", "d-ad-zip": "Zip (Contributors)", "c-t-sts": "Status of Candidate (Candidates)", "d-nme": "Original Name (Advanced)", "c-t-icod": "Incumbency Advantage (Advanced)", "d-ins": "In-Jurisdiction (Contributors)", "d-ad-cty": "City (Contributors)", "d-occupation": "Occupation (Contributors)", "d-search": "DND (Advanced)", "d-ludte": "Last Updated (Advanced)", "d-file": "DND (Advanced)", "d-ad-str": "Street (Advanced)", "d-dte": "Date (Advanced)", "d-ad-st": "State (Contributors)", "f-y": "Filing Year (Advanced)", "f-s": "Filing Jurisdiction (General)", "d-eid": "Contributor (Contributors)", "d-llink": "Lobbying Entity? (Advanced)"}, "currentGrouping": {"c-t-id": "Candidate (General)"}, "groupLink": "gro=c-t-id"}}}