{"records": [{"General_Party": {"General_Party": "Republican", "token": "c-t-p", "id": "2"}, "Office_Sought": {"Office_Sought": "HOUSE DISTRICT 085", "token": "c-r-osid", "id": "3603"}, "Election_Year": {"token": "y", "id": "2016", "Election_Year": "2016"}, "Candidate": {"token": "c-t-id", "id": "203565", "Candidate": "VOSE, COREY A"}, "Candidate_Entity": {"token": "c-t-eid", "id": "39714374", "Candidate_Entity": "VOSE, COREY A"}, "Election_Status": {"Election_Status": "Won-Primary", "token": "c-t-ftsts", "id": "Won-Primary"}, "Total_$": {"Total_$": "0.00"}, "Incumbency_Status": {"token": "c-t-ico", "Incumbency_Status": "Open", "id": "O"}, "request": "s=ME&y=2015,2016&f-core=1&c-exi=1&c-t-id=203565", "Specific_Party": {"token": "c-t-pt", "Specific_Party": "REPUBLICAN", "id": "139"}, "record_id": 401, "Election_Jurisdiction": {"token": "s", "id": "ME", "Election_Jurisdiction": "ME"}, "Election_Type": {"token": "c-r-t", "id": "1", "Election_Type": "Standard"}, "#_of_Records": {"#_of_Records": "0"}}, {"General_Party": {"General_Party": "Republican", "token": "c-t-p", "id": "2"}, "Office_Sought": {"Office_Sought": "HOUSE DISTRICT 070", "token": "c-r-osid", "id": "3588"}, "Election_Year": {"token": "y", "id": "2016", "Election_Year": "2016"}, "Candidate": {"token": "c-t-id", "id": "203566", "Candidate": "WADSWORTH, NATHAN J"}, "Candidate_Entity": {"token": "c-t-eid", "id": "23424396", "Candidate_Entity": "WADSWORTH, NATHAN J"}, "Election_Status": {"Election_Status": "Won-Primary", "token": "c-t-ftsts", "id": "Won-Primary"}, "Total_$": {"Total_$": "0.00"}, "Incumbency_Status": {"token": "c-t-ico", "Incumbency_Status": "Incumbent", "id": "I"}, "request": "s=ME&y=2015,2016&f-core=1&c-exi=1&c-t-id=203566", "Specific_Party": {"token": "c-t-pt", "Specific_Party": "REPUBLICAN", "id": "139"}, "record_id": 402, "Election_Jurisdiction": {"token": "s", "id": "ME", "Election_Jurisdiction": "ME"}, "Election_Type": {"token": "c-r-t", "id": "1", "Election_Type": "Standard"}, "#_of_Records": {"#_of_Records": "0"}}, {"General_Party": {"General_Party": "Third-Party", "token": "c-t-p", "id": "3"}, "Office_Sought": {"Office_Sought": "HOUSE DISTRICT 023", "token": "c-r-osid", "id": "3541"}, "Election_Year": {"token": "y", "id": "2015", "Election_Year": "2015"}, "Candidate": {"token": "c-t-id", "id": "192829", "Candidate": "WAKEFIELD, MICHAEL W"}, "Candidate_Entity": {"token": "c-t-eid", "id": "6526817", "Candidate_Entity": "WAKEFIELD, MICHAEL W"}, "Election_Status": {"Election_Status": "Lost-General", "token": "c-t-ftsts", "id": "Lost-General"}, "Total_$": {"Total_$": "0.00"}, "Incumbency_Status": {"token": "c-t-ico", "Incumbency_Status": "Open", "id": "O"}, "request": "s=ME&y=2015,2016&f-core=1&c-exi=1&c-t-id=192829", "Specific_Party": {"token": "c-t-pt", "Specific_Party": "GREEN INDEPENDENT", "id": "52"}, "record_id": 403, "Election_Jurisdiction": {"token": "s", "id": "ME", "Election_Jurisdiction": "ME"}, "Election_Type": {"token": "c-r-t", "id": "3", "Election_Type": "Special"}, "#_of_Records": {"#_of_Records": "0"}}, {"General_Party": {"General_Party": "Republican", "token": "c-t-p", "id": "2"}, "Office_Sought": {"Office_Sought": "HOUSE DISTRICT 104", "token": "c-r-osid", "id": "3622"}, "Election_Year": {"token": "y", "id": "2016", "Election_Year": "2016"}, "Candidate": {"token": "c-t-id", "id": "203567", "Candidate": "WALLACE, RAYMOND A"}, "Candidate_Entity": {"token": "c-t-eid", "id": "6699341", "Candidate_Entity": "WALLACE, RAYMOND A"}, "Election_Status": {"Election_Status": "Won-Primary", "token": "c-t-ftsts", "id": "Won-Primary"}, "Total_$": {"Total_$": "0.00"}, "Incumbency_Status": {"token": "c-t-ico", "Incumbency_Status": "Incumbent", "id": "I"}, "request": "s=ME&y=2015,2016&f-core=1&c-exi=1&c-t-id=203567", "Specific_Party": {"token": "c-t-pt", "Specific_Party": "REPUBLICAN", "id": "139"}, "record_id": 404, "Election_Jurisdiction": {"token": "s", "id": "ME", "Election_Jurisdiction": "ME"}, "Election_Type": {"token": "c-r-t", "id": "1", "Election_Type": "Standard"}, "#_of_Records": {"#_of_Records": "0"}}, {"General_Party": {"General_Party": "Republican", "token": "c-t-p", "id": "2"}, "Office_Sought": {"Office_Sought": "HOUSE DISTRICT 131", "token": "c-r-osid", "id": "3649"}, "Election_Year": {"token": "y", "id": "2016", "Election_Year": "2016"}, "Candidate": {"token": "c-t-id", "id": "203568", "Candidate": "WARD JR, KARLETON S"}, "Candidate_Entity": {"token": "c-t-eid", "id": "9962644", "Candidate_Entity": "WARD JR, KARLETON S"}, "Election_Status": {"Election_Status": "Won-Primary", "token": "c-t-ftsts", "id": "Won-Primary"}, "Total_$": {"Total_$": "0.00"}, "Incumbency_Status": {"token": "c-t-ico", "Incumbency_Status": "Incumbent", "id": "I"}, "request": "s=ME&y=2015,2016&f-core=1&c-exi=1&c-t-id=203568", "Specific_Party": {"token": "c-t-pt", "Specific_Party": "REPUBLICAN", "id": "139"}, "record_id": 405, "Election_Jurisdiction": {"token": "s", "id": "ME", "Election_Jurisdiction": "ME"}, "Election_Type": {"token": "c-r-t", "id": "1", "Election_Type": "Standard"}, "#_of_Records": {"#_of_Records": "0"}}, {"General_Party": {"General_Party": "Democratic", "token": "c-t-p", "id": "1"}, "Office_Sought": {"Office_Sought": "HOUSE DISTRICT 084", "token": "c-r-osid", "id": "3602"}, "Election_Year": {"token": "y", "id": "2016", "Election_Year": "2016"}, "Candidate": {"token": "c-t-id", "id": "203569", "Candidate": "WARREN, CHARLOTTE MAY"}, "Candidate_Entity": {"token": "c-t-eid", "id": "23424275", "Candidate_Entity": "WARREN, CHARLOTTE MAY"}, "Election_Status": {"Election_Status": "Won-Primary", "token": "c-t-ftsts", "id": "Won-Primary"}, "Total_$": {"Total_$": "0.00"}, "Incumbency_Status": {"token": "c-t-ico", "Incumbency_Status": "Incumbent", "id": "I"}, "request": "s=ME&y=2015,2016&f-core=1&c-exi=1&c-t-id=203569", "Specific_Party": {"token": "c-t-pt", "Specific_Party": "DEMOCRATIC", "id": "33"}, "record_id": 406, "Election_Jurisdiction": {"token": "s", "id": "ME", "Election_Jurisdiction": "ME"}, "Election_Type": {"token": "c-r-t", "id": "1", "Election_Type": "Standard"}, "#_of_Records": {"#_of_Records": "0"}}, {"General_Party": {"General_Party": "Republican", "token": "c-t-p", "id": "2"}, "Office_Sought": {"Office_Sought": "HOUSE DISTRICT 052", "token": "c-r-osid", "id": "3570"}, "Election_Year": {"token": "y", "id": "2016", "Election_Year": "2016"}, "Candidate": {"token": "c-t-id", "id": "203570", "Candidate": "WEIDNER, BIL"}, "Candidate_Entity": {"token": "c-t-eid", "id": "39714377", "Candidate_Entity": "WEIDNER, BIL"}, "Election_Status": {"Election_Status": "Won-Primary", "token": "c-t-ftsts", "id": "Won-Primary"}, "Total_$": {"Total_$": "0.00"}, "Incumbency_Status": {"token": "c-t-ico", "Incumbency_Status": "Open", "id": "O"}, "request": "s=ME&y=2015,2016&f-core=1&c-exi=1&c-t-id=203570", "Specific_Party": {"token": "c-t-pt", "Specific_Party": "REPUBLICAN", "id": "139"}, "record_id": 407, "Election_Jurisdiction": {"token": "s", "id": "ME", "Election_Jurisdiction": "ME"}, "Election_Type": {"token": "c-r-t", "id": "1", "Election_Type": "Standard"}, "#_of_Records": {"#_of_Records": "0"}}, {"General_Party": {"General_Party": "Republican", "token": "c-t-p", "id": "2"}, "Office_Sought": {"Office_Sought": "SENATE DISTRICT 021", "token": "c-r-osid", "id": "3690"}, "Election_Year": {"token": "y", "id": "2016", "Election_Year": "2016"}, "Candidate": {"token": "c-t-id", "id": "203571", "Candidate": "WELCH, WILLIAM E"}, "Candidate_Entity": {"token": "c-t-eid", "id": "39714378", "Candidate_Entity": "WELCH, WILLIAM E"}, "Election_Status": {"Election_Status": "Won-Primary", "token": "c-t-ftsts", "id": "Won-Primary"}, "Total_$": {"Total_$": "0.00"}, "Incumbency_Status": {"token": "c-t-ico", "Incumbency_Status": "Open", "id": "O"}, "request": "s=ME&y=2015,2016&f-core=1&c-exi=1&c-t-id=203571", "Specific_Party": {"token": "c-t-pt", "Specific_Party": "REPUBLICAN", "id": "139"}, "record_id": 408, "Election_Jurisdiction": {"token": "s", "id": "ME", "Election_Jurisdiction": "ME"}, "Election_Type": {"token": "c-r-t", "id": "1", "Election_Type": "Standard"}, "#_of_Records": {"#_of_Records": "0"}}, {"General_Party": {"General_Party": "Republican", "token": "c-t-p", "id": "2"}, "Office_Sought": {"Office_Sought": "HOUSE DISTRICT 146", "token": "c-r-osid", "id": "3664"}, "Election_Year": {"token": "y", "id": "2016", "Election_Year": "2016"}, "Candidate": {"token": "c-t-id", "id": "203572", "Candidate": "WHITE, DUSTIN MICHAEL"}, "Candidate_Entity": {"token": "c-t-eid", "id": "26783619", "Candidate_Entity": "WHITE, DUSTIN MICHAEL"}, "Election_Status": {"Election_Status": "Won-Primary", "token": "c-t-ftsts", "id": "Won-Primary"}, "Total_$": {"Total_$": "0.00"}, "Incumbency_Status": {"token": "c-t-ico", "Incumbency_Status": "Incumbent", "id": "I"}, "request": "s=ME&y=2015,2016&f-core=1&c-exi=1&c-t-id=203572", "Specific_Party": {"token": "c-t-pt", "Specific_Party": "REPUBLICAN", "id": "139"}, "record_id": 409, "Election_Jurisdiction": {"token": "s", "id": "ME", "Election_Jurisdiction": "ME"}, "Election_Type": {"token": "c-r-t", "id": "1", "Election_Type": "Standard"}, "#_of_Records": {"#_of_Records": "0"}}, {"General_Party": {"General_Party": "Republican", "token": "c-t-p", "id": "2"}, "Office_Sought": {"Office_Sought": "SENATE DISTRICT 003", "token": "c-r-osid", "id": "3672"}, "Election_Year": {"token": "y", "id": "2016", "Election_Year": "2016"}, "Candidate": {"token": "c-t-id", "id": "203573", "Candidate": "WHITTEMORE, RODNEY L"}, "Candidate_Entity": {"token": "c-t-eid", "id": "6683731", "Candidate_Entity": "WHITTEMORE, RODNEY L"}, "Election_Status": {"Election_Status": "Won-Primary", "token": "c-t-ftsts", "id": "Won-Primary"}, "Total_$": {"Total_$": "0.00"}, "Incumbency_Status": {"token": "c-t-ico", "Incumbency_Status": "Incumbent", "id": "I"}, "request": "s=ME&y=2015,2016&f-core=1&c-exi=1&c-t-id=203573", "Specific_Party": {"token": "c-t-pt", "Specific_Party": "REPUBLICAN", "id": "139"}, "record_id": 410, "Election_Jurisdiction": {"token": "s", "id": "ME", "Election_Jurisdiction": "ME"}, "Election_Type": {"token": "c-r-t", "id": "1", "Election_Type": "Standard"}, "#_of_Records": {"#_of_Records": "0"}}, {"General_Party": {"General_Party": "Republican", "token": "c-t-p", "id": "2"}, "Office_Sought": {"Office_Sought": "SENATE DISTRICT 009", "token": "c-r-osid", "id": "3678"}, "Election_Year": {"token": "y", "id": "2016", "Election_Year": "2016"}, "Candidate": {"token": "c-t-id", "id": "203574", "Candidate": "WILLEY JR, N LAURENCE"}, "Candidate_Entity": {"token": "c-t-eid", "id": "39714380", "Candidate_Entity": "WILLEY JR, N LAURENCE"}, "Election_Status": {"Election_Status": "Won-Primary", "token": "c-t-ftsts", "id": "Won-Primary"}, "Total_$": {"Total_$": "0.00"}, "Incumbency_Status": {"token": "c-t-ico", "Incumbency_Status": "Open", "id": "O"}, "request": "s=ME&y=2015,2016&f-core=1&c-exi=1&c-t-id=203574", "Specific_Party": {"token": "c-t-pt", "Specific_Party": "REPUBLICAN", "id": "139"}, "record_id": 411, "Election_Jurisdiction": {"token": "s", "id": "ME", "Election_Jurisdiction": "ME"}, "Election_Type": {"token": "c-r-t", "id": "1", "Election_Type": "Standard"}, "#_of_Records": {"#_of_Records": "0"}}, {"General_Party": {"General_Party": "Republican", "token": "c-t-p", "id": "2"}, "Office_Sought": {"Office_Sought": "HOUSE DISTRICT 091", "token": "c-r-osid", "id": "3609"}, "Election_Year": {"token": "y", "id": "2016", "Election_Year": "2016"}, "Candidate": {"token": "c-t-id", "id": "203575", "Candidate": "WILLIAMS, MELVIN J"}, "Candidate_Entity": {"token": "c-t-eid", "id": "39714381", "Candidate_Entity": "WILLIAMS, MELVIN J"}, "Election_Status": {"Election_Status": "Lost-Primary", "token": "c-t-ftsts", "id": "Lost-Primary"}, "Total_$": {"Total_$": "0.00"}, "Incumbency_Status": {"token": "c-t-ico", "Incumbency_Status": "Open", "id": "O"}, "request": "s=ME&y=2015,2016&f-core=1&c-exi=1&c-t-id=203575", "Specific_Party": {"token": "c-t-pt", "Specific_Party": "REPUBLICAN", "id": "139"}, "record_id": 412, "Election_Jurisdiction": {"token": "s", "id": "ME", "Election_Jurisdiction": "ME"}, "Election_Type": {"token": "c-r-t", "id": "1", "Election_Type": "Standard"}, "#_of_Records": {"#_of_Records": "0"}}, {"General_Party": {"General_Party": "Republican", "token": "c-t-p", "id": "2"}, "Office_Sought": {"Office_Sought": "HOUSE DISTRICT 083", "token": "c-r-osid", "id": "3601"}, "Election_Year": {"token": "y", "id": "2016", "Election_Year": "2016"}, "Candidate": {"token": "c-t-id", "id": "203576", "Candidate": "WILLIAMS, SCOTT DOUGLAS"}, "Candidate_Entity": {"token": "c-t-eid", "id": "23424407", "Candidate_Entity": "WILLIAMS, SCOTT DOUGLAS"}, "Election_Status": {"Election_Status": "Won-Primary", "token": "c-t-ftsts", "id": "Won-Primary"}, "Total_$": {"Total_$": "0.00"}, "Incumbency_Status": {"token": "c-t-ico", "Incumbency_Status": "Open", "id": "O"}, "request": "s=ME&y=2015,2016&f-core=1&c-exi=1&c-t-id=203576", "Specific_Party": {"token": "c-t-pt", "Specific_Party": "REPUBLICAN", "id": "139"}, "record_id": 413, "Election_Jurisdiction": {"token": "s", "id": "ME", "Election_Jurisdiction": "ME"}, "Election_Type": {"token": "c-r-t", "id": "1", "Election_Type": "Standard"}, "#_of_Records": {"#_of_Records": "0"}}, {"General_Party": {"General_Party": "Republican", "token": "c-t-p", "id": "2"}, "Office_Sought": {"Office_Sought": "HOUSE DISTRICT 071", "token": "c-r-osid", "id": "3589"}, "Election_Year": {"token": "y", "id": "2016", "Election_Year": "2016"}, "Candidate": {"token": "c-t-id", "id": "203577", "Candidate": "WINSOR, TOM J"}, "Candidate_Entity": {"token": "c-t-eid", "id": "6572621", "Candidate_Entity": "WINSOR, TOM J"}, "Election_Status": {"Election_Status": "Won-Primary", "token": "c-t-ftsts", "id": "Won-Primary"}, "Total_$": {"Total_$": "0.00"}, "Incumbency_Status": {"token": "c-t-ico", "Incumbency_Status": "Incumbent", "id": "I"}, "request": "s=ME&y=2015,2016&f-core=1&c-exi=1&c-t-id=203577", "Specific_Party": {"token": "c-t-pt", "Specific_Party": "REPUBLICAN", "id": "139"}, "record_id": 414, "Election_Jurisdiction": {"token": "s", "id": "ME", "Election_Jurisdiction": "ME"}, "Election_Type": {"token": "c-r-t", "id": "1", "Election_Type": "Standard"}, "#_of_Records": {"#_of_Records": "0"}}, {"General_Party": {"General_Party": "Democratic", "token": "c-t-p", "id": "1"}, "Office_Sought": {"Office_Sought": "HOUSE DISTRICT 130", "token": "c-r-osid", "id": "3648"}, "Election_Year": {"token": "y", "id": "2016", "Election_Year": "2016"}, "Candidate": {"token": "c-t-id", "id": "203578", "Candidate": "WOMBACHER, JOHN ANDREW"}, "Candidate_Entity": {"token": "c-t-eid", "id": "39714382", "Candidate_Entity": "WOMBACHER, JOHN ANDREW"}, "Election_Status": {"Election_Status": "Won-Primary", "token": "c-t-ftsts", "id": "Won-Primary"}, "Total_$": {"Total_$": "0.00"}, "Incumbency_Status": {"token": "c-t-ico", "Incumbency_Status": "Open", "id": "O"}, "request": "s=ME&y=2015,2016&f-core=1&c-exi=1&c-t-id=203578", "Specific_Party": {"token": "c-t-pt", "Specific_Party": "DEMOCRATIC", "id": "33"}, "record_id": 415, "Election_Jurisdiction": {"token": "s", "id": "ME", "Election_Jurisdiction": "ME"}, "Election_Type": {"token": "c-r-t", "id": "1", "Election_Type": "Standard"}, "#_of_Records": {"#_of_Records": "0"}}, {"General_Party": {"General_Party": "Republican", "token": "c-t-p", "id": "2"}, "Office_Sought": {"Office_Sought": "HOUSE DISTRICT 057", "token": "c-r-osid", "id": "3575"}, "Election_Year": {"token": "y", "id": "2016", "Election_Year": "2016"}, "Candidate": {"token": "c-t-id", "id": "203580", "Candidate": "WOOD, STEPHEN J"}, "Candidate_Entity": {"token": "c-t-eid", "id": "13001955", "Candidate_Entity": "WOOD, STEPHEN J"}, "Election_Status": {"Election_Status": "Won-Primary", "token": "c-t-ftsts", "id": "Won-Primary"}, "Total_$": {"Total_$": "0.00"}, "Incumbency_Status": {"token": "c-t-ico", "Incumbency_Status": "Incumbent", "id": "I"}, "request": "s=ME&y=2015,2016&f-core=1&c-exi=1&c-t-id=203580", "Specific_Party": {"token": "c-t-pt", "Specific_Party": "REPUBLICAN", "id": "139"}, "record_id": 416, "Election_Jurisdiction": {"token": "s", "id": "ME", "Election_Jurisdiction": "ME"}, "Election_Type": {"token": "c-r-t", "id": "1", "Election_Type": "Standard"}, "#_of_Records": {"#_of_Records": "0"}}, {"General_Party": {"General_Party": "Republican", "token": "c-t-p", "id": "2"}, "Office_Sought": {"Office_Sought": "SENATE DISTRICT 033", "token": "c-r-osid", "id": "3702"}, "Election_Year": {"token": "y", "id": "2016", "Election_Year": "2016"}, "Candidate": {"token": "c-t-id", "id": "203581", "Candidate": "WOODSOME, DAVID C"}, "Candidate_Entity": {"token": "c-t-eid", "id": "26783586", "Candidate_Entity": "WOODSOME, DAVID C"}, "Election_Status": {"Election_Status": "Won-Primary", "token": "c-t-ftsts", "id": "Won-Primary"}, "Total_$": {"Total_$": "0.00"}, "Incumbency_Status": {"token": "c-t-ico", "Incumbency_Status": "Incumbent", "id": "I"}, "request": "s=ME&y=2015,2016&f-core=1&c-exi=1&c-t-id=203581", "Specific_Party": {"token": "c-t-pt", "Specific_Party": "REPUBLICAN", "id": "139"}, "record_id": 417, "Election_Jurisdiction": {"token": "s", "id": "ME", "Election_Jurisdiction": "ME"}, "Election_Type": {"token": "c-r-t", "id": "1", "Election_Type": "Standard"}, "#_of_Records": {"#_of_Records": "0"}}, {"General_Party": {"General_Party": "Republican", "token": "c-t-p", "id": "2"}, "Office_Sought": {"Office_Sought": "HOUSE DISTRICT 084", "token": "c-r-osid", "id": "3602"}, "Election_Year": {"token": "y", "id": "2016", "Election_Year": "2016"}, "Candidate": {"token": "c-t-id", "id": "203582", "Candidate": "WRIGHT, CATHY A"}, "Candidate_Entity": {"token": "c-t-eid", "id": "39714385", "Candidate_Entity": "WRIGHT, CATHY A"}, "Election_Status": {"Election_Status": "Won-Primary", "token": "c-t-ftsts", "id": "Won-Primary"}, "Total_$": {"Total_$": "0.00"}, "Incumbency_Status": {"token": "c-t-ico", "Incumbency_Status": "Open", "id": "O"}, "request": "s=ME&y=2015,2016&f-core=1&c-exi=1&c-t-id=203582", "Specific_Party": {"token": "c-t-pt", "Specific_Party": "REPUBLICAN", "id": "139"}, "record_id": 418, "Election_Jurisdiction": {"token": "s", "id": "ME", "Election_Jurisdiction": "ME"}, "Election_Type": {"token": "c-r-t", "id": "1", "Election_Type": "Standard"}, "#_of_Records": {"#_of_Records": "0"}}, {"General_Party": {"General_Party": "Democratic", "token": "c-t-p", "id": "1"}, "Office_Sought": {"Office_Sought": "HOUSE DISTRICT 096", "token": "c-r-osid", "id": "3614"}, "Election_Year": {"token": "y", "id": "2016", "Election_Year": "2016"}, "Candidate": {"token": "c-t-id", "id": "203583", "Candidate": "ZEIGLER JR, STANLEY PAIGE"}, "Candidate_Entity": {"token": "c-t-eid", "id": "39714386", "Candidate_Entity": "ZEIGLER JR, STANLEY PAIGE"}, "Election_Status": {"Election_Status": "Won-Primary", "token": "c-t-ftsts", "id": "Won-Primary"}, "Total_$": {"Total_$": "0.00"}, "Incumbency_Status": {"token": "c-t-ico", "Incumbency_Status": "Open", "id": "O"}, "request": "s=ME&y=2015,2016&f-core=1&c-exi=1&c-t-id=203583", "Specific_Party": {"token": "c-t-pt", "Specific_Party": "DEMOCRATIC", "id": "33"}, "record_id": 419, "Election_Jurisdiction": {"token": "s", "id": "ME", "Election_Jurisdiction": "ME"}, "Election_Type": {"token": "c-r-t", "id": "1", "Election_Type": "Standard"}, "#_of_Records": {"#_of_Records": "0"}}], "metaInfo": {"sorting": {"currentSorting": {"c-t-id": "Candidate"}, "sortLink": "so=c-t-id&sod=0", "availableSorting": {"c-r-osid": "Office_Sought", "u-tot": "Total_$", "c-t-pt": "Specific_Party", "c-t-ftsts": "Election_Status", "s": "Election_Jurisdiction", "c-r-t": "Election_Type", "y": "Election_Year", "c-t-p": "General_Party", "c-t-ico": "Incumbency_Status", "u-rec": "#_of_Records"}, "sortingDirection": "descending"}, "completeness": {"allReports": "3140", "completeReports": "352", "availableReports": "1940", "lastUpdated": "2016-08-02 08:25:37", "incompleteAvailable": "1588", "mostRecentReportDate": "2016-01-15"}, "format": "json", "recordFormat": {"General_Party": {"General_Party": "display value", "token": "c-t-p", "id": "token value"}, "Office_Sought": {"Office_Sought": "display value", "token": "c-r-osid", "id": "token value"}, "Election_Year": {"token": "y", "id": "token value", "Election_Year": "display value"}, "Candidate": {"token": "c-t-id", "id": "token value", "Candidate": "display value"}, "Candidate_Entity": {"token": "c-t-eid", "id": "token value", "Candidate_Entity": "display value"}, "Total_$": {"Total_$": "display value"}, "Incumbency_Status": {"token": "c-t-ico", "Incumbency_Status": "display value", "id": "token value"}, "request": "s=ME&y=2015,2016&f-core=1&c-exi=1", "Specific_Party": {"token": "c-t-pt", "Specific_Party": "display value", "id": "token value"}, "Election_Status": {"Election_Status": "display value", "token": "c-t-ftsts", "id": "token value"}, "Election_Jurisdiction": {"token": "s", "id": "token value", "Election_Jurisdiction": "display value"}, "Election_Type": {"token": "c-r-t", "id": "token value", "Election_Type": "display value"}, "#_of_Records": {"#_of_Records": "display value"}}, "paging": {"totalRecords": "419", "minPage": 0, "recordsThisPage": 19, "pageLink": "p=4", "maxPage": 4, "recordsPerPage": 100, "totalPages": 5, "currentPage": 4}, "grouping": {"availableGrouping": {"d-et": "Type of Contributor (Contributors)", "d-empl": "Employer (Contributors)", "d-amt": "Amount (Advanced)", "d-id": "Record (Contributors)", "d-typ": "Type of Transaction (Advanced)", "f-eid": "Filer (General)", "c-t-i": "Incumbency Data (Advanced)", "d-cci": "General Industry (Contributors)", "d-ccg": "Broad Sector (Contributors)", "d-ccb": "Specific Business (Contributors)", "d-ad-zip": "Zip (Contributors)", "c-t-sts": "Status of Candidate (Candidates)", "d-nme": "Original Name (Advanced)", "c-t-icod": "Incumbency Advantage (Advanced)", "d-ins": "In-Jurisdiction (Contributors)", "d-ad-cty": "City (Contributors)", "d-occupation": "Occupation (Contributors)", "d-search": "DND (Advanced)", "d-ludte": "Last Updated (Advanced)", "d-file": "DND (Advanced)", "d-ad-str": "Street (Advanced)", "d-dte": "Date (Advanced)", "d-ad-st": "State (Contributors)", "f-y": "Filing Year (Advanced)", "f-s": "Filing Jurisdiction (General)", "d-eid": "Contributor (Contributors)", "d-llink": "Lobbying Entity? (Advanced)"}, "currentGrouping": {"c-t-id": "Candidate (General)"}, "groupLink": "gro=c-t-id"}}}