{"records": [{"General_Party": {"General_Party": "Democratic", "token": "c-t-p", "id": "1"}, "Office_Sought": {"Office_Sought": "HOUSE DISTRICT 025", "token": "c-r-osid", "id": "3740"}, "Election_Year": {"token": "y", "id": "2016", "Election_Year": "2016"}, "Candidate": {"token": "c-t-id", "id": "208005", "Candidate": "YANEZ, HENRY J"}, "Candidate_Entity": {"token": "c-t-eid", "id": "176517", "Candidate_Entity": "YANEZ, HENRY J"}, "Election_Status": {"Election_Status": "Pending-Primary", "token": "c-t-ftsts", "id": "Pending-Primary"}, "Total_$": {"Total_$": "29381.54"}, "Incumbency_Status": {"token": "c-t-ico", "Incumbency_Status": "Incumbent", "id": "I"}, "request": "s=MI&y=2015,2016&f-core=1&c-exi=1&c-t-id=208005", "Specific_Party": {"token": "c-t-pt", "Specific_Party": "DEMOCRATIC", "id": "33"}, "record_id": 501, "Election_Jurisdiction": {"token": "s", "id": "MI", "Election_Jurisdiction": "MI"}, "Election_Type": {"token": "c-r-t", "id": "1", "Election_Type": "Standard"}, "#_of_Records": {"#_of_Records": "212"}}, {"General_Party": {"General_Party": "Republican", "token": "c-t-p", "id": "2"}, "Office_Sought": {"Office_Sought": "HOUSE DISTRICT 033", "token": "c-r-osid", "id": "3748"}, "Election_Year": {"token": "y", "id": "2016", "Election_Year": "2016"}, "Candidate": {"token": "c-t-id", "id": "208044", "Candidate": "YAROCH, JEFF"}, "Candidate_Entity": {"token": "c-t-eid", "id": "39849888", "Candidate_Entity": "YAROCH, JEFF"}, "Election_Status": {"Election_Status": "Pending-Primary", "token": "c-t-ftsts", "id": "Pending-Primary"}, "Total_$": {"Total_$": "25000.00"}, "Incumbency_Status": {"token": "c-t-ico", "Incumbency_Status": "Open", "id": "O"}, "request": "s=MI&y=2015,2016&f-core=1&c-exi=1&c-t-id=208044", "Specific_Party": {"token": "c-t-pt", "Specific_Party": "REPUBLICAN", "id": "139"}, "record_id": 502, "Election_Jurisdiction": {"token": "s", "id": "MI", "Election_Jurisdiction": "MI"}, "Election_Type": {"token": "c-r-t", "id": "1", "Election_Type": "Standard"}, "#_of_Records": {"#_of_Records": "1"}}, {"General_Party": {"General_Party": "Democratic", "token": "c-t-p", "id": "1"}, "Office_Sought": {"Office_Sought": "HOUSE DISTRICT 090", "token": "c-r-osid", "id": "3805"}, "Election_Year": {"token": "y", "id": "2016", "Election_Year": "2016"}, "Candidate": {"token": "c-t-id", "id": "208226", "Candidate": "YEDINAK, MARY M"}, "Candidate_Entity": {"token": "c-t-eid", "id": "19061581", "Candidate_Entity": "YEDINAK, MARY M"}, "Election_Status": {"Election_Status": "Pending-Primary", "token": "c-t-ftsts", "id": "Pending-Primary"}, "Total_$": {"Total_$": "0.00"}, "Incumbency_Status": {"token": "c-t-ico", "Incumbency_Status": "Open", "id": "O"}, "request": "s=MI&y=2015,2016&f-core=1&c-exi=1&c-t-id=208226", "Specific_Party": {"token": "c-t-pt", "Specific_Party": "DEMOCRATIC", "id": "33"}, "record_id": 503, "Election_Jurisdiction": {"token": "s", "id": "MI", "Election_Jurisdiction": "MI"}, "Election_Type": {"token": "c-r-t", "id": "1", "Election_Type": "Standard"}, "#_of_Records": {"#_of_Records": "0"}}, {"General_Party": {"General_Party": "Democratic", "token": "c-t-p", "id": "1"}, "Office_Sought": {"Office_Sought": "HOUSE DISTRICT 036", "token": "c-r-osid", "id": "3751"}, "Election_Year": {"token": "y", "id": "2016", "Election_Year": "2016"}, "Candidate": {"token": "c-t-id", "id": "208051", "Candidate": "YOUNG, DIANE"}, "Candidate_Entity": {"token": "c-t-eid", "id": "27775139", "Candidate_Entity": "YOUNG, DIANE"}, "Election_Status": {"Election_Status": "Pending-Primary", "token": "c-t-ftsts", "id": "Pending-Primary"}, "Total_$": {"Total_$": "0.00"}, "Incumbency_Status": {"token": "c-t-ico", "Incumbency_Status": "Open", "id": "O"}, "request": "s=MI&y=2015,2016&f-core=1&c-exi=1&c-t-id=208051", "Specific_Party": {"token": "c-t-pt", "Specific_Party": "DEMOCRATIC", "id": "33"}, "record_id": 504, "Election_Jurisdiction": {"token": "s", "id": "MI", "Election_Jurisdiction": "MI"}, "Election_Type": {"token": "c-r-t", "id": "1", "Election_Type": "Standard"}, "#_of_Records": {"#_of_Records": "0"}}, {"General_Party": {"General_Party": "Democratic", "token": "c-t-p", "id": "1"}, "Office_Sought": {"Office_Sought": "HOUSE DISTRICT 001", "token": "c-r-osid", "id": "3716"}, "Election_Year": {"token": "y", "id": "2016", "Election_Year": "2016"}, "Candidate": {"token": "c-t-id", "id": "207885", "Candidate": "YOUSON, WASHINGTON"}, "Candidate_Entity": {"token": "c-t-eid", "id": "39849791", "Candidate_Entity": "YOUSON, WASHINGTON"}, "Election_Status": {"Election_Status": "Pending-Primary", "token": "c-t-ftsts", "id": "Pending-Primary"}, "Total_$": {"Total_$": "0.00"}, "Incumbency_Status": {"token": "c-t-ico", "Incumbency_Status": "Challenger", "id": "C"}, "request": "s=MI&y=2015,2016&f-core=1&c-exi=1&c-t-id=207885", "Specific_Party": {"token": "c-t-pt", "Specific_Party": "DEMOCRATIC", "id": "33"}, "record_id": 505, "Election_Jurisdiction": {"token": "s", "id": "MI", "Election_Jurisdiction": "MI"}, "Election_Type": {"token": "c-r-t", "id": "1", "Election_Type": "Standard"}, "#_of_Records": {"#_of_Records": "0"}}, {"General_Party": {"General_Party": "Democratic", "token": "c-t-p", "id": "1"}, "Office_Sought": {"Office_Sought": "HOUSE DISTRICT 015", "token": "c-r-osid", "id": "3730"}, "Election_Year": {"token": "y", "id": "2016", "Election_Year": "2016"}, "Candidate": {"token": "c-t-id", "id": "207965", "Candidate": "ZEIDAN, JACKLIN"}, "Candidate_Entity": {"token": "c-t-eid", "id": "145161", "Candidate_Entity": "ZEIDAN, JACKLIN"}, "Election_Status": {"Election_Status": "Pending-Primary", "token": "c-t-ftsts", "id": "Pending-Primary"}, "Total_$": {"Total_$": "0.00"}, "Incumbency_Status": {"token": "c-t-ico", "Incumbency_Status": "Open", "id": "O"}, "request": "s=MI&y=2015,2016&f-core=1&c-exi=1&c-t-id=207965", "Specific_Party": {"token": "c-t-pt", "Specific_Party": "DEMOCRATIC", "id": "33"}, "record_id": 506, "Election_Jurisdiction": {"token": "s", "id": "MI", "Election_Jurisdiction": "MI"}, "Election_Type": {"token": "c-r-t", "id": "1", "Election_Type": "Standard"}, "#_of_Records": {"#_of_Records": "0"}}, {"General_Party": {"General_Party": "Democratic", "token": "c-t-p", "id": "1"}, "Office_Sought": {"Office_Sought": "HOUSE DISTRICT 055", "token": "c-r-osid", "id": "3770"}, "Election_Year": {"token": "y", "id": "2016", "Election_Year": "2016"}, "Candidate": {"token": "c-t-id", "id": "208109", "Candidate": "ZEMKE, ADAM"}, "Candidate_Entity": {"token": "c-t-eid", "id": "12720052", "Candidate_Entity": "ZEMKE, ADAM"}, "Election_Status": {"Election_Status": "Pending-Primary", "token": "c-t-ftsts", "id": "Pending-Primary"}, "Total_$": {"Total_$": "17449.80"}, "Incumbency_Status": {"token": "c-t-ico", "Incumbency_Status": "Incumbent", "id": "I"}, "request": "s=MI&y=2015,2016&f-core=1&c-exi=1&c-t-id=208109", "Specific_Party": {"token": "c-t-pt", "Specific_Party": "DEMOCRATIC", "id": "33"}, "record_id": 507, "Election_Jurisdiction": {"token": "s", "id": "MI", "Election_Jurisdiction": "MI"}, "Election_Type": {"token": "c-r-t", "id": "1", "Election_Type": "Standard"}, "#_of_Records": {"#_of_Records": "59"}}], "metaInfo": {"sorting": {"currentSorting": {"c-t-id": "Candidate"}, "sortLink": "so=c-t-id&sod=0", "availableSorting": {"c-r-osid": "Office_Sought", "u-tot": "Total_$", "c-t-pt": "Specific_Party", "c-t-ftsts": "Election_Status", "s": "Election_Jurisdiction", "c-r-t": "Election_Type", "y": "Election_Year", "c-t-p": "General_Party", "c-t-ico": "Incumbency_Status", "u-rec": "#_of_Records"}, "sortingDirection": "descending"}, "completeness": {"allReports": "3766", "completeReports": "1591", "availableReports": "2020", "lastUpdated": "2016-05-09 08:08:01", "incompleteAvailable": "429", "mostRecentReportDate": "2016-04-07"}, "format": "json", "recordFormat": {"General_Party": {"General_Party": "display value", "token": "c-t-p", "id": "token value"}, "Office_Sought": {"Office_Sought": "display value", "token": "c-r-osid", "id": "token value"}, "Election_Year": {"token": "y", "id": "token value", "Election_Year": "display value"}, "Candidate": {"token": "c-t-id", "id": "token value", "Candidate": "display value"}, "Candidate_Entity": {"token": "c-t-eid", "id": "token value", "Candidate_Entity": "display value"}, "Total_$": {"Total_$": "display value"}, "Incumbency_Status": {"token": "c-t-ico", "Incumbency_Status": "display value", "id": "token value"}, "request": "s=MI&y=2015,2016&f-core=1&c-exi=1", "Specific_Party": {"token": "c-t-pt", "Specific_Party": "display value", "id": "token value"}, "Election_Status": {"Election_Status": "display value", "token": "c-t-ftsts", "id": "token value"}, "Election_Jurisdiction": {"token": "s", "id": "token value", "Election_Jurisdiction": "display value"}, "Election_Type": {"token": "c-r-t", "id": "token value", "Election_Type": "display value"}, "#_of_Records": {"#_of_Records": "display value"}}, "paging": {"totalRecords": "507", "minPage": 0, "recordsThisPage": 7, "pageLink": "p=5", "maxPage": 5, "recordsPerPage": 100, "totalPages": 6, "currentPage": 5}, "grouping": {"availableGrouping": {"d-et": "Type of Contributor (Contributors)", "d-empl": "Employer (Contributors)", "d-amt": "Amount (Advanced)", "d-id": "Record (Contributors)", "d-typ": "Type of Transaction (Advanced)", "f-eid": "Filer (General)", "c-t-i": "Incumbency Data (Advanced)", "d-cci": "General Industry (Contributors)", "d-ccg": "Broad Sector (Contributors)", "d-ccb": "Specific Business (Contributors)", "d-ad-zip": "Zip (Contributors)", "c-t-sts": "Status of Candidate (Candidates)", "d-nme": "Original Name (Advanced)", "c-t-icod": "Incumbency Advantage (Advanced)", "d-ins": "In-Jurisdiction (Contributors)", "d-ad-cty": "City (Contributors)", "d-occupation": "Occupation (Contributors)", "d-search": "DND (Advanced)", "d-ludte": "Last Updated (Advanced)", "d-file": "DND (Advanced)", "d-ad-str": "Street (Advanced)", "d-dte": "Date (Advanced)", "d-ad-st": "State (Contributors)", "f-y": "Filing Year (Advanced)", "f-s": "Filing Jurisdiction (General)", "d-eid": "Contributor (Contributors)", "d-llink": "Lobbying Entity? (Advanced)"}, "currentGrouping": {"c-t-id": "Candidate (General)"}, "groupLink": "gro=c-t-id"}}}