{"records": [{"General_Party": {"General_Party": "Republican", "token": "c-t-p", "id": "2"}, "Office_Sought": {"Office_Sought": "SENATE DISTRICT 019", "token": "c-r-osid", "id": "5508"}, "Election_Year": {"token": "y", "id": "2016", "Election_Year": "2016"}, "Candidate": {"token": "c-t-id", "id": "212999", "Candidate": "WHITE, JAMES P"}, "Candidate_Entity": {"token": "c-t-eid", "id": "13004328", "Candidate_Entity": "WHITE, JAMES P"}, "Election_Status": {"Election_Status": "Won-Primary", "token": "c-t-ftsts", "id": "Won-Primary"}, "Total_$": {"Total_$": "4049.22"}, "Incumbency_Status": {"token": "c-t-ico", "Incumbency_Status": "Incumbent", "id": "I"}, "request": "s=NM&y=2015,2016&f-core=1&c-exi=1&c-t-id=212999", "Specific_Party": {"token": "c-t-pt", "Specific_Party": "REPUBLICAN", "id": "139"}, "record_id": 201, "Election_Jurisdiction": {"token": "s", "id": "NM", "Election_Jurisdiction": "NM"}, "Election_Type": {"token": "c-r-t", "id": "1", "Election_Type": "Standard"}, "#_of_Records": {"#_of_Records": "33"}}, {"General_Party": {"General_Party": "Democratic", "token": "c-t-p", "id": "1"}, "Office_Sought": {"Office_Sought": "HOUSE DISTRICT 038", "token": "c-r-osid", "id": "5457"}, "Election_Year": {"token": "y", "id": "2016", "Election_Year": "2016"}, "Candidate": {"token": "c-t-id", "id": "197017", "Candidate": "WHITLOCK, KAREN C"}, "Candidate_Entity": {"token": "c-t-eid", "id": "39176874", "Candidate_Entity": "WHITLOCK, KAREN C"}, "Election_Status": {"Election_Status": "Lost-Primary", "token": "c-t-ftsts", "id": "Lost-Primary"}, "Total_$": {"Total_$": "0.00"}, "Incumbency_Status": {"token": "c-t-ico", "Incumbency_Status": "Open", "id": "O"}, "request": "s=NM&y=2015,2016&f-core=1&c-exi=1&c-t-id=197017", "Specific_Party": {"token": "c-t-pt", "Specific_Party": "DEMOCRATIC", "id": "33"}, "record_id": 202, "Election_Jurisdiction": {"token": "s", "id": "NM", "Election_Jurisdiction": "NM"}, "Election_Type": {"token": "c-r-t", "id": "1", "Election_Type": "Standard"}, "#_of_Records": {"#_of_Records": "0"}}, {"General_Party": {"General_Party": "Republican", "token": "c-t-p", "id": "2"}, "Office_Sought": {"Office_Sought": "SENATE DISTRICT 019", "token": "c-r-osid", "id": "5508"}, "Election_Year": {"token": "y", "id": "2016", "Election_Year": "2016"}, "Candidate": {"token": "c-t-id", "id": "197065", "Candidate": "WILDER, JAMES ROGER"}, "Candidate_Entity": {"token": "c-t-eid", "id": "39176906", "Candidate_Entity": "WILDER, JAMES ROGER"}, "Election_Status": {"Election_Status": "Lost-Primary", "token": "c-t-ftsts", "id": "Lost-Primary"}, "Total_$": {"Total_$": "0.00"}, "Incumbency_Status": {"token": "c-t-ico", "Incumbency_Status": "Challenger", "id": "C"}, "request": "s=NM&y=2015,2016&f-core=1&c-exi=1&c-t-id=197065", "Specific_Party": {"token": "c-t-pt", "Specific_Party": "REPUBLICAN", "id": "139"}, "record_id": 203, "Election_Jurisdiction": {"token": "s", "id": "NM", "Election_Jurisdiction": "NM"}, "Election_Type": {"token": "c-r-t", "id": "1", "Election_Type": "Standard"}, "#_of_Records": {"#_of_Records": "0"}}, {"General_Party": {"General_Party": "Democratic", "token": "c-t-p", "id": "1"}, "Office_Sought": {"Office_Sought": "HOUSE DISTRICT 019", "token": "c-r-osid", "id": "5438"}, "Election_Year": {"token": "y", "id": "2016", "Election_Year": "2016"}, "Candidate": {"token": "c-t-id", "id": "211449", "Candidate": "WILLIAMS STAPLETON, SHERYL M"}, "Candidate_Entity": {"token": "c-t-eid", "id": "40620342", "Candidate_Entity": "WILLIAMS STAPLETON, SHERYL M"}, "Election_Status": {"Election_Status": "Won-Primary", "token": "c-t-ftsts", "id": "Won-Primary"}, "Total_$": {"Total_$": "7200.00"}, "Incumbency_Status": {"token": "c-t-ico", "Incumbency_Status": "Incumbent", "id": "I"}, "request": "s=NM&y=2015,2016&f-core=1&c-exi=1&c-t-id=211449", "Specific_Party": {"token": "c-t-pt", "Specific_Party": "DEMOCRATIC", "id": "33"}, "record_id": 204, "Election_Jurisdiction": {"token": "s", "id": "NM", "Election_Jurisdiction": "NM"}, "Election_Type": {"token": "c-r-t", "id": "1", "Election_Type": "Standard"}, "#_of_Records": {"#_of_Records": "20"}}, {"General_Party": {"General_Party": "Democratic", "token": "c-t-p", "id": "1"}, "Office_Sought": {"Office_Sought": "SENATE DISTRICT 025", "token": "c-r-osid", "id": "5514"}, "Election_Year": {"token": "y", "id": "2016", "Election_Year": "2016"}, "Candidate": {"token": "c-t-id", "id": "213005", "Candidate": "WIRTH, PETER"}, "Candidate_Entity": {"token": "c-t-eid", "id": "6453946", "Candidate_Entity": "WIRTH, PETER"}, "Election_Status": {"Election_Status": "Won-Primary", "token": "c-t-ftsts", "id": "Won-Primary"}, "Total_$": {"Total_$": "88418.00"}, "Incumbency_Status": {"token": "c-t-ico", "Incumbency_Status": "Incumbent", "id": "I"}, "request": "s=NM&y=2015,2016&f-core=1&c-exi=1&c-t-id=213005", "Specific_Party": {"token": "c-t-pt", "Specific_Party": "DEMOCRATIC", "id": "33"}, "record_id": 205, "Election_Jurisdiction": {"token": "s", "id": "NM", "Election_Jurisdiction": "NM"}, "Election_Type": {"token": "c-r-t", "id": "1", "Election_Type": "Standard"}, "#_of_Records": {"#_of_Records": "343"}}, {"General_Party": {"General_Party": "Republican", "token": "c-t-p", "id": "2"}, "Office_Sought": {"Office_Sought": "SENATE DISTRICT 007", "token": "c-r-osid", "id": "5496"}, "Election_Year": {"token": "y", "id": "2016", "Election_Year": "2016"}, "Candidate": {"token": "c-t-id", "id": "212985", "Candidate": "WOODS, JOHN PATRICK"}, "Candidate_Entity": {"token": "c-t-eid", "id": "11022550", "Candidate_Entity": "WOODS, JOHN PATRICK"}, "Election_Status": {"Election_Status": "Won-Primary", "token": "c-t-ftsts", "id": "Won-Primary"}, "Total_$": {"Total_$": "11850.00"}, "Incumbency_Status": {"token": "c-t-ico", "Incumbency_Status": "Incumbent", "id": "I"}, "request": "s=NM&y=2015,2016&f-core=1&c-exi=1&c-t-id=212985", "Specific_Party": {"token": "c-t-pt", "Specific_Party": "REPUBLICAN", "id": "139"}, "record_id": 206, "Election_Jurisdiction": {"token": "s", "id": "NM", "Election_Jurisdiction": "NM"}, "Election_Type": {"token": "c-r-t", "id": "1", "Election_Type": "Standard"}, "#_of_Records": {"#_of_Records": "28"}}, {"General_Party": {"General_Party": "Republican", "token": "c-t-p", "id": "2"}, "Office_Sought": {"Office_Sought": "HOUSE DISTRICT 066", "token": "c-r-osid", "id": "5485"}, "Election_Year": {"token": "y", "id": "2016", "Election_Year": "2016"}, "Candidate": {"token": "c-t-id", "id": "211489", "Candidate": "WOOLEY, BOB"}, "Candidate_Entity": {"token": "c-t-eid", "id": "11022439", "Candidate_Entity": "WOOLEY, BOB"}, "Election_Status": {"Election_Status": "Won-Primary", "token": "c-t-ftsts", "id": "Won-Primary"}, "Total_$": {"Total_$": "1800.00"}, "Incumbency_Status": {"token": "c-t-ico", "Incumbency_Status": "Incumbent", "id": "I"}, "request": "s=NM&y=2015,2016&f-core=1&c-exi=1&c-t-id=211489", "Specific_Party": {"token": "c-t-pt", "Specific_Party": "REPUBLICAN", "id": "139"}, "record_id": 207, "Election_Jurisdiction": {"token": "s", "id": "NM", "Election_Jurisdiction": "NM"}, "Election_Type": {"token": "c-r-t", "id": "1", "Election_Type": "Standard"}, "#_of_Records": {"#_of_Records": "5"}}, {"General_Party": {"General_Party": "Democratic", "token": "c-t-p", "id": "1"}, "Office_Sought": {"Office_Sought": "HOUSE DISTRICT 052", "token": "c-r-osid", "id": "5471"}, "Election_Year": {"token": "y", "id": "2016", "Election_Year": "2016"}, "Candidate": {"token": "c-t-id", "id": "211476", "Candidate": "YBARRA GALLEGOS, DOREEN"}, "Candidate_Entity": {"token": "c-t-eid", "id": "40620352", "Candidate_Entity": "YBARRA GALLEGOS, DOREEN"}, "Election_Status": {"Election_Status": "Won-Primary", "token": "c-t-ftsts", "id": "Won-Primary"}, "Total_$": {"Total_$": "7122.92"}, "Incumbency_Status": {"token": "c-t-ico", "Incumbency_Status": "Incumbent", "id": "I"}, "request": "s=NM&y=2015,2016&f-core=1&c-exi=1&c-t-id=211476", "Specific_Party": {"token": "c-t-pt", "Specific_Party": "DEMOCRATIC", "id": "33"}, "record_id": 208, "Election_Jurisdiction": {"token": "s", "id": "NM", "Election_Jurisdiction": "NM"}, "Election_Type": {"token": "c-r-t", "id": "1", "Election_Type": "Standard"}, "#_of_Records": {"#_of_Records": "29"}}, {"General_Party": {"General_Party": "Republican", "token": "c-t-p", "id": "2"}, "Office_Sought": {"Office_Sought": "HOUSE DISTRICT 068", "token": "c-r-osid", "id": "5487"}, "Election_Year": {"token": "y", "id": "2016", "Election_Year": "2016"}, "Candidate": {"token": "c-t-id", "id": "211491", "Candidate": "YOUNGBLOOD, MONICA C"}, "Candidate_Entity": {"token": "c-t-eid", "id": "11022443", "Candidate_Entity": "YOUNGBLOOD, MONICA C"}, "Election_Status": {"Election_Status": "Won-Primary", "token": "c-t-ftsts", "id": "Won-Primary"}, "Total_$": {"Total_$": "8306.17"}, "Incumbency_Status": {"token": "c-t-ico", "Incumbency_Status": "Incumbent", "id": "I"}, "request": "s=NM&y=2015,2016&f-core=1&c-exi=1&c-t-id=211491", "Specific_Party": {"token": "c-t-pt", "Specific_Party": "REPUBLICAN", "id": "139"}, "record_id": 209, "Election_Jurisdiction": {"token": "s", "id": "NM", "Election_Jurisdiction": "NM"}, "Election_Type": {"token": "c-r-t", "id": "1", "Election_Type": "Standard"}, "#_of_Records": {"#_of_Records": "27"}}, {"General_Party": {"General_Party": "Republican", "token": "c-t-p", "id": "2"}, "Office_Sought": {"Office_Sought": "HOUSE DISTRICT 039", "token": "c-r-osid", "id": "5458"}, "Election_Year": {"token": "y", "id": "2016", "Election_Year": "2016"}, "Candidate": {"token": "c-t-id", "id": "211464", "Candidate": "ZIMMERMAN, JOHN L"}, "Candidate_Entity": {"token": "c-t-eid", "id": "11022418", "Candidate_Entity": "ZIMMERMAN, JOHN L"}, "Election_Status": {"Election_Status": "Won-Primary", "token": "c-t-ftsts", "id": "Won-Primary"}, "Total_$": {"Total_$": "3650.00"}, "Incumbency_Status": {"token": "c-t-ico", "Incumbency_Status": "Incumbent", "id": "I"}, "request": "s=NM&y=2015,2016&f-core=1&c-exi=1&c-t-id=211464", "Specific_Party": {"token": "c-t-pt", "Specific_Party": "REPUBLICAN", "id": "139"}, "record_id": 210, "Election_Jurisdiction": {"token": "s", "id": "NM", "Election_Jurisdiction": "NM"}, "Election_Type": {"token": "c-r-t", "id": "1", "Election_Type": "Standard"}, "#_of_Records": {"#_of_Records": "9"}}], "metaInfo": {"sorting": {"currentSorting": {"c-t-id": "Candidate"}, "sortLink": "so=c-t-id&sod=0", "availableSorting": {"c-r-osid": "Office_Sought", "u-tot": "Total_$", "c-t-pt": "Specific_Party", "c-t-ftsts": "Election_Status", "s": "Election_Jurisdiction", "c-r-t": "Election_Type", "y": "Election_Year", "c-t-p": "General_Party", "c-t-ico": "Incumbency_Status", "u-rec": "#_of_Records"}, "sortingDirection": "descending"}, "completeness": {"allReports": "2874", "completeReports": "1240", "availableReports": "2056", "lastUpdated": "2016-08-03 08:16:07", "incompleteAvailable": "816", "mostRecentReportDate": "2015-10-12"}, "format": "json", "recordFormat": {"General_Party": {"General_Party": "display value", "token": "c-t-p", "id": "token value"}, "Office_Sought": {"Office_Sought": "display value", "token": "c-r-osid", "id": "token value"}, "Election_Year": {"token": "y", "id": "token value", "Election_Year": "display value"}, "Candidate": {"token": "c-t-id", "id": "token value", "Candidate": "display value"}, "Candidate_Entity": {"token": "c-t-eid", "id": "token value", "Candidate_Entity": "display value"}, "Total_$": {"Total_$": "display value"}, "Incumbency_Status": {"token": "c-t-ico", "Incumbency_Status": "display value", "id": "token value"}, "request": "s=NM&y=2015,2016&f-core=1&c-exi=1", "Specific_Party": {"token": "c-t-pt", "Specific_Party": "display value", "id": "token value"}, "Election_Status": {"Election_Status": "display value", "token": "c-t-ftsts", "id": "token value"}, "Election_Jurisdiction": {"token": "s", "id": "token value", "Election_Jurisdiction": "display value"}, "Election_Type": {"token": "c-r-t", "id": "token value", "Election_Type": "display value"}, "#_of_Records": {"#_of_Records": "display value"}}, "paging": {"totalRecords": "210", "minPage": 0, "recordsThisPage": 10, "pageLink": "p=2", "maxPage": 2, "recordsPerPage": 100, "totalPages": 3, "currentPage": 2}, "grouping": {"availableGrouping": {"d-et": "Type of Contributor (Contributors)", "d-empl": "Employer (Contributors)", "d-amt": "Amount (Advanced)", "d-id": "Record (Contributors)", "d-typ": "Type of Transaction (Advanced)", "f-eid": "Filer (General)", "c-t-i": "Incumbency Data (Advanced)", "d-cci": "General Industry (Contributors)", "d-ccg": "Broad Sector (Contributors)", "d-ccb": "Specific Business (Contributors)", "d-ad-zip": "Zip (Contributors)", "c-t-sts": "Status of Candidate (Candidates)", "d-nme": "Original Name (Advanced)", "c-t-icod": "Incumbency Advantage (Advanced)", "d-ins": "In-Jurisdiction (Contributors)", "d-ad-cty": "City (Contributors)", "d-occupation": "Occupation (Contributors)", "d-search": "DND (Advanced)", "d-ludte": "Last Updated (Advanced)", "d-file": "DND (Advanced)", "d-ad-str": "Street (Advanced)", "d-dte": "Date (Advanced)", "d-ad-st": "State (Contributors)", "f-y": "Filing Year (Advanced)", "f-s": "Filing Jurisdiction (General)", "d-eid": "Contributor (Contributors)", "d-llink": "Lobbying Entity? (Advanced)"}, "currentGrouping": {"c-t-id": "Candidate (General)"}, "groupLink": "gro=c-t-id"}}}