{"records": [{"General_Party": {"General_Party": "Third-Party", "token": "c-t-p", "id": "3"}, "Office_Sought": {"Office_Sought": "US HOUSE DISTRICT OK 004", "token": "c-r-osid", "id": "15292"}, "Election_Year": {"token": "y", "id": "2016", "Election_Year": "2016"}, "Candidate": {"token": "c-t-id", "id": "207723", "Candidate": "WHITE, SEVIER"}, "Candidate_Entity": {"token": "c-t-eid", "id": "39828184", "Candidate_Entity": "WHITE, SEVIER"}, "Election_Status": {"Election_Status": "Pending-General", "token": "c-t-ftsts", "id": "Pending-General"}, "Total_$": {"Total_$": "0.00"}, "Incumbency_Status": {"token": "c-t-ico", "Incumbency_Status": "Open", "id": "O"}, "request": "s=OK&y=2015,2016&f-core=1&c-exi=1&c-t-id=207723", "Specific_Party": {"token": "c-t-pt", "Specific_Party": "LIBERTARIAN", "id": "73"}, "record_id": 401, "Election_Jurisdiction": {"token": "s", "id": "OK", "Election_Jurisdiction": "OK"}, "Election_Type": {"token": "c-r-t", "id": "1", "Election_Type": "Standard"}, "#_of_Records": {"#_of_Records": "0"}}, {"General_Party": {"General_Party": "Republican", "token": "c-t-p", "id": "2"}, "Office_Sought": {"Office_Sought": "HOUSE DISTRICT 005", "token": "c-r-osid", "id": "6166"}, "Election_Year": {"token": "y", "id": "2016", "Election_Year": "2016"}, "Candidate": {"token": "c-t-id", "id": "207335", "Candidate": "WILHELM, JOE"}, "Candidate_Entity": {"token": "c-t-eid", "id": "39827896", "Candidate_Entity": "WILHELM, JOE"}, "Election_Status": {"Election_Status": "Lost-Primary", "token": "c-t-ftsts", "id": "Lost-Primary"}, "Total_$": {"Total_$": "0.00"}, "Incumbency_Status": {"token": "c-t-ico", "Incumbency_Status": "Open", "id": "O"}, "request": "s=OK&y=2015,2016&f-core=1&c-exi=1&c-t-id=207335", "Specific_Party": {"token": "c-t-pt", "Specific_Party": "REPUBLICAN", "id": "139"}, "record_id": 402, "Election_Jurisdiction": {"token": "s", "id": "OK", "Election_Jurisdiction": "OK"}, "Election_Type": {"token": "c-r-t", "id": "1", "Election_Type": "Standard"}, "#_of_Records": {"#_of_Records": "0"}}, {"General_Party": {"General_Party": "Democratic", "token": "c-t-p", "id": "1"}, "Office_Sought": {"Office_Sought": "HOUSE DISTRICT 034", "token": "c-r-osid", "id": "6195"}, "Election_Year": {"token": "y", "id": "2016", "Election_Year": "2016"}, "Candidate": {"token": "c-t-id", "id": "207415", "Candidate": "WILLIAMS, CORY T"}, "Candidate_Entity": {"token": "c-t-eid", "id": "13005024", "Candidate_Entity": "WILLIAMS, CORY T"}, "Election_Status": {"Election_Status": "Default Winner-Primary", "token": "c-t-ftsts", "id": "Default Winner-Primary"}, "Total_$": {"Total_$": "0.00"}, "Incumbency_Status": {"token": "c-t-ico", "Incumbency_Status": "Incumbent", "id": "I"}, "request": "s=OK&y=2015,2016&f-core=1&c-exi=1&c-t-id=207415", "Specific_Party": {"token": "c-t-pt", "Specific_Party": "DEMOCRATIC", "id": "33"}, "record_id": 403, "Election_Jurisdiction": {"token": "s", "id": "OK", "Election_Jurisdiction": "OK"}, "Election_Type": {"token": "c-r-t", "id": "1", "Election_Type": "Standard"}, "#_of_Records": {"#_of_Records": "0"}}, {"General_Party": {"General_Party": "Democratic", "token": "c-t-p", "id": "1"}, "Office_Sought": {"Office_Sought": "HOUSE DISTRICT 073", "token": "c-r-osid", "id": "6234"}, "Election_Year": {"token": "y", "id": "2015", "Election_Year": "2015"}, "Candidate": {"token": "c-t-id", "id": "192110", "Candidate": "WILLIAMS, JEANETTA D"}, "Candidate_Entity": {"token": "c-t-eid", "id": "32115361", "Candidate_Entity": "WILLIAMS, JEANETTA D"}, "Election_Status": {"Election_Status": "Lost-General", "token": "c-t-ftsts", "id": "Lost-General"}, "Total_$": {"Total_$": "2893.54"}, "Incumbency_Status": {"token": "c-t-ico", "Incumbency_Status": "Open", "id": "O"}, "request": "s=OK&y=2015,2016&f-core=1&c-exi=1&c-t-id=192110", "Specific_Party": {"token": "c-t-pt", "Specific_Party": "DEMOCRATIC", "id": "33"}, "record_id": 404, "Election_Jurisdiction": {"token": "s", "id": "OK", "Election_Jurisdiction": "OK"}, "Election_Type": {"token": "c-r-t", "id": "3", "Election_Type": "Special"}, "#_of_Records": {"#_of_Records": "19"}}, {"General_Party": {"General_Party": "Democratic", "token": "c-t-p", "id": "1"}, "Office_Sought": {"Office_Sought": "HOUSE DISTRICT 073", "token": "c-r-osid", "id": "6234"}, "Election_Year": {"token": "y", "id": "2015", "Election_Year": "2015"}, "Candidate": {"token": "c-t-id", "id": "192112", "Candidate": "WILLIAMS, JOE"}, "Candidate_Entity": {"token": "c-t-eid", "id": "32115363", "Candidate_Entity": "WILLIAMS, JOE"}, "Election_Status": {"Election_Status": "Lost-General", "token": "c-t-ftsts", "id": "Lost-General"}, "Total_$": {"Total_$": "10219.24"}, "Incumbency_Status": {"token": "c-t-ico", "Incumbency_Status": "Open", "id": "O"}, "request": "s=OK&y=2015,2016&f-core=1&c-exi=1&c-t-id=192112", "Specific_Party": {"token": "c-t-pt", "Specific_Party": "DEMOCRATIC", "id": "33"}, "record_id": 405, "Election_Jurisdiction": {"token": "s", "id": "OK", "Election_Jurisdiction": "OK"}, "Election_Type": {"token": "c-r-t", "id": "3", "Election_Type": "Special"}, "#_of_Records": {"#_of_Records": "30"}}, {"General_Party": {"General_Party": "Democratic", "token": "c-t-p", "id": "1"}, "Office_Sought": {"Office_Sought": "SENATE DISTRICT 005", "token": "c-r-osid", "id": "6267"}, "Election_Year": {"token": "y", "id": "2016", "Election_Year": "2016"}, "Candidate": {"token": "c-t-id", "id": "207615", "Candidate": "WILLIAMS, JOHN ALLEN"}, "Candidate_Entity": {"token": "c-t-eid", "id": "39828104", "Candidate_Entity": "WILLIAMS, JOHN ALLEN"}, "Election_Status": {"Election_Status": "Lost-Primary", "token": "c-t-ftsts", "id": "Lost-Primary"}, "Total_$": {"Total_$": "0.00"}, "Incumbency_Status": {"token": "c-t-ico", "Incumbency_Status": "Open", "id": "O"}, "request": "s=OK&y=2015,2016&f-core=1&c-exi=1&c-t-id=207615", "Specific_Party": {"token": "c-t-pt", "Specific_Party": "DEMOCRATIC", "id": "33"}, "record_id": 406, "Election_Jurisdiction": {"token": "s", "id": "OK", "Election_Jurisdiction": "OK"}, "Election_Type": {"token": "c-r-t", "id": "1", "Election_Type": "Standard"}, "#_of_Records": {"#_of_Records": "0"}}, {"General_Party": {"General_Party": "Republican", "token": "c-t-p", "id": "2"}, "Office_Sought": {"Office_Sought": "SENATE DISTRICT 034", "token": "c-r-osid", "id": "6296"}, "Election_Year": {"token": "y", "id": "2016", "Election_Year": "2016"}, "Candidate": {"token": "c-t-id", "id": "194511", "Candidate": "WILLIAMS, MARK"}, "Candidate_Entity": {"token": "c-t-eid", "id": "37971502", "Candidate_Entity": "WILLIAMS, MARK"}, "Election_Status": {"Election_Status": "Lost-Primary", "token": "c-t-ftsts", "id": "Lost-Primary"}, "Total_$": {"Total_$": "12025.58"}, "Incumbency_Status": {"token": "c-t-ico", "Incumbency_Status": "Open", "id": "O"}, "request": "s=OK&y=2015,2016&f-core=1&c-exi=1&c-t-id=194511", "Specific_Party": {"token": "c-t-pt", "Specific_Party": "REPUBLICAN", "id": "139"}, "record_id": 407, "Election_Jurisdiction": {"token": "s", "id": "OK", "Election_Jurisdiction": "OK"}, "Election_Type": {"token": "c-r-t", "id": "3", "Election_Type": "Special"}, "#_of_Records": {"#_of_Records": "31"}}, {"General_Party": {"General_Party": "Democratic", "token": "c-t-p", "id": "1"}, "Office_Sought": {"Office_Sought": "US SENATE DISTRICT OK SW-CLASS III", "token": "c-r-osid", "id": "14960"}, "Election_Year": {"token": "y", "id": "2016", "Election_Year": "2016"}, "Candidate": {"token": "c-t-id", "id": "207733", "Candidate": "WORKMAN, MIKE"}, "Candidate_Entity": {"token": "c-t-eid", "id": "6477326", "Candidate_Entity": "WORKMAN, MIKE"}, "Election_Status": {"Election_Status": "Default Winner-Primary", "token": "c-t-ftsts", "id": "Default Winner-Primary"}, "Total_$": {"Total_$": "0.00"}, "Incumbency_Status": {"token": "c-t-ico", "Incumbency_Status": "Open", "id": "O"}, "request": "s=OK&y=2015,2016&f-core=1&c-exi=1&c-t-id=207733", "Specific_Party": {"token": "c-t-pt", "Specific_Party": "DEMOCRATIC", "id": "33"}, "record_id": 408, "Election_Jurisdiction": {"token": "s", "id": "OK", "Election_Jurisdiction": "OK"}, "Election_Type": {"token": "c-r-t", "id": "1", "Election_Type": "Standard"}, "#_of_Records": {"#_of_Records": "0"}}, {"General_Party": {"General_Party": "Republican", "token": "c-t-p", "id": "2"}, "Office_Sought": {"Office_Sought": "HOUSE DISTRICT 064", "token": "c-r-osid", "id": "6225"}, "Election_Year": {"token": "y", "id": "2016", "Election_Year": "2016"}, "Candidate": {"token": "c-t-id", "id": "207489", "Candidate": "WORTHEN, RANDE"}, "Candidate_Entity": {"token": "c-t-eid", "id": "39828006", "Candidate_Entity": "WORTHEN, RANDE"}, "Election_Status": {"Election_Status": "Won-Primary", "token": "c-t-ftsts", "id": "Won-Primary"}, "Total_$": {"Total_$": "0.00"}, "Incumbency_Status": {"token": "c-t-ico", "Incumbency_Status": "Open", "id": "O"}, "request": "s=OK&y=2015,2016&f-core=1&c-exi=1&c-t-id=207489", "Specific_Party": {"token": "c-t-pt", "Specific_Party": "REPUBLICAN", "id": "139"}, "record_id": 409, "Election_Jurisdiction": {"token": "s", "id": "OK", "Election_Jurisdiction": "OK"}, "Election_Type": {"token": "c-r-t", "id": "1", "Election_Type": "Standard"}, "#_of_Records": {"#_of_Records": "0"}}, {"General_Party": {"General_Party": "Third-Party", "token": "c-t-p", "id": "3"}, "Office_Sought": {"Office_Sought": "HOUSE DISTRICT 100", "token": "c-r-osid", "id": "6261"}, "Election_Year": {"token": "y", "id": "2016", "Election_Year": "2016"}, "Candidate": {"token": "c-t-id", "id": "207599", "Candidate": "WRIGHT, CHRISTINA"}, "Candidate_Entity": {"token": "c-t-eid", "id": "39828090", "Candidate_Entity": "WRIGHT, CHRISTINA"}, "Election_Status": {"Election_Status": "Pending-General", "token": "c-t-ftsts", "id": "Pending-General"}, "Total_$": {"Total_$": "0.00"}, "Incumbency_Status": {"token": "c-t-ico", "Incumbency_Status": "Open", "id": "O"}, "request": "s=OK&y=2015,2016&f-core=1&c-exi=1&c-t-id=207599", "Specific_Party": {"token": "c-t-pt", "Specific_Party": "LIBERTARIAN", "id": "73"}, "record_id": 410, "Election_Jurisdiction": {"token": "s", "id": "OK", "Election_Jurisdiction": "OK"}, "Election_Type": {"token": "c-r-t", "id": "1", "Election_Type": "Standard"}, "#_of_Records": {"#_of_Records": "0"}}, {"General_Party": {"General_Party": "Republican", "token": "c-t-p", "id": "2"}, "Office_Sought": {"Office_Sought": "HOUSE DISTRICT 057", "token": "c-r-osid", "id": "6218"}, "Election_Year": {"token": "y", "id": "2016", "Election_Year": "2016"}, "Candidate": {"token": "c-t-id", "id": "207467", "Candidate": "WRIGHT, HAROLD"}, "Candidate_Entity": {"token": "c-t-eid", "id": "6676677", "Candidate_Entity": "WRIGHT, HAROLD"}, "Election_Status": {"Election_Status": "Default Winner-Primary", "token": "c-t-ftsts", "id": "Default Winner-Primary"}, "Total_$": {"Total_$": "46851.12"}, "Incumbency_Status": {"token": "c-t-ico", "Incumbency_Status": "Incumbent", "id": "I"}, "request": "s=OK&y=2015,2016&f-core=1&c-exi=1&c-t-id=207467", "Specific_Party": {"token": "c-t-pt", "Specific_Party": "REPUBLICAN", "id": "139"}, "record_id": 411, "Election_Jurisdiction": {"token": "s", "id": "OK", "Election_Jurisdiction": "OK"}, "Election_Type": {"token": "c-r-t", "id": "1", "Election_Type": "Standard"}, "#_of_Records": {"#_of_Records": "45"}}, {"General_Party": {"General_Party": "Democratic", "token": "c-t-p", "id": "1"}, "Office_Sought": {"Office_Sought": "HOUSE DISTRICT 067", "token": "c-r-osid", "id": "6228"}, "Election_Year": {"token": "y", "id": "2016", "Election_Year": "2016"}, "Candidate": {"token": "c-t-id", "id": "207498", "Candidate": "WRIGHT, LORI DECTER"}, "Candidate_Entity": {"token": "c-t-eid", "id": "39828014", "Candidate_Entity": "WRIGHT, LORI DECTER"}, "Election_Status": {"Election_Status": "Default Winner-Primary", "token": "c-t-ftsts", "id": "Default Winner-Primary"}, "Total_$": {"Total_$": "0.00"}, "Incumbency_Status": {"token": "c-t-ico", "Incumbency_Status": "Open", "id": "O"}, "request": "s=OK&y=2015,2016&f-core=1&c-exi=1&c-t-id=207498", "Specific_Party": {"token": "c-t-pt", "Specific_Party": "DEMOCRATIC", "id": "33"}, "record_id": 412, "Election_Jurisdiction": {"token": "s", "id": "OK", "Election_Jurisdiction": "OK"}, "Election_Type": {"token": "c-r-t", "id": "1", "Election_Type": "Standard"}, "#_of_Records": {"#_of_Records": "0"}}, {"General_Party": {"General_Party": "Democratic", "token": "c-t-p", "id": "1"}, "Office_Sought": {"Office_Sought": "HOUSE DISTRICT 071", "token": "c-r-osid", "id": "6232"}, "Election_Year": {"token": "y", "id": "2016", "Election_Year": "2016"}, "Candidate": {"token": "c-t-id", "id": "207508", "Candidate": "YORK, MILLIE HARDESTY"}, "Candidate_Entity": {"token": "c-t-eid", "id": "39828022", "Candidate_Entity": "YORK, MILLIE HARDESTY"}, "Election_Status": {"Election_Status": "Default Winner-Primary", "token": "c-t-ftsts", "id": "Default Winner-Primary"}, "Total_$": {"Total_$": "0.00"}, "Incumbency_Status": {"token": "c-t-ico", "Incumbency_Status": "Open", "id": "O"}, "request": "s=OK&y=2015,2016&f-core=1&c-exi=1&c-t-id=207508", "Specific_Party": {"token": "c-t-pt", "Specific_Party": "DEMOCRATIC", "id": "33"}, "record_id": 413, "Election_Jurisdiction": {"token": "s", "id": "OK", "Election_Jurisdiction": "OK"}, "Election_Type": {"token": "c-r-t", "id": "1", "Election_Type": "Standard"}, "#_of_Records": {"#_of_Records": "0"}}, {"General_Party": {"General_Party": "Democratic", "token": "c-t-p", "id": "1"}, "Office_Sought": {"Office_Sought": "HOUSE DISTRICT 099", "token": "c-r-osid", "id": "6260"}, "Election_Year": {"token": "y", "id": "2016", "Election_Year": "2016"}, "Candidate": {"token": "c-t-id", "id": "207597", "Candidate": "YOUNG, GEORGE E"}, "Candidate_Entity": {"token": "c-t-eid", "id": "23442395", "Candidate_Entity": "YOUNG, GEORGE E"}, "Election_Status": {"Election_Status": "Default Winner-Primary", "token": "c-t-ftsts", "id": "Default Winner-Primary"}, "Total_$": {"Total_$": "0.00"}, "Incumbency_Status": {"token": "c-t-ico", "Incumbency_Status": "Incumbent", "id": "I"}, "request": "s=OK&y=2015,2016&f-core=1&c-exi=1&c-t-id=207597", "Specific_Party": {"token": "c-t-pt", "Specific_Party": "DEMOCRATIC", "id": "33"}, "record_id": 414, "Election_Jurisdiction": {"token": "s", "id": "OK", "Election_Jurisdiction": "OK"}, "Election_Type": {"token": "c-r-t", "id": "1", "Election_Type": "Standard"}, "#_of_Records": {"#_of_Records": "0"}}], "metaInfo": {"sorting": {"currentSorting": {"c-t-id": "Candidate"}, "sortLink": "so=c-t-id&sod=0", "availableSorting": {"c-r-osid": "Office_Sought", "u-tot": "Total_$", "c-t-pt": "Specific_Party", "c-t-ftsts": "Election_Status", "s": "Election_Jurisdiction", "c-r-t": "Election_Type", "y": "Election_Year", "c-t-p": "General_Party", "c-t-ico": "Incumbency_Status", "u-rec": "#_of_Records"}, "sortingDirection": "descending"}, "completeness": {"allReports": "4614", "completeReports": "2797", "availableReports": "3525", "lastUpdated": "2016-07-12 07:28:00", "incompleteAvailable": "728", "mostRecentReportDate": "2016-01-31"}, "format": "json", "recordFormat": {"General_Party": {"General_Party": "display value", "token": "c-t-p", "id": "token value"}, "Office_Sought": {"Office_Sought": "display value", "token": "c-r-osid", "id": "token value"}, "Election_Year": {"token": "y", "id": "token value", "Election_Year": "display value"}, "Candidate": {"token": "c-t-id", "id": "token value", "Candidate": "display value"}, "Candidate_Entity": {"token": "c-t-eid", "id": "token value", "Candidate_Entity": "display value"}, "Total_$": {"Total_$": "display value"}, "Incumbency_Status": {"token": "c-t-ico", "Incumbency_Status": "display value", "id": "token value"}, "request": "s=OK&y=2015,2016&f-core=1&c-exi=1", "Specific_Party": {"token": "c-t-pt", "Specific_Party": "display value", "id": "token value"}, "Election_Status": {"Election_Status": "display value", "token": "c-t-ftsts", "id": "token value"}, "Election_Jurisdiction": {"token": "s", "id": "token value", "Election_Jurisdiction": "display value"}, "Election_Type": {"token": "c-r-t", "id": "token value", "Election_Type": "display value"}, "#_of_Records": {"#_of_Records": "display value"}}, "paging": {"totalRecords": "414", "minPage": 0, "recordsThisPage": 14, "pageLink": "p=4", "maxPage": 4, "recordsPerPage": 100, "totalPages": 5, "currentPage": 4}, "grouping": {"availableGrouping": {"d-et": "Type of Contributor (Contributors)", "d-empl": "Employer (Contributors)", "d-amt": "Amount (Advanced)", "d-id": "Record (Contributors)", "d-typ": "Type of Transaction (Advanced)", "f-eid": "Filer (General)", "c-t-i": "Incumbency Data (Advanced)", "d-cci": "General Industry (Contributors)", "d-ccg": "Broad Sector (Contributors)", "d-ccb": "Specific Business (Contributors)", "d-ad-zip": "Zip (Contributors)", "c-t-sts": "Status of Candidate (Candidates)", "d-nme": "Original Name (Advanced)", "c-t-icod": "Incumbency Advantage (Advanced)", "d-ins": "In-Jurisdiction (Contributors)", "d-ad-cty": "City (Contributors)", "d-occupation": "Occupation (Contributors)", "d-search": "DND (Advanced)", "d-ludte": "Last Updated (Advanced)", "d-file": "DND (Advanced)", "d-ad-str": "Street (Advanced)", "d-dte": "Date (Advanced)", "d-ad-st": "State (Contributors)", "f-y": "Filing Year (Advanced)", "f-s": "Filing Jurisdiction (General)", "d-eid": "Contributor (Contributors)", "d-llink": "Lobbying Entity? (Advanced)"}, "currentGrouping": {"c-t-id": "Candidate (General)"}, "groupLink": "gro=c-t-id"}}}