{"records": [{"General_Party": {"General_Party": "Republican", "token": "c-t-p", "id": "2"}, "Office_Sought": {"Office_Sought": "HOUSE DISTRICT 026", "token": "c-r-osid", "id": "6362"}, "Election_Year": {"token": "y", "id": "2016", "Election_Year": "2016"}, "Candidate": {"token": "c-t-id", "id": "197684", "Candidate": "WINGARD, MATTHEW"}, "Candidate_Entity": {"token": "c-t-eid", "id": "6674885", "Candidate_Entity": "WINGARD, MATTHEW"}, "Election_Status": {"Election_Status": "Lost-Primary", "token": "c-t-ftsts", "id": "Lost-Primary"}, "Total_$": {"Total_$": "9255.00"}, "Incumbency_Status": {"token": "c-t-ico", "Incumbency_Status": "Open", "id": "O"}, "request": "s=OR&y=2015,2016&f-core=1&c-exi=1&c-t-id=197684", "Specific_Party": {"token": "c-t-pt", "Specific_Party": "REPUBLICAN", "id": "139"}, "record_id": 201, "Election_Jurisdiction": {"token": "s", "id": "OR", "Election_Jurisdiction": "OR"}, "Election_Type": {"token": "c-r-t", "id": "1", "Election_Type": "Standard"}, "#_of_Records": {"#_of_Records": "14"}}, {"General_Party": {"General_Party": "Democratic", "token": "c-t-p", "id": "1"}, "Office_Sought": {"Office_Sought": "HOUSE DISTRICT 031", "token": "c-r-osid", "id": "6367"}, "Election_Year": {"token": "y", "id": "2016", "Election_Year": "2016"}, "Candidate": {"token": "c-t-id", "id": "197695", "Candidate": "WITT, BRADLEY K"}, "Candidate_Entity": {"token": "c-t-eid", "id": "5514759", "Candidate_Entity": "WITT, BRADLEY K"}, "Election_Status": {"Election_Status": "Pending-General", "token": "c-t-ftsts", "id": "Pending-General"}, "Total_$": {"Total_$": "51121.00"}, "Incumbency_Status": {"token": "c-t-ico", "Incumbency_Status": "Incumbent", "id": "I"}, "request": "s=OR&y=2015,2016&f-core=1&c-exi=1&c-t-id=197695", "Specific_Party": {"token": "c-t-pt", "Specific_Party": "DEMOCRATIC", "id": "33"}, "record_id": 202, "Election_Jurisdiction": {"token": "s", "id": "OR", "Election_Jurisdiction": "OR"}, "Election_Type": {"token": "c-r-t", "id": "1", "Election_Type": "Standard"}, "#_of_Records": {"#_of_Records": "70"}}, {"General_Party": {"General_Party": "Democratic", "token": "c-t-p", "id": "1"}, "Office_Sought": {"Office_Sought": "US HOUSE DISTRICT OR 001", "token": "c-r-osid", "id": "15294"}, "Election_Year": {"token": "y", "id": "2016", "Election_Year": "2016"}, "Candidate": {"token": "c-t-id", "id": "197822", "Candidate": "WOODLEY, SHABBA"}, "Candidate_Entity": {"token": "c-t-eid", "id": "39434588", "Candidate_Entity": "WOODLEY, SHABBA"}, "Election_Status": {"Election_Status": "Lost-Primary", "token": "c-t-ftsts", "id": "Lost-Primary"}, "Total_$": {"Total_$": "0.00"}, "Incumbency_Status": {"token": "c-t-ico", "Incumbency_Status": "Challenger", "id": "C"}, "request": "s=OR&y=2015,2016&f-core=1&c-exi=1&c-t-id=197822", "Specific_Party": {"token": "c-t-pt", "Specific_Party": "DEMOCRATIC", "id": "33"}, "record_id": 203, "Election_Jurisdiction": {"token": "s", "id": "OR", "Election_Jurisdiction": "OR"}, "Election_Type": {"token": "c-r-t", "id": "1", "Election_Type": "Standard"}, "#_of_Records": {"#_of_Records": "0"}}, {"General_Party": {"General_Party": "Democratic", "token": "c-t-p", "id": "1"}, "Office_Sought": {"Office_Sought": "US SENATE DISTRICT OR SW-CLASS III", "token": "c-r-osid", "id": "14961"}, "Election_Year": {"token": "y", "id": "2016", "Election_Year": "2016"}, "Candidate": {"token": "c-t-id", "id": "197831", "Candidate": "WYDEN, RON"}, "Candidate_Entity": {"token": "c-t-eid", "id": "5397600", "Candidate_Entity": "WYDEN, RON"}, "Election_Status": {"Election_Status": "Pending-General", "token": "c-t-ftsts", "id": "Pending-General"}, "Total_$": {"Total_$": "7716295.83"}, "Incumbency_Status": {"token": "c-t-ico", "Incumbency_Status": "Incumbent", "id": "I"}, "request": "s=OR&y=2015,2016&f-core=1&c-exi=1&c-t-id=197831", "Specific_Party": {"token": "c-t-pt", "Specific_Party": "DEMOCRATIC", "id": "33"}, "record_id": 204, "Election_Jurisdiction": {"token": "s", "id": "OR", "Election_Jurisdiction": "OR"}, "Election_Type": {"token": "c-r-t", "id": "1", "Election_Type": "Standard"}, "#_of_Records": {"#_of_Records": "4684"}}, {"General_Party": {"General_Party": "Republican", "token": "c-t-p", "id": "2"}, "Office_Sought": {"Office_Sought": "HOUSE DISTRICT 048", "token": "c-r-osid", "id": "6384"}, "Election_Year": {"token": "y", "id": "2016", "Election_Year": "2016"}, "Candidate": {"token": "c-t-id", "id": "197730", "Candidate": "YELLOTT, GEORGE W (SONNY)"}, "Candidate_Entity": {"token": "c-t-eid", "id": "10886259", "Candidate_Entity": "YELLOTT, GEORGE W (SONNY)"}, "Election_Status": {"Election_Status": "Pending-General", "token": "c-t-ftsts", "id": "Pending-General"}, "Total_$": {"Total_$": "0.00"}, "Incumbency_Status": {"token": "c-t-ico", "Incumbency_Status": "Challenger", "id": "C"}, "request": "s=OR&y=2015,2016&f-core=1&c-exi=1&c-t-id=197730", "Specific_Party": {"token": "c-t-pt", "Specific_Party": "REPUBLICAN", "id": "139"}, "record_id": 205, "Election_Jurisdiction": {"token": "s", "id": "OR", "Election_Jurisdiction": "OR"}, "Election_Type": {"token": "c-r-t", "id": "1", "Election_Type": "Standard"}, "#_of_Records": {"#_of_Records": "0"}}], "metaInfo": {"sorting": {"currentSorting": {"c-t-id": "Candidate"}, "sortLink": "so=c-t-id&sod=0", "availableSorting": {"c-r-osid": "Office_Sought", "u-tot": "Total_$", "c-t-pt": "Specific_Party", "c-t-ftsts": "Election_Status", "s": "Election_Jurisdiction", "c-r-t": "Election_Type", "y": "Election_Year", "c-t-p": "General_Party", "c-t-ico": "Incumbency_Status", "u-rec": "#_of_Records"}, "sortingDirection": "descending"}, "completeness": {"allReports": "1711", "completeReports": "1010", "availableReports": "1359", "lastUpdated": "2016-07-29 09:09:21", "incompleteAvailable": "349", "mostRecentReportDate": "2016-05-01"}, "format": "json", "recordFormat": {"General_Party": {"General_Party": "display value", "token": "c-t-p", "id": "token value"}, "Office_Sought": {"Office_Sought": "display value", "token": "c-r-osid", "id": "token value"}, "Election_Year": {"token": "y", "id": "token value", "Election_Year": "display value"}, "Candidate": {"token": "c-t-id", "id": "token value", "Candidate": "display value"}, "Candidate_Entity": {"token": "c-t-eid", "id": "token value", "Candidate_Entity": "display value"}, "Total_$": {"Total_$": "display value"}, "Incumbency_Status": {"token": "c-t-ico", "Incumbency_Status": "display value", "id": "token value"}, "request": "s=OR&y=2015,2016&f-core=1&c-exi=1", "Specific_Party": {"token": "c-t-pt", "Specific_Party": "display value", "id": "token value"}, "Election_Status": {"Election_Status": "display value", "token": "c-t-ftsts", "id": "token value"}, "Election_Jurisdiction": {"token": "s", "id": "token value", "Election_Jurisdiction": "display value"}, "Election_Type": {"token": "c-r-t", "id": "token value", "Election_Type": "display value"}, "#_of_Records": {"#_of_Records": "display value"}}, "paging": {"totalRecords": "205", "minPage": 0, "recordsThisPage": 5, "pageLink": "p=2", "maxPage": 2, "recordsPerPage": 100, "totalPages": 3, "currentPage": 2}, "grouping": {"availableGrouping": {"d-et": "Type of Contributor (Contributors)", "d-empl": "Employer (Contributors)", "d-amt": "Amount (Advanced)", "d-id": "Record (Contributors)", "d-typ": "Type of Transaction (Advanced)", "f-eid": "Filer (General)", "c-t-i": "Incumbency Data (Advanced)", "d-cci": "General Industry (Contributors)", "d-ccg": "Broad Sector (Contributors)", "d-ccb": "Specific Business (Contributors)", "d-ad-zip": "Zip (Contributors)", "c-t-sts": "Status of Candidate (Candidates)", "d-nme": "Original Name (Advanced)", "c-t-icod": "Incumbency Advantage (Advanced)", "d-ins": "In-Jurisdiction (Contributors)", "d-ad-cty": "City (Contributors)", "d-occupation": "Occupation (Contributors)", "d-search": "DND (Advanced)", "d-ludte": "Last Updated (Advanced)", "d-file": "DND (Advanced)", "d-ad-str": "Street (Advanced)", "d-dte": "Date (Advanced)", "d-ad-st": "State (Contributors)", "f-y": "Filing Year (Advanced)", "f-s": "Filing Jurisdiction (General)", "d-eid": "Contributor (Contributors)", "d-llink": "Lobbying Entity? (Advanced)"}, "currentGrouping": {"c-t-id": "Candidate (General)"}, "groupLink": "gro=c-t-id"}}}