{"records": [{"General_Party": {"General_Party": "Republican", "token": "c-t-p", "id": "2"}, "Office_Sought": {"Office_Sought": "SENATE DISTRICT 035", "token": "c-r-osid", "id": "6677"}, "Election_Year": {"token": "y", "id": "2016", "Election_Year": "2016"}, "Candidate": {"token": "c-t-id", "id": "197979", "Candidate": "WINCK JR, DWIGHT A"}, "Candidate_Entity": {"token": "c-t-eid", "id": "39434710", "Candidate_Entity": "WINCK JR, DWIGHT A"}, "Election_Status": {"Election_Status": "Lost-Primary", "token": "c-t-ftsts", "id": "Lost-Primary"}, "Total_$": {"Total_$": "11480.00"}, "Incumbency_Status": {"token": "c-t-ico", "Incumbency_Status": "Open", "id": "O"}, "request": "s=PA&y=2015,2016&f-core=1&c-exi=1&c-t-id=197979", "Specific_Party": {"token": "c-t-pt", "Specific_Party": "REPUBLICAN", "id": "139"}, "record_id": 501, "Election_Jurisdiction": {"token": "s", "id": "PA", "Election_Jurisdiction": "PA"}, "Election_Type": {"token": "c-r-t", "id": "1", "Election_Type": "Standard"}, "#_of_Records": {"#_of_Records": "24"}}, {"General_Party": {"General_Party": "Democratic", "token": "c-t-p", "id": "1"}, "Office_Sought": {"Office_Sought": "APPELLATE COMMONWEALTH-OPEN SEAT 1", "token": "c-r-osid", "id": "18154"}, "Election_Year": {"token": "y", "id": "2015", "Election_Year": "2015"}, "Candidate": {"token": "c-t-id", "id": "183572", "Candidate": "WOJCIK, MICHAEL"}, "Candidate_Entity": {"token": "c-t-eid", "id": "5486698", "Candidate_Entity": "WOJCIK, MICHAEL"}, "Election_Status": {"Election_Status": "Won-General", "token": "c-t-ftsts", "id": "Won-General"}, "Total_$": {"Total_$": "195105.62"}, "Incumbency_Status": {"token": "c-t-ico", "Incumbency_Status": "Open", "id": "O"}, "request": "s=PA&y=2015,2016&f-core=1&c-exi=1&c-t-id=183572", "Specific_Party": {"token": "c-t-pt", "Specific_Party": "DEMOCRATIC", "id": "33"}, "record_id": 502, "Election_Jurisdiction": {"token": "s", "id": "PA", "Election_Jurisdiction": "PA"}, "Election_Type": {"token": "c-r-t", "id": "1", "Election_Type": "Standard"}, "#_of_Records": {"#_of_Records": "375"}}, {"General_Party": {"General_Party": "Democratic", "token": "c-t-p", "id": "1"}, "Office_Sought": {"Office_Sought": "HOUSE DISTRICT 019", "token": "c-r-osid", "id": "6456"}, "Election_Year": {"token": "y", "id": "2016", "Election_Year": "2016"}, "Candidate": {"token": "c-t-id", "id": "198024", "Candidate": "WOLFE, JESSICA Z"}, "Candidate_Entity": {"token": "c-t-eid", "id": "39434755", "Candidate_Entity": "WOLFE, JESSICA Z"}, "Election_Status": {"Election_Status": "Lost-Primary", "token": "c-t-ftsts", "id": "Lost-Primary"}, "Total_$": {"Total_$": "22328.36"}, "Incumbency_Status": {"token": "c-t-ico", "Incumbency_Status": "Challenger", "id": "C"}, "request": "s=PA&y=2015,2016&f-core=1&c-exi=1&c-t-id=198024", "Specific_Party": {"token": "c-t-pt", "Specific_Party": "DEMOCRATIC", "id": "33"}, "record_id": 503, "Election_Jurisdiction": {"token": "s", "id": "PA", "Election_Jurisdiction": "PA"}, "Election_Type": {"token": "c-r-t", "id": "1", "Election_Type": "Standard"}, "#_of_Records": {"#_of_Records": "51"}}, {"General_Party": {"General_Party": "Democratic", "token": "c-t-p", "id": "1"}, "Office_Sought": {"Office_Sought": "SUPREME COURT-OPEN SEAT 1 & 2 & 3", "token": "c-r-osid", "id": "18195"}, "Election_Year": {"token": "y", "id": "2015", "Election_Year": "2015"}, "Candidate": {"token": "c-t-id", "id": "183564", "Candidate": "WOODRUFF, DWAYNE D"}, "Candidate_Entity": {"token": "c-t-eid", "id": "29172721", "Candidate_Entity": "WOODRUFF, DWAYNE D"}, "Election_Status": {"Election_Status": "Lost-Primary", "token": "c-t-ftsts", "id": "Lost-Primary"}, "Total_$": {"Total_$": "79607.87"}, "Incumbency_Status": {"token": "c-t-ico", "Incumbency_Status": "Open", "id": "O"}, "request": "s=PA&y=2015,2016&f-core=1&c-exi=1&c-t-id=183564", "Specific_Party": {"token": "c-t-pt", "Specific_Party": "DEMOCRATIC", "id": "33"}, "record_id": 504, "Election_Jurisdiction": {"token": "s", "id": "PA", "Election_Jurisdiction": "PA"}, "Election_Type": {"token": "c-r-t", "id": "1", "Election_Type": "Standard"}, "#_of_Records": {"#_of_Records": "189"}}, {"General_Party": {"General_Party": "Democratic", "token": "c-t-p", "id": "1"}, "Office_Sought": {"Office_Sought": "SENATE DISTRICT 035", "token": "c-r-osid", "id": "6677"}, "Election_Year": {"token": "y", "id": "2016", "Election_Year": "2016"}, "Candidate": {"token": "c-t-id", "id": "197977", "Candidate": "WOZNIAK, JOHN N"}, "Candidate_Entity": {"token": "c-t-eid", "id": "6387331", "Candidate_Entity": "WOZNIAK, JOHN N"}, "Election_Status": {"Election_Status": "Pending-General", "token": "c-t-ftsts", "id": "Pending-General"}, "Total_$": {"Total_$": "150040.00"}, "Incumbency_Status": {"token": "c-t-ico", "Incumbency_Status": "Incumbent", "id": "I"}, "request": "s=PA&y=2015,2016&f-core=1&c-exi=1&c-t-id=197977", "Specific_Party": {"token": "c-t-pt", "Specific_Party": "DEMOCRATIC", "id": "33"}, "record_id": 505, "Election_Jurisdiction": {"token": "s", "id": "PA", "Election_Jurisdiction": "PA"}, "Election_Type": {"token": "c-r-t", "id": "1", "Election_Type": "Standard"}, "#_of_Records": {"#_of_Records": "291"}}, {"General_Party": {"General_Party": "Republican", "token": "c-t-p", "id": "2"}, "Office_Sought": {"Office_Sought": "SENATE DISTRICT 023", "token": "c-r-osid", "id": "6665"}, "Election_Year": {"token": "y", "id": "2016", "Election_Year": "2016"}, "Candidate": {"token": "c-t-id", "id": "197967", "Candidate": "YAW, EMERSON EUGENE (GENE)"}, "Candidate_Entity": {"token": "c-t-eid", "id": "39434698", "Candidate_Entity": "YAW, EMERSON EUGENE (GENE)"}, "Election_Status": {"Election_Status": "Pending-General", "token": "c-t-ftsts", "id": "Pending-General"}, "Total_$": {"Total_$": "124834.06"}, "Incumbency_Status": {"token": "c-t-ico", "Incumbency_Status": "Incumbent", "id": "I"}, "request": "s=PA&y=2015,2016&f-core=1&c-exi=1&c-t-id=197967", "Specific_Party": {"token": "c-t-pt", "Specific_Party": "REPUBLICAN", "id": "139"}, "record_id": 506, "Election_Jurisdiction": {"token": "s", "id": "PA", "Election_Jurisdiction": "PA"}, "Election_Type": {"token": "c-r-t", "id": "1", "Election_Type": "Standard"}, "#_of_Records": {"#_of_Records": "357"}}, {"General_Party": {"General_Party": "Democratic", "token": "c-t-p", "id": "1"}, "Office_Sought": {"Office_Sought": "HOUSE DISTRICT 198", "token": "c-r-osid", "id": "6635"}, "Election_Year": {"token": "y", "id": "2016", "Election_Year": "2016"}, "Candidate": {"token": "c-t-id", "id": "198365", "Candidate": "YOUNGBLOOD, ROSITA C"}, "Candidate_Entity": {"token": "c-t-eid", "id": "6376322", "Candidate_Entity": "YOUNGBLOOD, ROSITA C"}, "Election_Status": {"Election_Status": "Pending-General", "token": "c-t-ftsts", "id": "Pending-General"}, "Total_$": {"Total_$": "19865.00"}, "Incumbency_Status": {"token": "c-t-ico", "Incumbency_Status": "Incumbent", "id": "I"}, "request": "s=PA&y=2015,2016&f-core=1&c-exi=1&c-t-id=198365", "Specific_Party": {"token": "c-t-pt", "Specific_Party": "DEMOCRATIC", "id": "33"}, "record_id": 507, "Election_Jurisdiction": {"token": "s", "id": "PA", "Election_Jurisdiction": "PA"}, "Election_Type": {"token": "c-r-t", "id": "1", "Election_Type": "Standard"}, "#_of_Records": {"#_of_Records": "53"}}, {"General_Party": {"General_Party": "Democratic", "token": "c-t-p", "id": "1"}, "Office_Sought": {"Office_Sought": "HOUSE DISTRICT 040", "token": "c-r-osid", "id": "6477"}, "Election_Year": {"token": "y", "id": "2016", "Election_Year": "2016"}, "Candidate": {"token": "c-t-id", "id": "198059", "Candidate": "ZAHALSKY, ANDREW J"}, "Candidate_Entity": {"token": "c-t-eid", "id": "39434790", "Candidate_Entity": "ZAHALSKY, ANDREW J"}, "Election_Status": {"Election_Status": "Pending-General", "token": "c-t-ftsts", "id": "Pending-General"}, "Total_$": {"Total_$": "50000.00"}, "Incumbency_Status": {"token": "c-t-ico", "Incumbency_Status": "Challenger", "id": "C"}, "request": "s=PA&y=2015,2016&f-core=1&c-exi=1&c-t-id=198059", "Specific_Party": {"token": "c-t-pt", "Specific_Party": "DEMOCRATIC", "id": "33"}, "record_id": 508, "Election_Jurisdiction": {"token": "s", "id": "PA", "Election_Jurisdiction": "PA"}, "Election_Type": {"token": "c-r-t", "id": "1", "Election_Type": "Standard"}, "#_of_Records": {"#_of_Records": "1"}}, {"General_Party": {"General_Party": "Democratic", "token": "c-t-p", "id": "1"}, "Office_Sought": {"Office_Sought": "ATTORNEY GENERAL", "token": "c-r-osid", "id": "9390"}, "Election_Year": {"token": "y", "id": "2016", "Election_Year": "2016"}, "Candidate": {"token": "c-t-id", "id": "197886", "Candidate": "ZAPPALA JR, STEPHEN A"}, "Candidate_Entity": {"token": "c-t-eid", "id": "39434617", "Candidate_Entity": "ZAPPALA JR, STEPHEN A"}, "Election_Status": {"Election_Status": "Lost-Primary", "token": "c-t-ftsts", "id": "Lost-Primary"}, "Total_$": {"Total_$": "2345735.20"}, "Incumbency_Status": {"token": "c-t-ico", "Incumbency_Status": "Open", "id": "O"}, "request": "s=PA&y=2015,2016&f-core=1&c-exi=1&c-t-id=197886", "Specific_Party": {"token": "c-t-pt", "Specific_Party": "DEMOCRATIC", "id": "33"}, "record_id": 509, "Election_Jurisdiction": {"token": "s", "id": "PA", "Election_Jurisdiction": "PA"}, "Election_Type": {"token": "c-r-t", "id": "1", "Election_Type": "Standard"}, "#_of_Records": {"#_of_Records": "669"}}, {"General_Party": {"General_Party": "Democratic", "token": "c-t-p", "id": "1"}, "Office_Sought": {"Office_Sought": "HOUSE DISTRICT 006", "token": "c-r-osid", "id": "6443"}, "Election_Year": {"token": "y", "id": "2016", "Election_Year": "2016"}, "Candidate": {"token": "c-t-id", "id": "197999", "Candidate": "ZIMMER, PETER ANDREW"}, "Candidate_Entity": {"token": "c-t-eid", "id": "39434730", "Candidate_Entity": "ZIMMER, PETER ANDREW"}, "Election_Status": {"Election_Status": "Pending-General", "token": "c-t-ftsts", "id": "Pending-General"}, "Total_$": {"Total_$": "3132.04"}, "Incumbency_Status": {"token": "c-t-ico", "Incumbency_Status": "Challenger", "id": "C"}, "request": "s=PA&y=2015,2016&f-core=1&c-exi=1&c-t-id=197999", "Specific_Party": {"token": "c-t-pt", "Specific_Party": "DEMOCRATIC", "id": "33"}, "record_id": 510, "Election_Jurisdiction": {"token": "s", "id": "PA", "Election_Jurisdiction": "PA"}, "Election_Type": {"token": "c-r-t", "id": "1", "Election_Type": "Standard"}, "#_of_Records": {"#_of_Records": "20"}}, {"General_Party": {"General_Party": "Republican", "token": "c-t-p", "id": "2"}, "Office_Sought": {"Office_Sought": "HOUSE DISTRICT 099", "token": "c-r-osid", "id": "6536"}, "Election_Year": {"token": "y", "id": "2016", "Election_Year": "2016"}, "Candidate": {"token": "c-t-id", "id": "198166", "Candidate": "ZIMMERMAN, DAVID H"}, "Candidate_Entity": {"token": "c-t-eid", "id": "23442850", "Candidate_Entity": "ZIMMERMAN, DAVID H"}, "Election_Status": {"Election_Status": "Pending-General", "token": "c-t-ftsts", "id": "Pending-General"}, "Total_$": {"Total_$": "17186.18"}, "Incumbency_Status": {"token": "c-t-ico", "Incumbency_Status": "Incumbent", "id": "I"}, "request": "s=PA&y=2015,2016&f-core=1&c-exi=1&c-t-id=198166", "Specific_Party": {"token": "c-t-pt", "Specific_Party": "REPUBLICAN", "id": "139"}, "record_id": 511, "Election_Jurisdiction": {"token": "s", "id": "PA", "Election_Jurisdiction": "PA"}, "Election_Type": {"token": "c-r-t", "id": "1", "Election_Type": "Standard"}, "#_of_Records": {"#_of_Records": "106"}}], "metaInfo": {"sorting": {"currentSorting": {"c-t-id": "Candidate"}, "sortLink": "so=c-t-id&sod=0", "availableSorting": {"c-r-osid": "Office_Sought", "u-tot": "Total_$", "c-t-pt": "Specific_Party", "c-t-ftsts": "Election_Status", "s": "Election_Jurisdiction", "c-r-t": "Election_Type", "y": "Election_Year", "c-t-p": "General_Party", "c-t-ico": "Incumbency_Status", "u-rec": "#_of_Records"}, "sortingDirection": "descending"}, "completeness": {"allReports": "4260", "completeReports": "2748", "availableReports": "2972", "lastUpdated": "2016-07-25 11:53:55", "incompleteAvailable": "224", "mostRecentReportDate": "2016-12-31"}, "format": "json", "recordFormat": {"General_Party": {"General_Party": "display value", "token": "c-t-p", "id": "token value"}, "Office_Sought": {"Office_Sought": "display value", "token": "c-r-osid", "id": "token value"}, "Election_Year": {"token": "y", "id": "token value", "Election_Year": "display value"}, "Candidate": {"token": "c-t-id", "id": "token value", "Candidate": "display value"}, "Candidate_Entity": {"token": "c-t-eid", "id": "token value", "Candidate_Entity": "display value"}, "Total_$": {"Total_$": "display value"}, "Incumbency_Status": {"token": "c-t-ico", "Incumbency_Status": "display value", "id": "token value"}, "request": "s=PA&y=2015,2016&f-core=1&c-exi=1", "Specific_Party": {"token": "c-t-pt", "Specific_Party": "display value", "id": "token value"}, "Election_Status": {"Election_Status": "display value", "token": "c-t-ftsts", "id": "token value"}, "Election_Jurisdiction": {"token": "s", "id": "token value", "Election_Jurisdiction": "display value"}, "Election_Type": {"token": "c-r-t", "id": "token value", "Election_Type": "display value"}, "#_of_Records": {"#_of_Records": "display value"}}, "paging": {"totalRecords": "511", "minPage": 0, "recordsThisPage": 11, "pageLink": "p=5", "maxPage": 5, "recordsPerPage": 100, "totalPages": 6, "currentPage": 5}, "grouping": {"availableGrouping": {"d-et": "Type of Contributor (Contributors)", "d-empl": "Employer (Contributors)", "d-amt": "Amount (Advanced)", "d-id": "Record (Contributors)", "d-typ": "Type of Transaction (Advanced)", "f-eid": "Filer (General)", "c-t-i": "Incumbency Data (Advanced)", "d-cci": "General Industry (Contributors)", "d-ccg": "Broad Sector (Contributors)", "d-ccb": "Specific Business (Contributors)", "d-ad-zip": "Zip (Contributors)", "c-t-sts": "Status of Candidate (Candidates)", "d-nme": "Original Name (Advanced)", "c-t-icod": "Incumbency Advantage (Advanced)", "d-ins": "In-Jurisdiction (Contributors)", "d-ad-cty": "City (Contributors)", "d-occupation": "Occupation (Contributors)", "d-search": "DND (Advanced)", "d-ludte": "Last Updated (Advanced)", "d-file": "DND (Advanced)", "d-ad-str": "Street (Advanced)", "d-dte": "Date (Advanced)", "d-ad-st": "State (Contributors)", "f-y": "Filing Year (Advanced)", "f-s": "Filing Jurisdiction (General)", "d-eid": "Contributor (Contributors)", "d-llink": "Lobbying Entity? (Advanced)"}, "currentGrouping": {"c-t-id": "Candidate (General)"}, "groupLink": "gro=c-t-id"}}}