{"records": [{"General_Party": {"General_Party": "Democratic", "token": "c-t-p", "id": "1"}, "Office_Sought": {"Office_Sought": "HOUSE DISTRICT 001", "token": "c-r-osid", "id": "7041"}, "Election_Year": {"token": "y", "id": "2016", "Election_Year": "2016"}, "Candidate": {"token": "c-t-id", "id": "205493", "Candidate": "WISMER, SUSAN M"}, "Candidate_Entity": {"token": "c-t-eid", "id": "6490156", "Candidate_Entity": "WISMER, SUSAN M"}, "Election_Status": {"Election_Status": "Default Winner-Primary", "token": "c-t-ftsts", "id": "Default Winner-Primary"}, "Total_$": {"Total_$": "0.00"}, "Incumbency_Status": {"token": "c-t-ico", "Incumbency_Status": "Open", "id": "O"}, "request": "s=SD&y=2015,2016&f-core=1&c-exi=1&c-t-id=205493", "Specific_Party": {"token": "c-t-pt", "Specific_Party": "DEMOCRATIC", "id": "33"}, "record_id": 201, "Election_Jurisdiction": {"token": "s", "id": "SD", "Election_Jurisdiction": "SD"}, "Election_Type": {"token": "c-r-t", "id": "1", "Election_Type": "Standard"}, "#_of_Records": {"#_of_Records": "0"}}, {"General_Party": {"General_Party": "Republican", "token": "c-t-p", "id": "2"}, "Office_Sought": {"Office_Sought": "HOUSE DISTRICT 008", "token": "c-r-osid", "id": "7048"}, "Election_Year": {"token": "y", "id": "2016", "Election_Year": "2016"}, "Candidate": {"token": "c-t-id", "id": "205522", "Candidate": "WOLLMANN, MATTHEW"}, "Candidate_Entity": {"token": "c-t-eid", "id": "23353318", "Candidate_Entity": "WOLLMANN, MATTHEW"}, "Election_Status": {"Election_Status": "Default Winner-Primary", "token": "c-t-ftsts", "id": "Default Winner-Primary"}, "Total_$": {"Total_$": "0.00"}, "Incumbency_Status": {"token": "c-t-ico", "Incumbency_Status": "Incumbent", "id": "I"}, "request": "s=SD&y=2015,2016&f-core=1&c-exi=1&c-t-id=205522", "Specific_Party": {"token": "c-t-pt", "Specific_Party": "REPUBLICAN", "id": "139"}, "record_id": 202, "Election_Jurisdiction": {"token": "s", "id": "SD", "Election_Jurisdiction": "SD"}, "Election_Type": {"token": "c-r-t", "id": "1", "Election_Type": "Standard"}, "#_of_Records": {"#_of_Records": "0"}}, {"General_Party": {"General_Party": "Democratic", "token": "c-t-p", "id": "1"}, "Office_Sought": {"Office_Sought": "HOUSE DISTRICT 022", "token": "c-r-osid", "id": "7062"}, "Election_Year": {"token": "y", "id": "2016", "Election_Year": "2016"}, "Candidate": {"token": "c-t-id", "id": "205578", "Candidate": "WOLLSCHLAGER, JOAN"}, "Candidate_Entity": {"token": "c-t-eid", "id": "23353481", "Candidate_Entity": "WOLLSCHLAGER, JOAN"}, "Election_Status": {"Election_Status": "Won-Primary", "token": "c-t-ftsts", "id": "Won-Primary"}, "Total_$": {"Total_$": "0.00"}, "Incumbency_Status": {"token": "c-t-ico", "Incumbency_Status": "Open", "id": "O"}, "request": "s=SD&y=2015,2016&f-core=1&c-exi=1&c-t-id=205578", "Specific_Party": {"token": "c-t-pt", "Specific_Party": "DEMOCRATIC", "id": "33"}, "record_id": 203, "Election_Jurisdiction": {"token": "s", "id": "SD", "Election_Jurisdiction": "SD"}, "Election_Type": {"token": "c-r-t", "id": "1", "Election_Type": "Standard"}, "#_of_Records": {"#_of_Records": "0"}}, {"General_Party": {"General_Party": "Republican", "token": "c-t-p", "id": "2"}, "Office_Sought": {"Office_Sought": "HOUSE DISTRICT 005", "token": "c-r-osid", "id": "7045"}, "Election_Year": {"token": "y", "id": "2016", "Election_Year": "2016"}, "Candidate": {"token": "c-t-id", "id": "205511", "Candidate": "YORK, NANCY"}, "Candidate_Entity": {"token": "c-t-eid", "id": "39762617", "Candidate_Entity": "YORK, NANCY"}, "Election_Status": {"Election_Status": "Default Winner-Primary", "token": "c-t-ftsts", "id": "Default Winner-Primary"}, "Total_$": {"Total_$": "0.00"}, "Incumbency_Status": {"token": "c-t-ico", "Incumbency_Status": "Open", "id": "O"}, "request": "s=SD&y=2015,2016&f-core=1&c-exi=1&c-t-id=205511", "Specific_Party": {"token": "c-t-pt", "Specific_Party": "REPUBLICAN", "id": "139"}, "record_id": 204, "Election_Jurisdiction": {"token": "s", "id": "SD", "Election_Jurisdiction": "SD"}, "Election_Type": {"token": "c-r-t", "id": "1", "Election_Type": "Standard"}, "#_of_Records": {"#_of_Records": "0"}}, {"General_Party": {"General_Party": "Republican", "token": "c-t-p", "id": "2"}, "Office_Sought": {"Office_Sought": "SENATE DISTRICT 008", "token": "c-r-osid", "id": "7086"}, "Election_Year": {"token": "y", "id": "2016", "Election_Year": "2016"}, "Candidate": {"token": "c-t-id", "id": "205643", "Candidate": "YOUNGBERG, JORDAN"}, "Candidate_Entity": {"token": "c-t-eid", "id": "39762689", "Candidate_Entity": "YOUNGBERG, JORDAN"}, "Election_Status": {"Election_Status": "Default Winner-Primary", "token": "c-t-ftsts", "id": "Default Winner-Primary"}, "Total_$": {"Total_$": "0.00"}, "Incumbency_Status": {"token": "c-t-ico", "Incumbency_Status": "Open", "id": "O"}, "request": "s=SD&y=2015,2016&f-core=1&c-exi=1&c-t-id=205643", "Specific_Party": {"token": "c-t-pt", "Specific_Party": "REPUBLICAN", "id": "139"}, "record_id": 205, "Election_Jurisdiction": {"token": "s", "id": "SD", "Election_Jurisdiction": "SD"}, "Election_Type": {"token": "c-r-t", "id": "1", "Election_Type": "Standard"}, "#_of_Records": {"#_of_Records": "0"}}, {"General_Party": {"General_Party": "Republican", "token": "c-t-p", "id": "2"}, "Office_Sought": {"Office_Sought": "HOUSE DISTRICT 014", "token": "c-r-osid", "id": "7054"}, "Election_Year": {"token": "y", "id": "2016", "Election_Year": "2016"}, "Candidate": {"token": "c-t-id", "id": "205548", "Candidate": "ZIKMUND, LARRY P"}, "Candidate_Entity": {"token": "c-t-eid", "id": "8608125", "Candidate_Entity": "ZIKMUND, LARRY P"}, "Election_Status": {"Election_Status": "Won-Primary", "token": "c-t-ftsts", "id": "Won-Primary"}, "Total_$": {"Total_$": "10191.00"}, "Incumbency_Status": {"token": "c-t-ico", "Incumbency_Status": "Incumbent", "id": "I"}, "request": "s=SD&y=2015,2016&f-core=1&c-exi=1&c-t-id=205548", "Specific_Party": {"token": "c-t-pt", "Specific_Party": "REPUBLICAN", "id": "139"}, "record_id": 206, "Election_Jurisdiction": {"token": "s", "id": "SD", "Election_Jurisdiction": "SD"}, "Election_Type": {"token": "c-r-t", "id": "1", "Election_Type": "Standard"}, "#_of_Records": {"#_of_Records": "18"}}, {"General_Party": {"General_Party": "Republican", "token": "c-t-p", "id": "2"}, "Office_Sought": {"Office_Sought": "HOUSE DISTRICT 014", "token": "c-r-osid", "id": "7054"}, "Election_Year": {"token": "y", "id": "2016", "Election_Year": "2016"}, "Candidate": {"token": "c-t-id", "id": "205546", "Candidate": "ZIMBECK, DAVE"}, "Candidate_Entity": {"token": "c-t-eid", "id": "39762641", "Candidate_Entity": "ZIMBECK, DAVE"}, "Election_Status": {"Election_Status": "Lost-Primary", "token": "c-t-ftsts", "id": "Lost-Primary"}, "Total_$": {"Total_$": "17375.00"}, "Incumbency_Status": {"token": "c-t-ico", "Incumbency_Status": "Challenger", "id": "C"}, "request": "s=SD&y=2015,2016&f-core=1&c-exi=1&c-t-id=205546", "Specific_Party": {"token": "c-t-pt", "Specific_Party": "REPUBLICAN", "id": "139"}, "record_id": 207, "Election_Jurisdiction": {"token": "s", "id": "SD", "Election_Jurisdiction": "SD"}, "Election_Type": {"token": "c-r-t", "id": "1", "Election_Type": "Standard"}, "#_of_Records": {"#_of_Records": "20"}}], "metaInfo": {"sorting": {"currentSorting": {"c-t-id": "Candidate"}, "sortLink": "so=c-t-id&sod=0", "availableSorting": {"c-r-osid": "Office_Sought", "u-tot": "Total_$", "c-t-pt": "Specific_Party", "c-t-ftsts": "Election_Status", "s": "Election_Jurisdiction", "c-r-t": "Election_Type", "y": "Election_Year", "c-t-p": "General_Party", "c-t-ico": "Incumbency_Status", "u-rec": "#_of_Records"}, "sortingDirection": "descending"}, "completeness": {"allReports": "1015", "completeReports": "406", "availableReports": "406", "lastUpdated": "2016-07-29 14:10:08", "incompleteAvailable": "0", "mostRecentReportDate": "2016-05-27"}, "format": "json", "recordFormat": {"General_Party": {"General_Party": "display value", "token": "c-t-p", "id": "token value"}, "Office_Sought": {"Office_Sought": "display value", "token": "c-r-osid", "id": "token value"}, "Election_Year": {"token": "y", "id": "token value", "Election_Year": "display value"}, "Candidate": {"token": "c-t-id", "id": "token value", "Candidate": "display value"}, "Candidate_Entity": {"token": "c-t-eid", "id": "token value", "Candidate_Entity": "display value"}, "Total_$": {"Total_$": "display value"}, "Incumbency_Status": {"token": "c-t-ico", "Incumbency_Status": "display value", "id": "token value"}, "request": "s=SD&y=2015,2016&f-core=1&c-exi=1", "Specific_Party": {"token": "c-t-pt", "Specific_Party": "display value", "id": "token value"}, "Election_Status": {"Election_Status": "display value", "token": "c-t-ftsts", "id": "token value"}, "Election_Jurisdiction": {"token": "s", "id": "token value", "Election_Jurisdiction": "display value"}, "Election_Type": {"token": "c-r-t", "id": "token value", "Election_Type": "display value"}, "#_of_Records": {"#_of_Records": "display value"}}, "paging": {"totalRecords": "207", "minPage": 0, "recordsThisPage": 7, "pageLink": "p=2", "maxPage": 2, "recordsPerPage": 100, "totalPages": 3, "currentPage": 2}, "grouping": {"availableGrouping": {"d-et": "Type of Contributor (Contributors)", "d-empl": "Employer (Contributors)", "d-amt": "Amount (Advanced)", "d-id": "Record (Contributors)", "d-typ": "Type of Transaction (Advanced)", "f-eid": "Filer (General)", "c-t-i": "Incumbency Data (Advanced)", "d-cci": "General Industry (Contributors)", "d-ccg": "Broad Sector (Contributors)", "d-ccb": "Specific Business (Contributors)", "d-ad-zip": "Zip (Contributors)", "c-t-sts": "Status of Candidate (Candidates)", "d-nme": "Original Name (Advanced)", "c-t-icod": "Incumbency Advantage (Advanced)", "d-ins": "In-Jurisdiction (Contributors)", "d-ad-cty": "City (Contributors)", "d-occupation": "Occupation (Contributors)", "d-search": "DND (Advanced)", "d-ludte": "Last Updated (Advanced)", "d-file": "DND (Advanced)", "d-ad-str": "Street (Advanced)", "d-dte": "Date (Advanced)", "d-ad-st": "State (Contributors)", "f-y": "Filing Year (Advanced)", "f-s": "Filing Jurisdiction (General)", "d-eid": "Contributor (Contributors)", "d-llink": "Lobbying Entity? (Advanced)"}, "currentGrouping": {"c-t-id": "Candidate (General)"}, "groupLink": "gro=c-t-id"}}}