{"records": [{"General_Party": {"General_Party": "Republican", "token": "c-t-p", "id": "2"}, "Office_Sought": {"Office_Sought": "HOUSE DISTRICT CHITTENDEN-6-1", "token": "c-r-osid", "id": "7974"}, "Election_Year": {"token": "y", "id": "2016", "Election_Year": "2016"}, "Candidate": {"token": "c-t-id", "id": "209639", "Candidate": "WRIGHT, KURT"}, "Candidate_Entity": {"token": "c-t-eid", "id": "6581332", "Candidate_Entity": "WRIGHT, KURT"}, "Election_Status": {"Election_Status": "Pending-Primary", "token": "c-t-ftsts", "id": "Pending-Primary"}, "Total_$": {"Total_$": "0.00"}, "Incumbency_Status": {"token": "c-t-ico", "Incumbency_Status": "Incumbent", "id": "I"}, "request": "s=VT&y=2015,2016&f-core=1&c-exi=1&c-t-id=209639", "Specific_Party": {"token": "c-t-pt", "Specific_Party": "REPUBLICAN", "id": "139"}, "record_id": 301, "Election_Jurisdiction": {"token": "s", "id": "VT", "Election_Jurisdiction": "VT"}, "Election_Type": {"token": "c-r-t", "id": "1", "Election_Type": "Standard"}, "#_of_Records": {"#_of_Records": "0"}}, {"General_Party": {"General_Party": "Democratic", "token": "c-t-p", "id": "1"}, "Office_Sought": {"Office_Sought": "HOUSE DISTRICT LAMOILLE-WASHINGTON", "token": "c-r-osid", "id": "12841"}, "Election_Year": {"token": "y", "id": "2016", "Election_Year": "2016"}, "Candidate": {"token": "c-t-id", "id": "209717", "Candidate": "YACOVONE, DAVID"}, "Candidate_Entity": {"token": "c-t-eid", "id": "40588799", "Candidate_Entity": "YACOVONE, DAVID"}, "Election_Status": {"Election_Status": "Pending-Primary", "token": "c-t-ftsts", "id": "Pending-Primary"}, "Total_$": {"Total_$": "0.00"}, "Incumbency_Status": {"token": "c-t-ico", "Incumbency_Status": "Challenger", "id": "C"}, "request": "s=VT&y=2015,2016&f-core=1&c-exi=1&c-t-id=209717", "Specific_Party": {"token": "c-t-pt", "Specific_Party": "DEMOCRATIC", "id": "33"}, "record_id": 302, "Election_Jurisdiction": {"token": "s", "id": "VT", "Election_Jurisdiction": "VT"}, "Election_Type": {"token": "c-r-t", "id": "1", "Election_Type": "Standard"}, "#_of_Records": {"#_of_Records": "0"}}, {"General_Party": {"General_Party": "Democratic", "token": "c-t-p", "id": "1"}, "Office_Sought": {"Office_Sought": "HOUSE DISTRICT CHITTENDEN-4-1", "token": "c-r-osid", "id": "12830"}, "Election_Year": {"token": "y", "id": "2016", "Election_Year": "2016"}, "Candidate": {"token": "c-t-id", "id": "209632", "Candidate": "YANTACHKA, MICHAEL (MIKE)"}, "Candidate_Entity": {"token": "c-t-eid", "id": "12228441", "Candidate_Entity": "YANTACHKA, MICHAEL (MIKE)"}, "Election_Status": {"Election_Status": "Pending-Primary", "token": "c-t-ftsts", "id": "Pending-Primary"}, "Total_$": {"Total_$": "80.00"}, "Incumbency_Status": {"token": "c-t-ico", "Incumbency_Status": "Incumbent", "id": "I"}, "request": "s=VT&y=2015,2016&f-core=1&c-exi=1&c-t-id=209632", "Specific_Party": {"token": "c-t-pt", "Specific_Party": "DEMOCRATIC", "id": "33"}, "record_id": 303, "Election_Jurisdiction": {"token": "s", "id": "VT", "Election_Jurisdiction": "VT"}, "Election_Type": {"token": "c-r-t", "id": "1", "Election_Type": "Standard"}, "#_of_Records": {"#_of_Records": "1"}}, {"General_Party": {"General_Party": "Democratic", "token": "c-t-p", "id": "1"}, "Office_Sought": {"Office_Sought": "HOUSE DISTRICT LAMOILLE-WASHINGTON", "token": "c-r-osid", "id": "12841"}, "Election_Year": {"token": "y", "id": "2016", "Election_Year": "2016"}, "Candidate": {"token": "c-t-id", "id": "209718", "Candidate": "YOUNG, MARCI"}, "Candidate_Entity": {"token": "c-t-eid", "id": "40588800", "Candidate_Entity": "YOUNG, MARCI"}, "Election_Status": {"Election_Status": "Pending-Primary", "token": "c-t-ftsts", "id": "Pending-Primary"}, "Total_$": {"Total_$": "0.00"}, "Incumbency_Status": {"token": "c-t-ico", "Incumbency_Status": "Challenger", "id": "C"}, "request": "s=VT&y=2015,2016&f-core=1&c-exi=1&c-t-id=209718", "Specific_Party": {"token": "c-t-pt", "Specific_Party": "DEMOCRATIC", "id": "33"}, "record_id": 304, "Election_Jurisdiction": {"token": "s", "id": "VT", "Election_Jurisdiction": "VT"}, "Election_Type": {"token": "c-r-t", "id": "1", "Election_Type": "Standard"}, "#_of_Records": {"#_of_Records": "0"}}, {"General_Party": {"General_Party": "Democratic", "token": "c-t-p", "id": "1"}, "Office_Sought": {"Office_Sought": "HOUSE DISTRICT ORLEANS-CALEDONIA", "token": "c-r-osid", "id": "12843"}, "Election_Year": {"token": "y", "id": "2016", "Election_Year": "2016"}, "Candidate": {"token": "c-t-id", "id": "209735", "Candidate": "YOUNG, SAM"}, "Candidate_Entity": {"token": "c-t-eid", "id": "12996702", "Candidate_Entity": "YOUNG, SAM"}, "Election_Status": {"Election_Status": "Pending-Primary", "token": "c-t-ftsts", "id": "Pending-Primary"}, "Total_$": {"Total_$": "220.00"}, "Incumbency_Status": {"token": "c-t-ico", "Incumbency_Status": "Incumbent", "id": "I"}, "request": "s=VT&y=2015,2016&f-core=1&c-exi=1&c-t-id=209735", "Specific_Party": {"token": "c-t-pt", "Specific_Party": "DEMOCRATIC", "id": "33"}, "record_id": 305, "Election_Jurisdiction": {"token": "s", "id": "VT", "Election_Jurisdiction": "VT"}, "Election_Type": {"token": "c-r-t", "id": "1", "Election_Type": "Standard"}, "#_of_Records": {"#_of_Records": "2"}}, {"General_Party": {"General_Party": "Democratic", "token": "c-t-p", "id": "1"}, "Office_Sought": {"Office_Sought": "LIEUTENANT GOVERNOR", "token": "c-r-osid", "id": "9224"}, "Election_Year": {"token": "y", "id": "2016", "Election_Year": "2016"}, "Candidate": {"token": "c-t-id", "id": "209524", "Candidate": "ZUCKERMAN, DAVID"}, "Candidate_Entity": {"token": "c-t-eid", "id": "40588701", "Candidate_Entity": "ZUCKERMAN, DAVID"}, "Election_Status": {"Election_Status": "Pending-Primary", "token": "c-t-ftsts", "id": "Pending-Primary"}, "Total_$": {"Total_$": "61935.76"}, "Incumbency_Status": {"token": "c-t-ico", "Incumbency_Status": "Open", "id": "O"}, "request": "s=VT&y=2015,2016&f-core=1&c-exi=1&c-t-id=209524", "Specific_Party": {"token": "c-t-pt", "Specific_Party": "DEMOCRATIC", "id": "33"}, "record_id": 306, "Election_Jurisdiction": {"token": "s", "id": "VT", "Election_Jurisdiction": "VT"}, "Election_Type": {"token": "c-r-t", "id": "1", "Election_Type": "Standard"}, "#_of_Records": {"#_of_Records": "58"}}], "metaInfo": {"sorting": {"currentSorting": {"c-t-id": "Candidate"}, "sortLink": "so=c-t-id&sod=0", "availableSorting": {"c-r-osid": "Office_Sought", "u-tot": "Total_$", "c-t-pt": "Specific_Party", "c-t-ftsts": "Election_Status", "s": "Election_Jurisdiction", "c-r-t": "Election_Type", "y": "Election_Year", "c-t-p": "General_Party", "c-t-ico": "Incumbency_Status", "u-rec": "#_of_Records"}, "sortingDirection": "descending"}, "completeness": {"allReports": "3021", "completeReports": "669", "availableReports": "907", "lastUpdated": "2016-08-02 10:06:41", "incompleteAvailable": "238", "mostRecentReportDate": "2016-07-15"}, "format": "json", "recordFormat": {"General_Party": {"General_Party": "display value", "token": "c-t-p", "id": "token value"}, "Office_Sought": {"Office_Sought": "display value", "token": "c-r-osid", "id": "token value"}, "Election_Year": {"token": "y", "id": "token value", "Election_Year": "display value"}, "Candidate": {"token": "c-t-id", "id": "token value", "Candidate": "display value"}, "Candidate_Entity": {"token": "c-t-eid", "id": "token value", "Candidate_Entity": "display value"}, "Total_$": {"Total_$": "display value"}, "Incumbency_Status": {"token": "c-t-ico", "Incumbency_Status": "display value", "id": "token value"}, "request": "s=VT&y=2015,2016&f-core=1&c-exi=1", "Specific_Party": {"token": "c-t-pt", "Specific_Party": "display value", "id": "token value"}, "Election_Status": {"Election_Status": "display value", "token": "c-t-ftsts", "id": "token value"}, "Election_Jurisdiction": {"token": "s", "id": "token value", "Election_Jurisdiction": "display value"}, "Election_Type": {"token": "c-r-t", "id": "token value", "Election_Type": "display value"}, "#_of_Records": {"#_of_Records": "display value"}}, "paging": {"totalRecords": "306", "minPage": 0, "recordsThisPage": 6, "pageLink": "p=3", "maxPage": 3, "recordsPerPage": 100, "totalPages": 4, "currentPage": 3}, "grouping": {"availableGrouping": {"d-et": "Type of Contributor (Contributors)", "d-empl": "Employer (Contributors)", "d-amt": "Amount (Advanced)", "d-id": "Record (Contributors)", "d-typ": "Type of Transaction (Advanced)", "f-eid": "Filer (General)", "c-t-i": "Incumbency Data (Advanced)", "d-cci": "General Industry (Contributors)", "d-ccg": "Broad Sector (Contributors)", "d-ccb": "Specific Business (Contributors)", "d-ad-zip": "Zip (Contributors)", "c-t-sts": "Status of Candidate (Candidates)", "d-nme": "Original Name (Advanced)", "c-t-icod": "Incumbency Advantage (Advanced)", "d-ins": "In-Jurisdiction (Contributors)", "d-ad-cty": "City (Contributors)", "d-occupation": "Occupation (Contributors)", "d-search": "DND (Advanced)", "d-ludte": "Last Updated (Advanced)", "d-file": "DND (Advanced)", "d-ad-str": "Street (Advanced)", "d-dte": "Date (Advanced)", "d-ad-st": "State (Contributors)", "f-y": "Filing Year (Advanced)", "f-s": "Filing Jurisdiction (General)", "d-eid": "Contributor (Contributors)", "d-llink": "Lobbying Entity? (Advanced)"}, "currentGrouping": {"c-t-id": "Candidate (General)"}, "groupLink": "gro=c-t-id"}}}