{"records": [{"General_Party": {"General_Party": "Democratic", "token": "c-t-p", "id": "1"}, "Office_Sought": {"Office_Sought": "ASSEMBLY DISTRICT 068", "token": "c-r-osid", "id": "8714"}, "Election_Year": {"token": "y", "id": "2016", "Election_Year": "2016"}, "Candidate": {"token": "c-t-id", "id": "211394", "Candidate": "WHITE, HOWARD"}, "Candidate_Entity": {"token": "c-t-eid", "id": "40613014", "Candidate_Entity": "WHITE, HOWARD"}, "Election_Status": {"Election_Status": "Pending-Primary", "token": "c-t-ftsts", "id": "Pending-Primary"}, "Total_$": {"Total_$": "0.00"}, "Incumbency_Status": {"token": "c-t-ico", "Incumbency_Status": "Open", "id": "O"}, "request": "s=WI&y=2015,2016&f-core=1&c-exi=1&c-t-id=211394", "Specific_Party": {"token": "c-t-pt", "Specific_Party": "DEMOCRATIC", "id": "33"}, "record_id": 301, "Election_Jurisdiction": {"token": "s", "id": "WI", "Election_Jurisdiction": "WI"}, "Election_Type": {"token": "c-r-t", "id": "1", "Election_Type": "Standard"}, "#_of_Records": {"#_of_Records": "0"}}, {"General_Party": {"General_Party": "Republican", "token": "c-t-p", "id": "2"}, "Office_Sought": {"Office_Sought": "ASSEMBLY DISTRICT 083", "token": "c-r-osid", "id": "8729"}, "Election_Year": {"token": "y", "id": "2016", "Election_Year": "2016"}, "Candidate": {"token": "c-t-id", "id": "211411", "Candidate": "WHITTOW, STEVEN A"}, "Candidate_Entity": {"token": "c-t-eid", "id": "40613029", "Candidate_Entity": "WHITTOW, STEVEN A"}, "Election_Status": {"Election_Status": "Pending-Primary", "token": "c-t-ftsts", "id": "Pending-Primary"}, "Total_$": {"Total_$": "0.00"}, "Incumbency_Status": {"token": "c-t-ico", "Incumbency_Status": "Open", "id": "O"}, "request": "s=WI&y=2015,2016&f-core=1&c-exi=1&c-t-id=211411", "Specific_Party": {"token": "c-t-pt", "Specific_Party": "REPUBLICAN", "id": "139"}, "record_id": 302, "Election_Jurisdiction": {"token": "s", "id": "WI", "Election_Jurisdiction": "WI"}, "Election_Type": {"token": "c-r-t", "id": "1", "Election_Type": "Standard"}, "#_of_Records": {"#_of_Records": "0"}}, {"General_Party": {"General_Party": "Republican", "token": "c-t-p", "id": "2"}, "Office_Sought": {"Office_Sought": "ASSEMBLY DISTRICT 083", "token": "c-r-osid", "id": "8729"}, "Election_Year": {"token": "y", "id": "2016", "Election_Year": "2016"}, "Candidate": {"token": "c-t-id", "id": "211413", "Candidate": "WICHGERS, CHUCK"}, "Candidate_Entity": {"token": "c-t-eid", "id": "40613030", "Candidate_Entity": "WICHGERS, CHUCK"}, "Election_Status": {"Election_Status": "Pending-Primary", "token": "c-t-ftsts", "id": "Pending-Primary"}, "Total_$": {"Total_$": "0.00"}, "Incumbency_Status": {"token": "c-t-ico", "Incumbency_Status": "Open", "id": "O"}, "request": "s=WI&y=2015,2016&f-core=1&c-exi=1&c-t-id=211413", "Specific_Party": {"token": "c-t-pt", "Specific_Party": "REPUBLICAN", "id": "139"}, "record_id": 303, "Election_Jurisdiction": {"token": "s", "id": "WI", "Election_Jurisdiction": "WI"}, "Election_Type": {"token": "c-r-t", "id": "1", "Election_Type": "Standard"}, "#_of_Records": {"#_of_Records": "0"}}, {"General_Party": {"General_Party": "Republican", "token": "c-t-p", "id": "2"}, "Office_Sought": {"Office_Sought": "SENATE DISTRICT 030", "token": "c-r-osid", "id": "8778"}, "Election_Year": {"token": "y", "id": "2016", "Election_Year": "2016"}, "Candidate": {"token": "c-t-id", "id": "211154", "Candidate": "WIMBERGER, ERIC"}, "Candidate_Entity": {"token": "c-t-eid", "id": "24811811", "Candidate_Entity": "WIMBERGER, ERIC"}, "Election_Status": {"Election_Status": "Pending-Primary", "token": "c-t-ftsts", "id": "Pending-Primary"}, "Total_$": {"Total_$": "0.00"}, "Incumbency_Status": {"token": "c-t-ico", "Incumbency_Status": "Open", "id": "O"}, "request": "s=WI&y=2015,2016&f-core=1&c-exi=1&c-t-id=211154", "Specific_Party": {"token": "c-t-pt", "Specific_Party": "REPUBLICAN", "id": "139"}, "record_id": 304, "Election_Jurisdiction": {"token": "s", "id": "WI", "Election_Jurisdiction": "WI"}, "Election_Type": {"token": "c-r-t", "id": "1", "Election_Type": "Standard"}, "#_of_Records": {"#_of_Records": "0"}}, {"General_Party": {"General_Party": "Democratic", "token": "c-t-p", "id": "1"}, "Office_Sought": {"Office_Sought": "SENATE DISTRICT 022", "token": "c-r-osid", "id": "8770"}, "Election_Year": {"token": "y", "id": "2016", "Election_Year": "2016"}, "Candidate": {"token": "c-t-id", "id": "211148", "Candidate": "WIRCH, ROBERT W"}, "Candidate_Entity": {"token": "c-t-eid", "id": "13013888", "Candidate_Entity": "WIRCH, ROBERT W"}, "Election_Status": {"Election_Status": "Pending-Primary", "token": "c-t-ftsts", "id": "Pending-Primary"}, "Total_$": {"Total_$": "30044.68"}, "Incumbency_Status": {"token": "c-t-ico", "Incumbency_Status": "Incumbent", "id": "I"}, "request": "s=WI&y=2015,2016&f-core=1&c-exi=1&c-t-id=211148", "Specific_Party": {"token": "c-t-pt", "Specific_Party": "DEMOCRATIC", "id": "33"}, "record_id": 305, "Election_Jurisdiction": {"token": "s", "id": "WI", "Election_Jurisdiction": "WI"}, "Election_Type": {"token": "c-r-t", "id": "1", "Election_Type": "Standard"}, "#_of_Records": {"#_of_Records": "503"}}, {"General_Party": {"General_Party": "Democratic", "token": "c-t-p", "id": "1"}, "Office_Sought": {"Office_Sought": "ASSEMBLY DISTRICT 078", "token": "c-r-osid", "id": "8724"}, "Election_Year": {"token": "y", "id": "2016", "Election_Year": "2016"}, "Candidate": {"token": "c-t-id", "id": "211404", "Candidate": "WISCHMEIER, JACOB"}, "Candidate_Entity": {"token": "c-t-eid", "id": "40613022", "Candidate_Entity": "WISCHMEIER, JACOB"}, "Election_Status": {"Election_Status": "Pending-Primary", "token": "c-t-ftsts", "id": "Pending-Primary"}, "Total_$": {"Total_$": "0.00"}, "Incumbency_Status": {"token": "c-t-ico", "Incumbency_Status": "Challenger", "id": "C"}, "request": "s=WI&y=2015,2016&f-core=1&c-exi=1&c-t-id=211404", "Specific_Party": {"token": "c-t-pt", "Specific_Party": "DEMOCRATIC", "id": "33"}, "record_id": 306, "Election_Jurisdiction": {"token": "s", "id": "WI", "Election_Jurisdiction": "WI"}, "Election_Type": {"token": "c-r-t", "id": "1", "Election_Type": "Standard"}, "#_of_Records": {"#_of_Records": "0"}}, {"General_Party": {"General_Party": "Democratic", "token": "c-t-p", "id": "1"}, "Office_Sought": {"Office_Sought": "ASSEMBLY DISTRICT 035", "token": "c-r-osid", "id": "8681"}, "Election_Year": {"token": "y", "id": "2016", "Election_Year": "2016"}, "Candidate": {"token": "c-t-id", "id": "211349", "Candidate": "WOELLNER, DEREK"}, "Candidate_Entity": {"token": "c-t-eid", "id": "40610054", "Candidate_Entity": "WOELLNER, DEREK"}, "Election_Status": {"Election_Status": "Pending-Primary", "token": "c-t-ftsts", "id": "Pending-Primary"}, "Total_$": {"Total_$": "0.00"}, "Incumbency_Status": {"token": "c-t-ico", "Incumbency_Status": "Open", "id": "O"}, "request": "s=WI&y=2015,2016&f-core=1&c-exi=1&c-t-id=211349", "Specific_Party": {"token": "c-t-pt", "Specific_Party": "DEMOCRATIC", "id": "33"}, "record_id": 307, "Election_Jurisdiction": {"token": "s", "id": "WI", "Election_Jurisdiction": "WI"}, "Election_Type": {"token": "c-r-t", "id": "1", "Election_Type": "Standard"}, "#_of_Records": {"#_of_Records": "0"}}, {"General_Party": {"General_Party": "Democratic", "token": "c-t-p", "id": "1"}, "Office_Sought": {"Office_Sought": "ASSEMBLY DISTRICT 051", "token": "c-r-osid", "id": "8697"}, "Election_Year": {"token": "y", "id": "2016", "Election_Year": "2016"}, "Candidate": {"token": "c-t-id", "id": "211372", "Candidate": "WRIGHT, JEFF"}, "Candidate_Entity": {"token": "c-t-eid", "id": "39296250", "Candidate_Entity": "WRIGHT, JEFF"}, "Election_Status": {"Election_Status": "Pending-Primary", "token": "c-t-ftsts", "id": "Pending-Primary"}, "Total_$": {"Total_$": "0.00"}, "Incumbency_Status": {"token": "c-t-ico", "Incumbency_Status": "Open", "id": "O"}, "request": "s=WI&y=2015,2016&f-core=1&c-exi=1&c-t-id=211372", "Specific_Party": {"token": "c-t-pt", "Specific_Party": "DEMOCRATIC", "id": "33"}, "record_id": 308, "Election_Jurisdiction": {"token": "s", "id": "WI", "Election_Jurisdiction": "WI"}, "Election_Type": {"token": "c-r-t", "id": "1", "Election_Type": "Standard"}, "#_of_Records": {"#_of_Records": "0"}}, {"General_Party": {"General_Party": "Democratic", "token": "c-t-p", "id": "1"}, "Office_Sought": {"Office_Sought": "ASSEMBLY DISTRICT 085", "token": "c-r-osid", "id": "8731"}, "Election_Year": {"token": "y", "id": "2016", "Election_Year": "2016"}, "Candidate": {"token": "c-t-id", "id": "211415", "Candidate": "WRIGHT, MANDY M"}, "Candidate_Entity": {"token": "c-t-eid", "id": "13736130", "Candidate_Entity": "WRIGHT, MANDY M"}, "Election_Status": {"Election_Status": "Pending-Primary", "token": "c-t-ftsts", "id": "Pending-Primary"}, "Total_$": {"Total_$": "28934.66"}, "Incumbency_Status": {"token": "c-t-ico", "Incumbency_Status": "Open", "id": "O"}, "request": "s=WI&y=2015,2016&f-core=1&c-exi=1&c-t-id=211415", "Specific_Party": {"token": "c-t-pt", "Specific_Party": "DEMOCRATIC", "id": "33"}, "record_id": 309, "Election_Jurisdiction": {"token": "s", "id": "WI", "Election_Jurisdiction": "WI"}, "Election_Type": {"token": "c-r-t", "id": "1", "Election_Type": "Standard"}, "#_of_Records": {"#_of_Records": "270"}}, {"General_Party": {"General_Party": "Democratic", "token": "c-t-p", "id": "1"}, "Office_Sought": {"Office_Sought": "ASSEMBLY DISTRICT 067", "token": "c-r-osid", "id": "8713"}, "Election_Year": {"token": "y", "id": "2016", "Election_Year": "2016"}, "Candidate": {"token": "c-t-id", "id": "211391", "Candidate": "YAGILASHEK, MACK"}, "Candidate_Entity": {"token": "c-t-eid", "id": "40612985", "Candidate_Entity": "YAGILASHEK, MACK"}, "Election_Status": {"Election_Status": "Pending-Primary", "token": "c-t-ftsts", "id": "Pending-Primary"}, "Total_$": {"Total_$": "0.00"}, "Incumbency_Status": {"token": "c-t-ico", "Incumbency_Status": "Open", "id": "O"}, "request": "s=WI&y=2015,2016&f-core=1&c-exi=1&c-t-id=211391", "Specific_Party": {"token": "c-t-pt", "Specific_Party": "DEMOCRATIC", "id": "33"}, "record_id": 310, "Election_Jurisdiction": {"token": "s", "id": "WI", "Election_Jurisdiction": "WI"}, "Election_Type": {"token": "c-r-t", "id": "1", "Election_Type": "Standard"}, "#_of_Records": {"#_of_Records": "0"}}, {"General_Party": {"General_Party": "Republican", "token": "c-t-p", "id": "2"}, "Office_Sought": {"Office_Sought": "ASSEMBLY DISTRICT 003", "token": "c-r-osid", "id": "8649"}, "Election_Year": {"token": "y", "id": "2016", "Election_Year": "2016"}, "Candidate": {"token": "c-t-id", "id": "211290", "Candidate": "YOUNG, JOSH"}, "Candidate_Entity": {"token": "c-t-eid", "id": "40609714", "Candidate_Entity": "YOUNG, JOSH"}, "Election_Status": {"Election_Status": "Pending-Primary", "token": "c-t-ftsts", "id": "Pending-Primary"}, "Total_$": {"Total_$": "0.00"}, "Incumbency_Status": {"token": "c-t-ico", "Incumbency_Status": "Open", "id": "O"}, "request": "s=WI&y=2015,2016&f-core=1&c-exi=1&c-t-id=211290", "Specific_Party": {"token": "c-t-pt", "Specific_Party": "REPUBLICAN", "id": "139"}, "record_id": 311, "Election_Jurisdiction": {"token": "s", "id": "WI", "Election_Jurisdiction": "WI"}, "Election_Type": {"token": "c-r-t", "id": "1", "Election_Type": "Standard"}, "#_of_Records": {"#_of_Records": "0"}}, {"General_Party": {"General_Party": "Democratic", "token": "c-t-p", "id": "1"}, "Office_Sought": {"Office_Sought": "ASSEMBLY DISTRICT 016", "token": "c-r-osid", "id": "8662"}, "Election_Year": {"token": "y", "id": "2016", "Election_Year": "2016"}, "Candidate": {"token": "c-t-id", "id": "211174", "Candidate": "YOUNG, LEON D"}, "Candidate_Entity": {"token": "c-t-eid", "id": "13009494", "Candidate_Entity": "YOUNG, LEON D"}, "Election_Status": {"Election_Status": "Pending-Primary", "token": "c-t-ftsts", "id": "Pending-Primary"}, "Total_$": {"Total_$": "500.00"}, "Incumbency_Status": {"token": "c-t-ico", "Incumbency_Status": "Incumbent", "id": "I"}, "request": "s=WI&y=2015,2016&f-core=1&c-exi=1&c-t-id=211174", "Specific_Party": {"token": "c-t-pt", "Specific_Party": "DEMOCRATIC", "id": "33"}, "record_id": 312, "Election_Jurisdiction": {"token": "s", "id": "WI", "Election_Jurisdiction": "WI"}, "Election_Type": {"token": "c-r-t", "id": "1", "Election_Type": "Standard"}, "#_of_Records": {"#_of_Records": "5"}}, {"General_Party": {"General_Party": "Democratic", "token": "c-t-p", "id": "1"}, "Office_Sought": {"Office_Sought": "ASSEMBLY DISTRICT 080", "token": "c-r-osid", "id": "8726"}, "Election_Year": {"token": "y", "id": "2016", "Election_Year": "2016"}, "Candidate": {"token": "c-t-id", "id": "211408", "Candidate": "YURS, DALE"}, "Candidate_Entity": {"token": "c-t-eid", "id": "40613026", "Candidate_Entity": "YURS, DALE"}, "Election_Status": {"Election_Status": "Pending-Primary", "token": "c-t-ftsts", "id": "Pending-Primary"}, "Total_$": {"Total_$": "0.00"}, "Incumbency_Status": {"token": "c-t-ico", "Incumbency_Status": "Challenger", "id": "C"}, "request": "s=WI&y=2015,2016&f-core=1&c-exi=1&c-t-id=211408", "Specific_Party": {"token": "c-t-pt", "Specific_Party": "DEMOCRATIC", "id": "33"}, "record_id": 313, "Election_Jurisdiction": {"token": "s", "id": "WI", "Election_Jurisdiction": "WI"}, "Election_Type": {"token": "c-r-t", "id": "1", "Election_Type": "Standard"}, "#_of_Records": {"#_of_Records": "0"}}, {"General_Party": {"General_Party": "Republican", "token": "c-t-p", "id": "2"}, "Office_Sought": {"Office_Sought": "ASSEMBLY DISTRICT 079", "token": "c-r-osid", "id": "8725"}, "Election_Year": {"token": "y", "id": "2016", "Election_Year": "2016"}, "Candidate": {"token": "c-t-id", "id": "211406", "Candidate": "ZADRA, JORDAN"}, "Candidate_Entity": {"token": "c-t-eid", "id": "40613024", "Candidate_Entity": "ZADRA, JORDAN"}, "Election_Status": {"Election_Status": "Pending-Primary", "token": "c-t-ftsts", "id": "Pending-Primary"}, "Total_$": {"Total_$": "0.00"}, "Incumbency_Status": {"token": "c-t-ico", "Incumbency_Status": "Open", "id": "O"}, "request": "s=WI&y=2015,2016&f-core=1&c-exi=1&c-t-id=211406", "Specific_Party": {"token": "c-t-pt", "Specific_Party": "REPUBLICAN", "id": "139"}, "record_id": 314, "Election_Jurisdiction": {"token": "s", "id": "WI", "Election_Jurisdiction": "WI"}, "Election_Type": {"token": "c-r-t", "id": "1", "Election_Type": "Standard"}, "#_of_Records": {"#_of_Records": "0"}}, {"General_Party": {"General_Party": "Democratic", "token": "c-t-p", "id": "1"}, "Office_Sought": {"Office_Sought": "ASSEMBLY DISTRICT 039", "token": "c-r-osid", "id": "8685"}, "Election_Year": {"token": "y", "id": "2016", "Election_Year": "2016"}, "Candidate": {"token": "c-t-id", "id": "211353", "Candidate": "ZAHN, JIM"}, "Candidate_Entity": {"token": "c-t-eid", "id": "31955290", "Candidate_Entity": "ZAHN, JIM"}, "Election_Status": {"Election_Status": "Pending-Primary", "token": "c-t-ftsts", "id": "Pending-Primary"}, "Total_$": {"Total_$": "0.00"}, "Incumbency_Status": {"token": "c-t-ico", "Incumbency_Status": "Open", "id": "O"}, "request": "s=WI&y=2015,2016&f-core=1&c-exi=1&c-t-id=211353", "Specific_Party": {"token": "c-t-pt", "Specific_Party": "DEMOCRATIC", "id": "33"}, "record_id": 315, "Election_Jurisdiction": {"token": "s", "id": "WI", "Election_Jurisdiction": "WI"}, "Election_Type": {"token": "c-r-t", "id": "1", "Election_Type": "Standard"}, "#_of_Records": {"#_of_Records": "0"}}, {"General_Party": {"General_Party": "Democratic", "token": "c-t-p", "id": "1"}, "Office_Sought": {"Office_Sought": "ASSEMBLY DISTRICT 008", "token": "c-r-osid", "id": "8654"}, "Election_Year": {"token": "y", "id": "2016", "Election_Year": "2016"}, "Candidate": {"token": "c-t-id", "id": "211167", "Candidate": "ZAMARRIPA, JOCASTA"}, "Candidate_Entity": {"token": "c-t-eid", "id": "2607131", "Candidate_Entity": "ZAMARRIPA, JOCASTA"}, "Election_Status": {"Election_Status": "Pending-Primary", "token": "c-t-ftsts", "id": "Pending-Primary"}, "Total_$": {"Total_$": "24944.00"}, "Incumbency_Status": {"token": "c-t-ico", "Incumbency_Status": "Incumbent", "id": "I"}, "request": "s=WI&y=2015,2016&f-core=1&c-exi=1&c-t-id=211167", "Specific_Party": {"token": "c-t-pt", "Specific_Party": "DEMOCRATIC", "id": "33"}, "record_id": 316, "Election_Jurisdiction": {"token": "s", "id": "WI", "Election_Jurisdiction": "WI"}, "Election_Type": {"token": "c-r-t", "id": "1", "Election_Type": "Standard"}, "#_of_Records": {"#_of_Records": "187"}}, {"General_Party": {"General_Party": "Republican", "token": "c-t-p", "id": "2"}, "Office_Sought": {"Office_Sought": "ASSEMBLY DISTRICT 067", "token": "c-r-osid", "id": "8713"}, "Election_Year": {"token": "y", "id": "2016", "Election_Year": "2016"}, "Candidate": {"token": "c-t-id", "id": "211392", "Candidate": "ZAMMIT, TONY"}, "Candidate_Entity": {"token": "c-t-eid", "id": "40612986", "Candidate_Entity": "ZAMMIT, TONY"}, "Election_Status": {"Election_Status": "Pending-Primary", "token": "c-t-ftsts", "id": "Pending-Primary"}, "Total_$": {"Total_$": "0.00"}, "Incumbency_Status": {"token": "c-t-ico", "Incumbency_Status": "Open", "id": "O"}, "request": "s=WI&y=2015,2016&f-core=1&c-exi=1&c-t-id=211392", "Specific_Party": {"token": "c-t-pt", "Specific_Party": "REPUBLICAN", "id": "139"}, "record_id": 317, "Election_Jurisdiction": {"token": "s", "id": "WI", "Election_Jurisdiction": "WI"}, "Election_Type": {"token": "c-r-t", "id": "1", "Election_Type": "Standard"}, "#_of_Records": {"#_of_Records": "0"}}, {"General_Party": {"General_Party": "Republican", "token": "c-t-p", "id": "2"}, "Office_Sought": {"Office_Sought": "ASSEMBLY DISTRICT 045", "token": "c-r-osid", "id": "8691"}, "Election_Year": {"token": "y", "id": "2016", "Election_Year": "2016"}, "Candidate": {"token": "c-t-id", "id": "211362", "Candidate": "ZANE, JARED ALAN"}, "Candidate_Entity": {"token": "c-t-eid", "id": "40610061", "Candidate_Entity": "ZANE, JARED ALAN"}, "Election_Status": {"Election_Status": "Pending-Primary", "token": "c-t-ftsts", "id": "Pending-Primary"}, "Total_$": {"Total_$": "0.00"}, "Incumbency_Status": {"token": "c-t-ico", "Incumbency_Status": "Open", "id": "O"}, "request": "s=WI&y=2015,2016&f-core=1&c-exi=1&c-t-id=211362", "Specific_Party": {"token": "c-t-pt", "Specific_Party": "REPUBLICAN", "id": "139"}, "record_id": 318, "Election_Jurisdiction": {"token": "s", "id": "WI", "Election_Jurisdiction": "WI"}, "Election_Type": {"token": "c-r-t", "id": "1", "Election_Type": "Standard"}, "#_of_Records": {"#_of_Records": "0"}}, {"General_Party": {"General_Party": "Democratic", "token": "c-t-p", "id": "1"}, "Office_Sought": {"Office_Sought": "ASSEMBLY DISTRICT 009", "token": "c-r-osid", "id": "8655"}, "Election_Year": {"token": "y", "id": "2016", "Election_Year": "2016"}, "Candidate": {"token": "c-t-id", "id": "211168", "Candidate": "ZEPNICK, JOSH"}, "Candidate_Entity": {"token": "c-t-eid", "id": "2616031", "Candidate_Entity": "ZEPNICK, JOSH"}, "Election_Status": {"Election_Status": "Pending-Primary", "token": "c-t-ftsts", "id": "Pending-Primary"}, "Total_$": {"Total_$": "11251.31"}, "Incumbency_Status": {"token": "c-t-ico", "Incumbency_Status": "Incumbent", "id": "I"}, "request": "s=WI&y=2015,2016&f-core=1&c-exi=1&c-t-id=211168", "Specific_Party": {"token": "c-t-pt", "Specific_Party": "DEMOCRATIC", "id": "33"}, "record_id": 319, "Election_Jurisdiction": {"token": "s", "id": "WI", "Election_Jurisdiction": "WI"}, "Election_Type": {"token": "c-r-t", "id": "1", "Election_Type": "Standard"}, "#_of_Records": {"#_of_Records": "85"}}, {"General_Party": {"General_Party": "Third-Party", "token": "c-t-p", "id": "3"}, "Office_Sought": {"Office_Sought": "ASSEMBLY DISTRICT 028", "token": "c-r-osid", "id": "8674"}, "Election_Year": {"token": "y", "id": "2016", "Election_Year": "2016"}, "Candidate": {"token": "c-t-id", "id": "211320", "Candidate": "ZILKA, VINCENT"}, "Candidate_Entity": {"token": "c-t-eid", "id": "40609732", "Candidate_Entity": "ZILKA, VINCENT"}, "Election_Status": {"Election_Status": "Pending-General", "token": "c-t-ftsts", "id": "Pending-General"}, "Total_$": {"Total_$": "0.00"}, "Incumbency_Status": {"token": "c-t-ico", "Incumbency_Status": "Open", "id": "O"}, "request": "s=WI&y=2015,2016&f-core=1&c-exi=1&c-t-id=211320", "Specific_Party": {"token": "c-t-pt", "Specific_Party": "VETERANS PARTY OF AMERICA", "id": "527"}, "record_id": 320, "Election_Jurisdiction": {"token": "s", "id": "WI", "Election_Jurisdiction": "WI"}, "Election_Type": {"token": "c-r-t", "id": "1", "Election_Type": "Standard"}, "#_of_Records": {"#_of_Records": "0"}}, {"General_Party": {"General_Party": "Republican", "token": "c-t-p", "id": "2"}, "Office_Sought": {"Office_Sought": "ASSEMBLY DISTRICT 030", "token": "c-r-osid", "id": "8676"}, "Election_Year": {"token": "y", "id": "2016", "Election_Year": "2016"}, "Candidate": {"token": "c-t-id", "id": "211327", "Candidate": "ZIMMERMAN, SHANNON"}, "Candidate_Entity": {"token": "c-t-eid", "id": "40609738", "Candidate_Entity": "ZIMMERMAN, SHANNON"}, "Election_Status": {"Election_Status": "Pending-Primary", "token": "c-t-ftsts", "id": "Pending-Primary"}, "Total_$": {"Total_$": "0.00"}, "Incumbency_Status": {"token": "c-t-ico", "Incumbency_Status": "Open", "id": "O"}, "request": "s=WI&y=2015,2016&f-core=1&c-exi=1&c-t-id=211327", "Specific_Party": {"token": "c-t-pt", "Specific_Party": "REPUBLICAN", "id": "139"}, "record_id": 321, "Election_Jurisdiction": {"token": "s", "id": "WI", "Election_Jurisdiction": "WI"}, "Election_Type": {"token": "c-r-t", "id": "1", "Election_Type": "Standard"}, "#_of_Records": {"#_of_Records": "0"}}, {"General_Party": {"General_Party": "Republican", "token": "c-t-p", "id": "2"}, "Office_Sought": {"Office_Sought": "ASSEMBLY DISTRICT 099", "token": "c-r-osid", "id": "8745"}, "Election_Year": {"token": "y", "id": "2015", "Election_Year": "2015"}, "Candidate": {"token": "c-t-id", "id": "192164", "Candidate": "ZIMMERMAN, SPENCER"}, "Candidate_Entity": {"token": "c-t-eid", "id": "3284793", "Candidate_Entity": "ZIMMERMAN, SPENCER"}, "Election_Status": {"Election_Status": "Lost-Primary", "token": "c-t-ftsts", "id": "Lost-Primary"}, "Total_$": {"Total_$": "4380.02"}, "Incumbency_Status": {"token": "c-t-ico", "Incumbency_Status": "Open", "id": "O"}, "request": "s=WI&y=2015,2016&f-core=1&c-exi=1&c-t-id=192164", "Specific_Party": {"token": "c-t-pt", "Specific_Party": "REPUBLICAN", "id": "139"}, "record_id": 322, "Election_Jurisdiction": {"token": "s", "id": "WI", "Election_Jurisdiction": "WI"}, "Election_Type": {"token": "c-r-t", "id": "3", "Election_Type": "Special"}, "#_of_Records": {"#_of_Records": "3"}}, {"General_Party": {"General_Party": "Third-Party", "token": "c-t-p", "id": "3"}, "Office_Sought": {"Office_Sought": "US HOUSE DISTRICT WI 001", "token": "c-r-osid", "id": "15398"}, "Election_Year": {"token": "y", "id": "2016", "Election_Year": "2016"}, "Candidate": {"token": "c-t-id", "id": "211085", "Candidate": "ZIMMERMAN, SPENCER"}, "Candidate_Entity": {"token": "c-t-eid", "id": "40609581", "Candidate_Entity": "ZIMMERMAN, SPENCER"}, "Election_Status": {"Election_Status": "Pending-General", "token": "c-t-ftsts", "id": "Pending-General"}, "Total_$": {"Total_$": "0.00"}, "Incumbency_Status": {"token": "c-t-ico", "Incumbency_Status": "Open", "id": "O"}, "request": "s=WI&y=2015,2016&f-core=1&c-exi=1&c-t-id=211085", "Specific_Party": {"token": "c-t-pt", "Specific_Party": "OTHER", "id": "106"}, "record_id": 323, "Election_Jurisdiction": {"token": "s", "id": "WI", "Election_Jurisdiction": "WI"}, "Election_Type": {"token": "c-r-t", "id": "1", "Election_Type": "Standard"}, "#_of_Records": {"#_of_Records": "0"}}], "metaInfo": {"sorting": {"currentSorting": {"c-t-id": "Candidate"}, "sortLink": "so=c-t-id&sod=0", "availableSorting": {"c-r-osid": "Office_Sought", "u-tot": "Total_$", "c-t-pt": "Specific_Party", "c-t-ftsts": "Election_Status", "s": "Election_Jurisdiction", "c-r-t": "Election_Type", "y": "Election_Year", "c-t-p": "General_Party", "c-t-ico": "Incumbency_Status", "u-rec": "#_of_Records"}, "sortingDirection": "descending"}, "completeness": {"allReports": "332", "completeReports": "52", "availableReports": "262", "lastUpdated": "2016-08-01 13:26:24", "incompleteAvailable": "210", "mostRecentReportDate": "2016-04-15"}, "format": "json", "recordFormat": {"General_Party": {"General_Party": "display value", "token": "c-t-p", "id": "token value"}, "Office_Sought": {"Office_Sought": "display value", "token": "c-r-osid", "id": "token value"}, "Election_Year": {"token": "y", "id": "token value", "Election_Year": "display value"}, "Candidate": {"token": "c-t-id", "id": "token value", "Candidate": "display value"}, "Candidate_Entity": {"token": "c-t-eid", "id": "token value", "Candidate_Entity": "display value"}, "Total_$": {"Total_$": "display value"}, "Incumbency_Status": {"token": "c-t-ico", "Incumbency_Status": "display value", "id": "token value"}, "request": "s=WI&y=2015,2016&f-core=1&c-exi=1", "Specific_Party": {"token": "c-t-pt", "Specific_Party": "display value", "id": "token value"}, "Election_Status": {"Election_Status": "display value", "token": "c-t-ftsts", "id": "token value"}, "Election_Jurisdiction": {"token": "s", "id": "token value", "Election_Jurisdiction": "display value"}, "Election_Type": {"token": "c-r-t", "id": "token value", "Election_Type": "display value"}, "#_of_Records": {"#_of_Records": "display value"}}, "paging": {"totalRecords": "323", "minPage": 0, "recordsThisPage": 23, "pageLink": "p=3", "maxPage": 3, "recordsPerPage": 100, "totalPages": 4, "currentPage": 3}, "grouping": {"availableGrouping": {"d-et": "Type of Contributor (Contributors)", "d-empl": "Employer (Contributors)", "d-amt": "Amount (Advanced)", "d-id": "Record (Contributors)", "d-typ": "Type of Transaction (Advanced)", "f-eid": "Filer (General)", "c-t-i": "Incumbency Data (Advanced)", "d-cci": "General Industry (Contributors)", "d-ccg": "Broad Sector (Contributors)", "d-ccb": "Specific Business (Contributors)", "d-ad-zip": "Zip (Contributors)", "c-t-sts": "Status of Candidate (Candidates)", "d-nme": "Original Name (Advanced)", "c-t-icod": "Incumbency Advantage (Advanced)", "d-ins": "In-Jurisdiction (Contributors)", "d-ad-cty": "City (Contributors)", "d-occupation": "Occupation (Contributors)", "d-search": "DND (Advanced)", "d-ludte": "Last Updated (Advanced)", "d-file": "DND (Advanced)", "d-ad-str": "Street (Advanced)", "d-dte": "Date (Advanced)", "d-ad-st": "State (Contributors)", "f-y": "Filing Year (Advanced)", "f-s": "Filing Jurisdiction (General)", "d-eid": "Contributor (Contributors)", "d-llink": "Lobbying Entity? (Advanced)"}, "currentGrouping": {"c-t-id": "Candidate (General)"}, "groupLink": "gro=c-t-id"}}}